Python/scripts/Traces/NF10.csv

X,CH1,CH2,CH3,Start,Increment,
Sequence,Volt,Volt,Volt,-2.995000e+00,5.000000e-03
0,-1.10e+01,-1.12e+01,-4.00e-01,
1,-1.06e+01,-1.18e+01,-1.20e-01,
2,-1.10e+01,-1.12e+01,-3.60e-01,
3,-1.06e+01,-1.18e+01,-1.20e-01,
4,-1.10e+01,-1.12e+01,-4.00e-01,
5,-1.06e+01,-1.18e+01,-1.20e-01,
6,-1.06e+01,-1.18e+01,-1.20e-01,
7,-1.10e+01,-1.12e+01,-3.20e-01,
8,-1.10e+01,-1.18e+01,-3.20e-01,
9,-1.06e+01,-1.12e+01,0.00e+00,
10,-1.10e+01,-1.16e+01,-2.80e-01,
11,-1.06e+01,-1.12e+01,0.00e+00,
12,-1.10e+01,-1.18e+01,0.00e+00,
13,-1.06e+01,-1.12e+01,-2.40e-01,
14,-1.10e+01,-1.18e+01,-2.80e-01,
15,-1.06e+01,-1.12e+01,4.00e-02,
16,-1.06e+01,-1.14e+01,-2.40e-01,
17,-1.10e+01,-1.18e+01,8.00e-02,
18,-1.10e+01,-1.18e+01,8.00e-02,
19,-1.06e+01,-1.12e+01,-2.00e-01,
20,-1.10e+01,-1.12e+01,1.20e-01,
21,-1.06e+01,-1.18e+01,-2.00e-01,
22,-1.10e+01,-1.18e+01,1.60e-01,
23,-1.06e+01,-1.12e+01,-1.60e-01,
24,-1.06e+01,-1.12e+01,-1.20e-01,
25,-1.10e+01,-1.18e+01,1.60e-01,
26,-1.10e+01,-1.12e+01,-8.00e-02,
27,-1.06e+01,-1.18e+01,2.00e-01,
28,-1.10e+01,-1.18e+01,-8.00e-02,
29,-1.06e+01,-1.12e+01,1.60e-01,
30,-1.10e+01,-1.18e+01,1.20e-01,
31,-1.06e+01,-1.12e+01,-8.00e-02,
32,-1.10e+01,-1.12e+01,2.00e-01,
33,-1.06e+01,-1.18e+01,-1.20e-01,
34,-1.06e+01,-1.18e+01,-1.60e-01,
35,-1.10e+01,-1.12e+01,1.60e-01,
36,-1.10e+01,-1.14e+01,-8.00e-02,
37,-1.06e+01,-1.18e+01,1.60e-01,
38,-1.10e+01,-1.12e+01,-8.00e-02,
39,-1.06e+01,-1.18e+01,1.60e-01,
40,-1.10e+01,-1.12e+01,-8.00e-02,
41,-1.06e+01,-1.18e+01,2.00e-01,
42,-1.10e+01,-1.18e+01,-1.60e-01,
43,-1.06e+01,-1.12e+01,1.20e-01,
44,-1.10e+01,-1.18e+01,1.20e-01,
45,-1.06e+01,-1.12e+01,-2.00e-01,
46,-1.10e+01,-1.18e+01,-1.60e-01,
47,-1.06e+01,-1.12e+01,1.20e-01,
48,-1.06e+01,-1.18e+01,1.20e-01,
49,-1.10e+01,-1.12e+01,-1.60e-01,
50,-1.10e+01,-1.18e+01,-1.60e-01,
51,-1.06e+01,-1.10e+01,1.20e-01,
52,-1.10e+01,-1.12e+01,1.20e-01,
53,-1.06e+01,-1.18e+01,-1.20e-01,
54,-1.10e+01,-1.12e+01,-2.00e-01,
55,-1.06e+01,-1.18e+01,1.20e-01,
56,-1.10e+01,-1.18e+01,-2.00e-01,
57,-1.06e+01,-1.12e+01,1.20e-01,
58,-1.10e+01,-1.18e+01,-2.00e-01,
59,-1.06e+01,-1.12e+01,1.20e-01,
60,-1.10e+01,-1.12e+01,-1.60e-01,
61,-1.06e+01,-1.18e+01,1.20e-01,
62,-1.10e+01,-1.18e+01,-1.60e-01,
63,-1.06e+01,-1.12e+01,1.60e-01,
64,-1.10e+01,-1.18e+01,-2.00e-01,
65,-1.06e+01,-1.12e+01,1.20e-01,
66,-1.10e+01,-1.12e+01,-8.00e-02,
67,-1.06e+01,-1.16e+01,1.60e-01,
68,-1.10e+01,-1.12e+01,2.40e-01,
69,-1.06e+01,-1.18e+01,-8.00e-02,
70,-1.10e+01,-1.18e+01,-8.00e-02,
71,-1.06e+01,-1.12e+01,2.40e-01,
72,-1.10e+01,-1.18e+01,-4.00e-02,
73,-1.06e+01,-1.12e+01,2.40e-01,
74,-1.06e+01,-1.18e+01,-4.00e-02,
75,-1.10e+01,-1.12e+01,2.80e-01,
76,-1.06e+01,-1.12e+01,0.00e+00,
77,-1.10e+01,-1.18e+01,2.80e-01,
78,-1.10e+01,-1.12e+01,4.00e-02,
79,-1.06e+01,-1.18e+01,3.20e-01,
80,-1.10e+01,-1.18e+01,3.20e-01,
81,-1.06e+01,-1.12e+01,4.00e-02,
82,-1.10e+01,-1.14e+01,8.00e-02,
83,-1.06e+01,-1.18e+01,4.00e-01,
84,-1.06e+01,-1.12e+01,1.20e-01,
85,-1.10e+01,-1.18e+01,4.40e-01,
86,-1.10e+01,-1.12e+01,1.60e-01,
87,-1.06e+01,-1.18e+01,4.40e-01,
88,-1.06e+01,-1.18e+01,4.40e-01,
89,-1.10e+01,-1.12e+01,1.20e-01,
90,-1.10e+01,-1.18e+01,4.40e-01,
91,-1.06e+01,-1.12e+01,1.60e-01,
92,-1.10e+01,-1.12e+01,1.60e-01,
93,-1.06e+01,-1.18e+01,4.40e-01,
94,-1.10e+01,-1.12e+01,1.60e-01,
95,-1.06e+01,-1.18e+01,4.80e-01,
96,-1.06e+01,-1.18e+01,1.60e-01,
97,-1.10e+01,-1.12e+01,4.80e-01,
98,-1.06e+01,-1.12e+01,1.60e-01,
99,-1.10e+01,-1.18e+01,4.80e-01,
100,-1.10e+01,-1.18e+01,1.60e-01,
101,-1.06e+01,-1.12e+01,4.80e-01,
102,-1.10e+01,-1.12e+01,4.40e-01,
103,-1.06e+01,-1.18e+01,1.60e-01,
104,-1.10e+01,-1.18e+01,1.20e-01,
105,-1.06e+01,-1.12e+01,4.40e-01,
106,-1.10e+01,-1.12e+01,1.20e-01,
107,-1.06e+01,-1.18e+01,4.40e-01,
108,-1.10e+01,-1.10e+01,1.20e-01,
109,-1.06e+01,-1.18e+01,4.40e-01,
110,-1.10e+01,-1.18e+01,1.20e-01,
111,-1.06e+01,-1.12e+01,3.60e-01,
112,-1.10e+01,-1.12e+01,1.20e-01,
113,-1.06e+01,-1.18e+01,3.60e-01,
114,-1.10e+01,-1.18e+01,8.00e-02,
115,-1.06e+01,-1.12e+01,4.00e-01,
116,-1.10e+01,-1.18e+01,3.20e-01,
117,-1.06e+01,-1.12e+01,4.00e-02,
118,-1.10e+01,-1.18e+01,3.20e-01,
119,-1.06e+01,-1.12e+01,0.00e+00,
120,-1.10e+01,-1.18e+01,3.20e-01,
121,-1.06e+01,-1.12e+01,0.00e+00,
122,-1.10e+01,-1.18e+01,2.80e-01,
123,-1.06e+01,-1.12e+01,4.00e-02,
124,-1.06e+01,-1.18e+01,0.00e+00,
125,-1.10e+01,-1.12e+01,3.20e-01,
126,-1.06e+01,-1.12e+01,0.00e+00,
127,-1.10e+01,-1.18e+01,3.20e-01,
128,-1.10e+01,-1.18e+01,3.20e-01,
129,-1.06e+01,-1.12e+01,4.00e-02,
130,-1.10e+01,-1.12e+01,4.00e-02,
131,-1.06e+01,-1.18e+01,3.20e-01,
132,-1.06e+01,-1.18e+01,2.80e-01,
133,-1.10e+01,-1.12e+01,0.00e+00,
134,-1.10e+01,-1.12e+01,4.00e-02,
135,-1.06e+01,-1.18e+01,3.20e-01,
136,-1.10e+01,-1.12e+01,4.00e-02,
137,-1.06e+01,-1.18e+01,3.60e-01,
138,-1.06e+01,-1.12e+01,4.00e-02,
139,-1.10e+01,-1.18e+01,3.60e-01,
140,-1.10e+01,-1.12e+01,3.60e-01,
141,-1.06e+01,-1.18e+01,8.00e-02,
142,-1.10e+01,-1.12e+01,8.00e-02,
143,-1.06e+01,-1.18e+01,4.00e-01,
144,-1.10e+01,-1.18e+01,4.40e-01,
145,-1.06e+01,-1.12e+01,1.20e-01,
146,-1.06e+01,-1.18e+01,1.60e-01,
147,-1.10e+01,-1.12e+01,4.40e-01,
148,-1.06e+01,-1.12e+01,1.60e-01,
149,-1.10e+01,-1.18e+01,4.00e-01,
150,-1.10e+01,-1.18e+01,4.80e-01,
151,-1.06e+01,-1.12e+01,1.60e-01,
152,-1.10e+01,-1.18e+01,1.60e-01,
153,-1.06e+01,-1.12e+01,4.80e-01,
154,-1.10e+01,-1.18e+01,4.80e-01,
155,-1.06e+01,-1.12e+01,2.00e-01,
156,-1.10e+01,-1.10e+01,2.00e-01,
157,-1.06e+01,-1.18e+01,4.80e-01,
158,-1.10e+01,-1.12e+01,4.80e-01,
159,-1.06e+01,-1.18e+01,1.60e-01,
160,-1.10e+01,-1.12e+01,1.60e-01,
161,-1.06e+01,-1.18e+01,4.00e-01,
162,-1.06e+01,-1.18e+01,4.40e-01,
163,-1.10e+01,-1.12e+01,1.60e-01,
164,-1.06e+01,-1.12e+01,4.40e-01,
165,-1.10e+01,-1.18e+01,1.60e-01,
166,-1.10e+01,-1.18e+01,4.00e-01,
167,-1.06e+01,-1.10e+01,1.20e-01,
168,-1.10e+01,-1.18e+01,4.40e-01,
169,-1.06e+01,-1.12e+01,1.20e-01,
170,-1.10e+01,-1.12e+01,4.00e-01,
171,-1.06e+01,-1.18e+01,4.00e-02,
172,-1.10e+01,-1.18e+01,3.60e-01,
173,-1.06e+01,-1.12e+01,4.00e-02,
174,-1.10e+01,-1.12e+01,3.20e-01,
175,-1.06e+01,-1.18e+01,8.00e-02,
176,-1.10e+01,-1.12e+01,0.00e+00,
177,-1.06e+01,-1.18e+01,3.20e-01,
178,-1.10e+01,-1.18e+01,2.80e-01,
179,-1.06e+01,-1.12e+01,-4.00e-02,
180,-1.10e+01,-1.18e+01,2.80e-01,
181,-1.06e+01,-1.10e+01,-4.00e-02,
182,-1.10e+01,-1.18e+01,2.40e-01,
183,-1.06e+01,-1.12e+01,-4.00e-02,
184,-1.10e+01,-1.18e+01,2.40e-01,
185,-1.06e+01,-1.12e+01,-8.00e-02,
186,-1.06e+01,-1.18e+01,2.00e-01,
187,-1.10e+01,-1.12e+01,-8.00e-02,
188,-1.10e+01,-1.18e+01,-8.00e-02,
189,-1.06e+01,-1.12e+01,1.60e-01,
190,-1.10e+01,-1.18e+01,1.20e-01,
191,-1.06e+01,-1.14e+01,-1.20e-01,
192,-1.10e+01,-1.18e+01,1.20e-01,
193,-1.06e+01,-1.12e+01,-1.60e-01,
194,-1.10e+01,-1.12e+01,1.20e-01,
195,-1.06e+01,-1.18e+01,-1.20e-01,
196,-1.10e+01,-1.12e+01,1.20e-01,
197,-1.06e+01,-1.18e+01,-1.60e-01,
198,-1.10e+01,-1.18e+01,-1.60e-01,
199,-1.06e+01,-1.10e+01,1.20e-01,
200,-1.06e+01,-1.12e+01,1.20e-01,
201,-1.10e+01,-1.18e+01,-1.60e-01,
202,-1.10e+01,-1.18e+01,-1.20e-01,
203,-1.08e+01,-1.12e+01,1.20e-01,
204,-1.10e+01,-1.18e+01,-8.00e-02,
205,-1.06e+01,-1.10e+01,1.60e-01,
206,-1.10e+01,-1.18e+01,-2.00e-01,
207,-1.06e+01,-1.12e+01,1.20e-01,
208,-1.10e+01,-1.12e+01,1.60e-01,
209,-1.06e+01,-1.18e+01,-1.60e-01,
210,-1.10e+01,-1.18e+01,2.00e-01,
211,-1.06e+01,-1.12e+01,-1.20e-01,
212,-1.10e+01,-1.18e+01,1.20e-01,
213,-1.06e+01,-1.12e+01,-1.20e-01,
214,-1.10e+01,-1.18e+01,-8.00e-02,
215,-1.06e+01,-1.12e+01,2.00e-01,
216,-1.10e+01,-1.12e+01,-1.20e-01,
217,-1.06e+01,-1.18e+01,2.00e-01,
218,-1.10e+01,-1.18e+01,2.40e-01,
219,-1.06e+01,-1.12e+01,-1.20e-01,
220,-1.10e+01,-1.18e+01,2.00e-01,
221,-1.06e+01,-1.12e+01,-8.00e-02,
222,-1.10e+01,-1.18e+01,-1.20e-01,
223,-1.06e+01,-1.12e+01,2.00e-01,
224,-1.06e+01,-1.18e+01,1.60e-01,
225,-1.10e+01,-1.12e+01,-8.00e-02,
226,-1.10e+01,-1.18e+01,2.00e-01,
227,-1.06e+01,-1.12e+01,-8.00e-02,
228,-1.10e+01,-1.12e+01,2.00e-01,
229,-1.06e+01,-1.18e+01,-1.20e-01,
230,-1.10e+01,-1.18e+01,-1.20e-01,
231,-1.06e+01,-1.12e+01,1.60e-01,
232,-1.10e+01,-1.18e+01,1.20e-01,
233,-1.06e+01,-1.12e+01,-2.00e-01,
234,-1.10e+01,-1.10e+01,1.20e-01,
235,-1.06e+01,-1.18e+01,-2.00e-01,
236,-1.10e+01,-1.18e+01,8.00e-02,
237,-1.06e+01,-1.12e+01,-2.00e-01,
238,-1.10e+01,-1.18e+01,4.00e-02,
239,-1.06e+01,-1.12e+01,-2.40e-01,
240,-1.10e+01,-1.18e+01,4.00e-02,
241,-1.06e+01,-1.12e+01,-2.80e-01,
242,-1.10e+01,-1.12e+01,0.00e+00,
243,-1.06e+01,-1.18e+01,-2.80e-01,
244,-1.10e+01,-1.18e+01,-4.00e-02,
245,-1.06e+01,-1.12e+01,-3.20e-01,
246,-1.10e+01,-1.18e+01,-4.00e-02,
247,-1.06e+01,-1.12e+01,-3.20e-01,
248,-1.10e+01,-1.18e+01,-8.00e-02,
249,-1.06e+01,-1.12e+01,-3.60e-01,
250,-1.10e+01,-1.12e+01,-8.00e-02,
251,-1.06e+01,-1.18e+01,-3.60e-01,
252,-1.10e+01,-1.12e+01,-4.00e-01,
253,-1.06e+01,-1.18e+01,-1.20e-01,
254,-1.10e+01,-1.12e+01,-1.20e-01,
255,-1.06e+01,-1.18e+01,-4.00e-01,
256,-1.10e+01,-1.18e+01,-4.00e-01,
257,-1.06e+01,-1.12e+01,-1.20e-01,
258,-1.10e+01,-1.18e+01,-1.60e-01,
259,-1.06e+01,-1.12e+01,-4.40e-01,
260,-1.06e+01,-1.18e+01,-1.60e-01,
261,-1.10e+01,-1.12e+01,-4.40e-01,
262,-1.10e+01,-1.18e+01,-1.60e-01,
263,-1.06e+01,-1.12e+01,-4.40e-01,
264,-1.10e+01,-1.18e+01,-1.60e-01,
265,-1.06e+01,-1.12e+01,-4.40e-01,
266,-1.10e+01,-1.14e+01,-1.60e-01,
267,-1.06e+01,-1.18e+01,-4.40e-01,
268,-1.10e+01,-1.18e+01,-1.60e-01,
269,-1.06e+01,-1.12e+01,-4.40e-01,
270,-1.10e+01,-1.12e+01,-4.00e-01,
271,-1.06e+01,-1.18e+01,-1.60e-01,
272,-1.06e+01,-1.12e+01,-4.40e-01,
273,-1.10e+01,-1.18e+01,-1.20e-01,
274,-1.06e+01,-1.12e+01,-4.00e-01,
275,-1.10e+01,-1.18e+01,-1.20e-01,
276,-1.10e+01,-1.18e+01,-4.00e-01,
277,-1.06e+01,-1.12e+01,-1.20e-01,
278,-1.10e+01,-1.12e+01,-1.20e-01,
279,-1.06e+01,-1.18e+01,-4.00e-01,
280,-1.06e+01,-1.12e+01,-3.60e-01,
281,-1.10e+01,-1.18e+01,-8.00e-02,
282,-1.10e+01,-1.12e+01,-3.60e-01,
283,-1.06e+01,-1.18e+01,-8.00e-02,
284,-1.10e+01,-1.18e+01,-8.00e-02,
285,-1.06e+01,-1.12e+01,-3.60e-01,
286,-1.06e+01,-1.12e+01,-4.00e-02,
287,-1.10e+01,-1.18e+01,-3.60e-01,
288,-1.10e+01,-1.18e+01,-8.00e-02,
289,-1.06e+01,-1.12e+01,-3.60e-01,
290,-1.06e+01,-1.12e+01,0.00e+00,
291,-1.10e+01,-1.18e+01,-4.00e-01,
292,-1.10e+01,-1.18e+01,-3.60e-01,
293,-1.08e+01,-1.12e+01,-4.00e-02,
294,-1.10e+01,-1.18e+01,-3.20e-01,
295,-1.06e+01,-1.12e+01,-4.00e-02,
296,-1.10e+01,-1.12e+01,-3.20e-01,
297,-1.06e+01,-1.18e+01,-8.00e-02,
298,-1.10e+01,-1.12e+01,-1.20e-01,
299,-1.06e+01,-1.18e+01,-4.00e-01,
300,-1.10e+01,-1.12e+01,-8.00e-02,
301,-1.08e+01,-1.18e+01,-4.00e-01,
302,-1.10e+01,-1.12e+01,-8.00e-02,
303,-1.06e+01,-1.18e+01,-4.00e-01,
304,-1.10e+01,-1.12e+01,-1.20e-01,
305,-1.06e+01,-1.18e+01,-4.00e-01,
306,-1.10e+01,-1.18e+01,-4.00e-01,
307,-1.06e+01,-1.12e+01,-1.20e-01,
308,-1.10e+01,-1.18e+01,-4.00e-01,
309,-1.06e+01,-1.12e+01,-1.60e-01,
310,-1.06e+01,-1.12e+01,-1.60e-01,
311,-1.10e+01,-1.18e+01,-4.80e-01,
312,-1.10e+01,-1.18e+01,-4.40e-01,
313,-1.06e+01,-1.12e+01,-1.60e-01,
314,-1.10e+01,-1.18e+01,-4.80e-01,
315,-1.06e+01,-1.12e+01,-2.00e-01,
316,-1.10e+01,-1.12e+01,-2.00e-01,
317,-1.06e+01,-1.18e+01,-4.80e-01,
318,-1.10e+01,-1.12e+01,-2.00e-01,
319,-1.06e+01,-1.18e+01,-4.80e-01,
320,-1.10e+01,-1.12e+01,-2.40e-01,
321,-1.06e+01,-1.18e+01,-5.60e-01,
322,-1.10e+01,-1.18e+01,-2.40e-01,
323,-1.06e+01,-1.12e+01,-5.20e-01,
324,-1.10e+01,-1.12e+01,-4.80e-01,
325,-1.06e+01,-1.18e+01,-2.40e-01,
326,-1.10e+01,-1.12e+01,-2.40e-01,
327,-1.06e+01,-1.18e+01,-5.20e-01,
328,-1.10e+01,-1.18e+01,-5.60e-01,
329,-1.06e+01,-1.12e+01,-2.00e-01,
330,-1.10e+01,-1.18e+01,-4.80e-01,
331,-1.06e+01,-1.12e+01,-2.40e-01,
332,-1.10e+01,-1.18e+01,-4.80e-01,
333,-1.06e+01,-1.12e+01,-1.60e-01,
334,-1.10e+01,-1.12e+01,-4.80e-01,
335,-1.06e+01,-1.18e+01,-1.60e-01,
336,-1.10e+01,-1.18e+01,-4.00e-01,
337,-1.06e+01,-1.12e+01,-1.60e-01,
338,-1.10e+01,-1.18e+01,-4.40e-01,
339,-1.06e+01,-1.12e+01,-1.60e-01,
340,-1.10e+01,-1.18e+01,-4.00e-01,
341,-1.06e+01,-1.12e+01,-1.20e-01,
342,-1.10e+01,-1.18e+01,-1.20e-01,
343,-1.06e+01,-1.12e+01,-3.60e-01,
344,-1.10e+01,-1.12e+01,-8.00e-02,
345,-1.06e+01,-1.18e+01,-4.00e-01,
346,-1.06e+01,-1.12e+01,-4.00e-01,
347,-1.10e+01,-1.18e+01,-4.00e-02,
348,-1.10e+01,-1.18e+01,-4.00e-02,
349,-1.06e+01,-1.12e+01,-3.20e-01,
350,-1.10e+01,-1.12e+01,-3.60e-01,
351,-1.06e+01,-1.18e+01,0.00e+00,
352,-1.10e+01,-1.10e+01,-2.80e-01,
353,-1.06e+01,-1.18e+01,4.00e-02,
354,-1.10e+01,-1.12e+01,4.00e-02,
355,-1.06e+01,-1.18e+01,-2.80e-01,
356,-1.10e+01,-1.12e+01,-2.80e-01,
357,-1.06e+01,-1.18e+01,4.00e-02,
358,-1.06e+01,-1.18e+01,-2.40e-01,
359,-1.10e+01,-1.12e+01,4.00e-02,
360,-1.10e+01,-1.12e+01,8.00e-02,
361,-1.06e+01,-1.18e+01,-2.40e-01,
362,-1.10e+01,-1.18e+01,-2.40e-01,
363,-1.06e+01,-1.12e+01,8.00e-02,
364,-1.06e+01,-1.18e+01,8.00e-02,
365,-1.10e+01,-1.12e+01,-2.40e-01,
366,-1.10e+01,-1.12e+01,-2.00e-01,
367,-1.06e+01,-1.18e+01,8.00e-02,
368,-1.06e+01,-1.18e+01,8.00e-02,
369,-1.10e+01,-1.12e+01,-2.40e-01,
370,-1.06e+01,-1.12e+01,8.00e-02,
371,-1.10e+01,-1.18e+01,-2.00e-01,
372,-1.10e+01,-1.12e+01,4.00e-02,
373,-1.06e+01,-1.18e+01,-2.40e-01,
374,-1.10e+01,-1.12e+01,4.00e-02,
375,-1.06e+01,-1.18e+01,-2.80e-01,
376,-1.10e+01,-1.12e+01,-2.40e-01,
377,-1.06e+01,-1.18e+01,4.00e-02,
378,-1.10e+01,-1.16e+01,4.00e-02,
379,-1.06e+01,-1.12e+01,-2.80e-01,
380,-1.10e+01,-1.12e+01,4.00e-02,
381,-1.06e+01,-1.18e+01,-2.40e-01,
382,-1.10e+01,-1.12e+01,-2.80e-01,
383,-1.06e+01,-1.18e+01,4.00e-02,
384,-1.10e+01,-1.12e+01,0.00e+00,
385,-1.06e+01,-1.18e+01,-2.80e-01,
386,-1.06e+01,-1.12e+01,-4.00e-02,
387,-1.10e+01,-1.18e+01,-2.80e-01,
388,-1.10e+01,-1.12e+01,-2.80e-01,
389,-1.06e+01,-1.18e+01,0.00e+00,
390,-1.10e+01,-1.18e+01,-2.40e-01,
391,-1.06e+01,-1.12e+01,4.00e-02,
392,-1.10e+01,-1.12e+01,-2.40e-01,
393,-1.06e+01,-1.18e+01,4.00e-02,
394,-1.10e+01,-1.12e+01,4.00e-02,
395,-1.06e+01,-1.18e+01,-2.80e-01,
396,-1.10e+01,-1.12e+01,-2.40e-01,
397,-1.06e+01,-1.18e+01,4.00e-02,
398,-1.10e+01,-1.18e+01,4.00e-02,
399,-1.06e+01,-1.12e+01,-2.00e-01,
400,-1.10e+01,-1.12e+01,-2.00e-01,
401,-1.06e+01,-1.18e+01,8.00e-02,
402,-1.10e+01,-1.18e+01,-1.60e-01,
403,-1.06e+01,-1.12e+01,8.00e-02,
404,-1.10e+01,-1.18e+01,-2.00e-01,
405,-1.06e+01,-1.12e+01,1.20e-01,
406,-1.10e+01,-1.12e+01,-1.60e-01,
407,-1.06e+01,-1.18e+01,1.60e-01,
408,-1.06e+01,-1.12e+01,-8.00e-02,
409,-1.10e+01,-1.18e+01,2.00e-01,
410,-1.10e+01,-1.18e+01,-8.00e-02,
411,-1.06e+01,-1.12e+01,2.40e-01,
412,-1.10e+01,-1.18e+01,2.00e-01,
413,-1.06e+01,-1.12e+01,-4.00e-02,
414,-1.10e+01,-1.18e+01,0.00e+00,
415,-1.06e+01,-1.12e+01,2.40e-01,
416,-1.06e+01,-1.12e+01,2.40e-01,
417,-1.10e+01,-1.18e+01,0.00e+00,
418,-1.10e+01,-1.12e+01,0.00e+00,
419,-1.06e+01,-1.18e+01,3.20e-01,
420,-1.10e+01,-1.16e+01,3.20e-01,
421,-1.06e+01,-1.12e+01,0.00e+00,
422,-1.10e+01,-1.12e+01,3.20e-01,
423,-1.06e+01,-1.18e+01,4.00e-02,
424,-1.06e+01,-1.12e+01,3.20e-01,
425,-1.10e+01,-1.18e+01,8.00e-02,
426,-1.10e+01,-1.12e+01,1.20e-01,
427,-1.06e+01,-1.18e+01,3.60e-01,
428,-1.10e+01,-1.18e+01,4.00e-01,
429,-1.06e+01,-1.12e+01,8.00e-02,
430,-1.06e+01,-1.18e+01,8.00e-02,
431,-1.10e+01,-1.12e+01,3.60e-01,
432,-1.06e+01,-1.12e+01,8.00e-02,
433,-1.10e+01,-1.18e+01,3.60e-01,
434,-1.10e+01,-1.12e+01,8.00e-02,
435,-1.06e+01,-1.18e+01,4.00e-01,
436,-1.10e+01,-1.12e+01,3.60e-01,
437,-1.06e+01,-1.18e+01,8.00e-02,
438,-1.06e+01,-1.12e+01,3.20e-01,
439,-1.10e+01,-1.18e+01,4.00e-02,
440,-1.10e+01,-1.18e+01,4.00e-02,
441,-1.06e+01,-1.12e+01,3.20e-01,
442,-1.10e+01,-1.18e+01,3.20e-01,
443,-1.06e+01,-1.12e+01,8.00e-02,
444,-1.10e+01,-1.18e+01,3.20e-01,
445,-1.06e+01,-1.12e+01,4.00e-02,
446,-1.10e+01,-1.12e+01,4.00e-02,
447,-1.06e+01,-1.18e+01,2.80e-01,
448,-1.10e+01,-1.12e+01,0.00e+00,
449,-1.06e+01,-1.16e+01,2.80e-01,
450,-1.10e+01,-1.12e+01,2.80e-01,
451,-1.06e+01,-1.18e+01,4.00e-02,
452,-1.06e+01,-1.18e+01,2.80e-01,
453,-1.10e+01,-1.12e+01,0.00e+00,
454,-1.10e+01,-1.18e+01,2.40e-01,
455,-1.06e+01,-1.12e+01,-4.00e-02,
456,-1.10e+01,-1.12e+01,0.00e+00,
457,-1.06e+01,-1.18e+01,2.80e-01,
458,-1.06e+01,-1.12e+01,2.80e-01,
459,-1.10e+01,-1.18e+01,0.00e+00,
460,-1.10e+01,-1.12e+01,2.80e-01,
461,-1.06e+01,-1.16e+01,0.00e+00,
462,-1.10e+01,-1.18e+01,0.00e+00,
463,-1.06e+01,-1.12e+01,2.80e-01,
464,-1.06e+01,-1.18e+01,0.00e+00,
465,-1.10e+01,-1.12e+01,2.80e-01,
466,-1.10e+01,-1.12e+01,0.00e+00,
467,-1.06e+01,-1.18e+01,2.80e-01,
468,-1.10e+01,-1.12e+01,3.20e-01,
469,-1.06e+01,-1.18e+01,0.00e+00,
470,-1.10e+01,-1.12e+01,4.00e-02,
471,-1.06e+01,-1.18e+01,3.20e-01,
472,-1.10e+01,-1.12e+01,8.00e-02,
473,-1.06e+01,-1.18e+01,3.60e-01,
474,-1.10e+01,-1.12e+01,4.00e-01,
475,-1.06e+01,-1.18e+01,1.20e-01,
476,-1.10e+01,-1.12e+01,1.20e-01,
477,-1.06e+01,-1.16e+01,4.40e-01,
478,-1.10e+01,-1.18e+01,4.40e-01,
479,-1.06e+01,-1.12e+01,1.60e-01,
480,-1.10e+01,-1.18e+01,4.40e-01,
481,-1.06e+01,-1.12e+01,1.60e-01,
482,-1.06e+01,-1.18e+01,4.40e-01,
483,-1.10e+01,-1.12e+01,1.60e-01,
484,-1.10e+01,-1.12e+01,2.00e-01,
485,-1.06e+01,-1.18e+01,4.80e-01,
486,-1.10e+01,-1.18e+01,1.60e-01,
487,-1.06e+01,-1.12e+01,4.80e-01,
488,-1.06e+01,-1.16e+01,4.80e-01,
489,-1.10e+01,-1.12e+01,2.00e-01,
490,-1.10e+01,-1.12e+01,4.80e-01,
491,-1.06e+01,-1.18e+01,2.00e-01,
492,-1.06e+01,-1.18e+01,2.00e-01,
493,-1.10e+01,-1.12e+01,4.80e-01,
494,-1.06e+01,-1.12e+01,4.80e-01,
495,-1.10e+01,-1.18e+01,2.00e-01,
496,-1.10e+01,-1.18e+01,5.20e-01,
497,-1.06e+01,-1.12e+01,2.00e-01,
498,-1.06e+01,-1.18e+01,4.80e-01,
499,-1.10e+01,-1.12e+01,2.00e-01,
500,-1.06e+01,-1.18e+01,4.80e-01,
501,-1.10e+01,-1.12e+01,2.00e-01,
502,-1.10e+01,-1.18e+01,4.80e-01,
503,-1.06e+01,-1.12e+01,1.60e-01,
504,-1.06e+01,-1.12e+01,4.40e-01,
505,-1.10e+01,-1.18e+01,1.60e-01,
506,-1.10e+01,-1.18e+01,4.00e-01,
507,-1.06e+01,-1.12e+01,1.60e-01,
508,-1.10e+01,-1.12e+01,4.00e-01,
509,-1.06e+01,-1.18e+01,1.20e-01,
510,-1.10e+01,-1.12e+01,4.00e-02,
511,-1.06e+01,-1.18e+01,4.00e-01,
512,-1.06e+01,-1.16e+01,3.20e-01,
513,-1.10e+01,-1.12e+01,8.00e-02,
514,-1.10e+01,-1.12e+01,4.00e-02,
515,-1.06e+01,-1.18e+01,3.20e-01,
516,-1.10e+01,-1.16e+01,3.20e-01,
517,-1.06e+01,-1.12e+01,0.00e+00,
518,-1.10e+01,-1.18e+01,4.00e-02,
519,-1.06e+01,-1.12e+01,2.80e-01,
520,-1.06e+01,-1.12e+01,0.00e+00,
521,-1.10e+01,-1.18e+01,2.80e-01,
522,-1.10e+01,-1.18e+01,2.80e-01,
523,-1.06e+01,-1.12e+01,-4.00e-02,
524,-1.10e+01,-1.12e+01,2.40e-01,
525,-1.06e+01,-1.18e+01,-4.00e-02,
526,-1.06e+01,-1.12e+01,2.00e-01,
527,-1.10e+01,-1.18e+01,-8.00e-02,
528,-1.10e+01,-1.12e+01,-4.00e-02,
529,-1.06e+01,-1.18e+01,2.40e-01,
530,-1.10e+01,-1.12e+01,-8.00e-02,
531,-1.06e+01,-1.18e+01,2.40e-01,
532,-1.10e+01,-1.18e+01,2.00e-01,
533,-1.06e+01,-1.12e+01,-4.00e-02,
534,-1.06e+01,-1.18e+01,-4.00e-02,
535,-1.10e+01,-1.12e+01,2.40e-01,
536,-1.10e+01,-1.12e+01,-4.00e-02,
537,-1.06e+01,-1.18e+01,2.40e-01,
538,-1.06e+01,-1.18e+01,-4.00e-02,
539,-1.10e+01,-1.12e+01,2.40e-01,
540,-1.10e+01,-1.18e+01,-4.00e-02,
541,-1.06e+01,-1.12e+01,2.40e-01,
542,-1.10e+01,-1.12e+01,2.40e-01,
543,-1.06e+01,-1.18e+01,-4.00e-02,
544,-1.10e+01,-1.18e+01,2.80e-01,
545,-1.06e+01,-1.12e+01,-4.00e-02,
546,-1.10e+01,-1.12e+01,0.00e+00,
547,-1.06e+01,-1.18e+01,2.80e-01,
548,-1.10e+01,-1.12e+01,2.80e-01,
549,-1.06e+01,-1.18e+01,0.00e+00,
550,-1.10e+01,-1.18e+01,0.00e+00,
551,-1.06e+01,-1.12e+01,3.20e-01,
552,-1.10e+01,-1.12e+01,2.80e-01,
553,-1.06e+01,-1.18e+01,0.00e+00,
554,-1.10e+01,-1.18e+01,4.00e-02,
555,-1.06e+01,-1.12e+01,2.80e-01,
556,-1.10e+01,-1.12e+01,3.20e-01,
557,-1.06e+01,-1.18e+01,0.00e+00,
558,-1.06e+01,-1.12e+01,2.80e-01,
559,-1.10e+01,-1.18e+01,0.00e+00,
560,-1.10e+01,-1.18e+01,0.00e+00,
561,-1.06e+01,-1.12e+01,2.80e-01,
562,-1.10e+01,-1.12e+01,2.40e-01,
563,-1.06e+01,-1.18e+01,-4.00e-02,
564,-1.10e+01,-1.12e+01,2.40e-01,
565,-1.06e+01,-1.18e+01,-4.00e-02,
566,-1.10e+01,-1.12e+01,2.40e-01,
567,-1.06e+01,-1.18e+01,-4.00e-02,
568,-1.10e+01,-1.12e+01,2.40e-01,
569,-1.06e+01,-1.18e+01,-8.00e-02,
570,-1.06e+01,-1.18e+01,2.40e-01,
571,-1.10e+01,-1.12e+01,-8.00e-02,
572,-1.10e+01,-1.12e+01,2.00e-01,
573,-1.06e+01,-1.18e+01,-1.60e-01,
574,-1.06e+01,-1.12e+01,1.20e-01,
575,-1.10e+01,-1.18e+01,-2.00e-01,
576,-1.10e+01,-1.18e+01,1.20e-01,
577,-1.06e+01,-1.12e+01,-1.60e-01,
578,-1.10e+01,-1.12e+01,8.00e-02,
579,-1.06e+01,-1.18e+01,-2.00e-01,
580,-1.10e+01,-1.12e+01,4.00e-02,
581,-1.06e+01,-1.18e+01,-2.40e-01,
