Python/scripts/Traces/NF13.csv

X,CH1,CH2,Start,Increment,
Sequence,Volt,Volt,-5.999900e-01,1.000000e-03
0,-2.96e+00,-1.72e+00,
1,1.28e+00,2.40e+00,
2,1.28e+00,0.00e+00,
3,-8.00e-02,-2.40e-01,
4,-2.88e+00,-1.68e+00,
5,1.28e+00,2.40e+00,
6,8.00e-01,-4.00e-02,
7,-2.96e+00,-1.72e+00,
8,-2.80e+00,2.40e+00,
9,1.36e+00,-1.60e-01,
10,6.40e-01,-1.72e+00,
11,-2.96e+00,1.00e+00,
12,-9.60e-01,2.36e+00,
13,1.28e+00,-2.00e-01,
14,-2.96e+00,-1.68e+00,
15,1.36e+00,2.36e+00,
16,1.04e+00,0.00e+00,
17,-8.00e-02,-2.80e-01,
18,-2.88e+00,-1.68e+00,
19,1.28e+00,2.24e+00,
20,8.00e-01,-4.00e-02,
21,-1.12e+00,-1.04e+00,
22,-2.88e+00,-1.64e+00,
23,1.28e+00,2.36e+00,
24,7.20e-01,-1.60e+00,
25,-2.88e+00,2.40e-01,
26,-2.40e+00,2.44e+00,
27,1.36e+00,-1.60e-01,
28,4.80e-01,-1.64e+00,
29,-2.88e+00,1.84e+00,
30,8.00e-02,2.36e+00,
31,1.36e+00,-2.00e-01,
32,-2.88e+00,-1.60e+00,
33,1.36e+00,2.40e+00,
34,1.28e+00,0.00e+00,
35,2.40e-01,-2.00e-01,
36,-2.80e+00,-1.56e+00,
37,1.36e+00,2.40e+00,
38,1.20e+00,0.00e+00,
39,8.00e-02,-2.00e-01,
40,-2.88e+00,-1.52e+00,
41,1.36e+00,2.40e+00,
42,1.04e+00,4.00e-02,
43,0.00e+00,-2.00e-01,
44,-2.88e+00,-1.56e+00,
45,1.36e+00,2.40e+00,
46,1.04e+00,0.00e+00,
47,8.00e-02,-2.00e-01,
48,-2.88e+00,-1.52e+00,
49,1.36e+00,2.40e+00,
50,1.04e+00,0.00e+00,
51,8.00e-02,-2.00e-01,
52,-2.80e+00,-1.48e+00,
53,1.36e+00,2.40e+00,
54,1.12e+00,0.00e+00,
55,1.60e-01,-2.00e-01,
56,-1.60e-01,-1.60e-01,
57,4.00e-01,1.60e-01,
58,4.00e-01,-1.52e+00,
59,-2.88e+00,3.20e-01,
60,-1.92e+00,2.40e+00,
61,1.36e+00,-1.60e-01,
62,4.80e-01,-2.00e-01,
63,-2.40e-01,4.00e-02,
64,-1.60e-01,2.00e-01,
65,4.80e-01,-1.60e-01,
66,-4.00e-01,-2.00e-01,
67,5.60e-01,3.20e-01,
68,4.00e-01,-1.60e-01,
69,-8.00e-02,8.00e-02,
70,4.00e-01,-1.60e-01,
71,0.00e+00,8.00e-02,
72,2.40e-01,-1.20e-01,
73,8.00e-02,8.00e-02,
74,8.00e-02,8.00e-02,
75,2.40e-01,-1.60e-01,
76,8.00e-02,-1.20e-01,
77,2.40e-01,8.00e-02,
78,8.00e-02,-1.20e-01,
79,2.40e-01,4.00e-02,
80,8.00e-02,8.00e-02,
81,3.20e-01,-1.20e-01,
82,2.40e-01,-1.20e-01,
83,8.00e-02,4.00e-02,
84,2.40e-01,4.00e-02,
85,8.00e-02,-1.60e-01,
86,2.40e-01,-1.20e-01,
87,8.00e-02,8.00e-02,
88,8.00e-02,4.00e-02,
89,2.40e-01,-1.60e-01,
90,2.40e-01,8.00e-02,
91,8.00e-02,-1.60e-01,
92,8.00e-02,8.00e-02,
93,2.40e-01,-1.20e-01,
94,8.00e-02,4.00e-02,
95,2.40e-01,-1.60e-01,
96,2.40e-01,4.00e-02,
97,8.00e-02,-1.60e-01,
98,2.40e-01,4.00e-02,
99,8.00e-02,-1.60e-01,
100,2.40e-01,-1.60e-01,
101,8.00e-02,4.00e-02,
102,2.40e-01,4.00e-02,
103,1.60e-01,-1.20e-01,
104,2.40e-01,4.00e-02,
105,1.60e-01,-1.20e-01,
106,2.40e-01,4.00e-02,
107,8.00e-02,-1.60e-01,
108,2.40e-01,-8.00e-02,
109,8.00e-02,4.00e-02,
110,2.40e-01,-1.20e-01,
111,8.00e-02,4.00e-02,
112,8.00e-02,-1.60e-01,
113,2.40e-01,4.00e-02,
114,2.40e-01,4.00e-02,
115,8.00e-02,-1.60e-01,
116,2.40e-01,-1.20e-01,
117,8.00e-02,4.00e-02,
118,8.00e-02,4.00e-02,
119,2.40e-01,-1.20e-01,
120,2.40e-01,-1.20e-01,
121,8.00e-02,8.00e-02,
122,1.60e-01,4.00e-02,
123,2.40e-01,-1.20e-01,
124,2.40e-01,4.00e-02,
125,8.00e-02,-1.20e-01,
126,2.40e-01,4.00e-02,
127,8.00e-02,-1.60e-01,
128,2.40e-01,-1.20e-01,
129,8.00e-02,4.00e-02,
130,8.00e-02,4.00e-02,
131,2.40e-01,-1.60e-01,
132,2.40e-01,4.00e-02,
133,8.00e-02,-1.20e-01,
134,2.40e-01,-1.20e-01,
135,8.00e-02,4.00e-02,
136,2.40e-01,-1.20e-01,
137,8.00e-02,4.00e-02,
138,2.40e-01,-1.20e-01,
139,8.00e-02,4.00e-02,
140,8.00e-02,8.00e-02,
141,2.40e-01,-1.60e-01,
142,1.60e-01,8.00e-02,
143,2.40e-01,-1.20e-01,
144,1.60e-01,4.00e-02,
145,2.40e-01,-1.60e-01,
146,1.60e-01,8.00e-02,
147,2.40e-01,-1.20e-01,
148,2.40e-01,-1.20e-01,
149,8.00e-02,8.00e-02,
150,8.00e-02,4.00e-02,
151,2.40e-01,-1.60e-01,
152,2.40e-01,4.00e-02,
153,1.60e-01,-1.20e-01,
154,2.40e-01,4.00e-02,
155,8.00e-02,-1.20e-01,
156,8.00e-02,8.00e-02,
157,2.40e-01,-1.20e-01,
158,2.40e-01,4.00e-02,
159,8.00e-02,-1.20e-01,
160,8.00e-02,4.00e-02,
161,2.40e-01,-1.20e-01,
162,2.40e-01,-1.20e-01,
163,8.00e-02,4.00e-02,
164,8.00e-02,-1.20e-01,
165,2.40e-01,8.00e-02,
166,8.00e-02,-1.20e-01,
167,2.40e-01,8.00e-02,
168,8.00e-02,4.00e-02,
169,2.40e-01,-1.60e-01,
170,8.00e-02,-1.20e-01,
171,2.40e-01,4.00e-02,
172,8.00e-02,8.00e-02,
173,2.40e-01,-1.20e-01,
174,8.00e-02,-1.20e-01,
175,2.40e-01,4.00e-02,
176,8.00e-02,8.00e-02,
177,2.40e-01,-1.60e-01,
178,8.00e-02,4.00e-02,
179,1.60e-01,-1.60e-01,
180,1.60e-01,-1.20e-01,
181,8.00e-02,8.00e-02,
182,1.60e-01,8.00e-02,
183,8.00e-02,-1.20e-01,
184,1.60e-01,-1.20e-01,
185,0.00e+00,8.00e-02,
186,1.60e-01,4.00e-02,
187,8.00e-02,-1.20e-01,
188,1.60e-01,-1.20e-01,
189,0.00e+00,4.00e-02,
190,0.00e+00,-1.20e-01,
191,1.60e-01,8.00e-02,
192,1.60e-01,-1.20e-01,
193,0.00e+00,8.00e-02,
194,1.60e-01,8.00e-02,
195,0.00e+00,-1.60e-01,
196,1.60e-01,-1.20e-01,
197,0.00e+00,8.00e-02,
198,0.00e+00,-1.20e-01,
199,1.60e-01,8.00e-02,
200,1.60e-01,-1.20e-01,
201,0.00e+00,8.00e-02,
202,0.00e+00,-1.20e-01,
203,1.60e-01,4.00e-02,
204,0.00e+00,4.00e-02,
205,1.60e-01,-1.20e-01,
206,0.00e+00,4.00e-02,
207,1.60e-01,-1.20e-01,
208,1.60e-01,4.00e-02,
209,0.00e+00,-1.20e-01,
210,0.00e+00,-1.60e-01,
211,1.60e-01,8.00e-02,
212,0.00e+00,-1.60e-01,
213,1.60e-01,8.00e-02,
214,8.00e-02,-1.60e-01,
215,0.00e+00,8.00e-02,
216,8.00e-02,-1.20e-01,
217,-8.00e-02,8.00e-02,
218,0.00e+00,4.00e-02,
219,8.00e-02,-1.20e-01,
220,8.00e-02,-1.20e-01,
221,-8.00e-02,4.00e-02,
222,-8.00e-02,4.00e-02,
223,8.00e-02,-1.20e-01,
224,8.00e-02,4.00e-02,
225,-8.00e-02,-1.60e-01,
226,8.00e-02,4.00e-02,
227,-8.00e-02,-1.20e-01,
228,8.00e-02,-1.20e-01,
229,-8.00e-02,4.00e-02,
230,-8.00e-02,-1.60e-01,
231,8.00e-02,4.00e-02,
232,-8.00e-02,8.00e-02,
233,8.00e-02,-1.60e-01,
234,-1.60e-01,-1.20e-01,
235,8.00e-02,8.00e-02,
236,-8.00e-02,-1.60e-01,
237,8.00e-02,8.00e-02,
238,8.00e-02,-1.20e-01,
239,-8.00e-02,4.00e-02,
240,0.00e+00,-1.20e-01,
241,-1.60e-01,8.00e-02,
242,-8.00e-02,4.00e-02,
243,0.00e+00,-1.60e-01,
244,-1.60e-01,8.00e-02,
245,8.00e-02,-1.20e-01,
246,0.00e+00,4.00e-02,
247,-1.60e-01,-1.20e-01,
248,-1.60e-01,4.00e-02,
249,0.00e+00,-1.20e-01,
250,0.00e+00,4.00e-02,
251,-2.40e-01,-1.60e-01,
252,-2.40e-01,8.00e-02,
253,0.00e+00,-1.60e-01,
254,-2.40e-01,1.20e-01,
255,8.00e-02,-2.00e-01,
256,-2.40e-01,4.00e-02,
257,0.00e+00,-1.60e-01,
258,-3.20e-01,-1.20e-01,
259,0.00e+00,8.00e-02,
260,-6.40e-01,-2.00e-01,
261,3.20e-01,3.20e-01,
262,3.20e-01,8.00e-02,
263,-2.80e+00,-1.60e+00,
264,-3.12e+00,-7.20e-01,
265,1.12e+00,2.40e+00,
266,4.00e-01,0.00e+00,
267,-3.12e+00,-1.60e+00,
268,-3.04e+00,2.40e+00,
269,1.12e+00,-1.60e-01,
270,4.00e-01,-1.60e+00,
271,-3.12e+00,1.60e-01,
272,-2.64e+00,2.24e+00,
273,1.04e+00,-2.00e-01,
274,-3.12e+00,-1.68e+00,
275,8.80e-01,2.24e+00,
276,1.04e+00,3.20e-01,
277,-8.00e-02,-2.00e-01,
278,-3.12e+00,-1.60e+00,
279,1.04e+00,2.40e+00,
280,8.00e-01,-4.00e-02,
281,-8.80e-01,-6.00e-01,
282,-3.12e+00,-1.68e+00,
283,1.04e+00,2.36e+00,
284,4.80e-01,-1.72e+00,
285,-3.12e+00,2.00e-01,
286,-2.48e+00,2.36e+00,
287,1.04e+00,-1.60e-01,
288,-3.12e+00,-1.72e+00,
289,1.12e+00,2.36e+00,
290,9.60e-01,0.00e+00,
291,-8.80e-01,-7.60e-01,
292,-3.12e+00,-1.76e+00,
293,1.04e+00,2.32e+00,
294,4.80e-01,-1.72e+00,
295,-3.04e+00,4.40e-01,
296,-1.84e+00,2.32e+00,
297,1.04e+00,-2.40e-01,
298,-3.12e+00,-1.76e+00,
299,1.12e+00,2.32e+00,
300,7.20e-01,-1.80e+00,
301,-3.12e+00,2.00e-01,
302,-2.56e+00,2.32e+00,
303,1.20e+00,-1.60e-01,
304,-3.12e+00,-1.84e+00,
305,1.12e+00,2.32e+00,
306,8.00e-01,-1.88e+00,
307,-3.12e+00,1.20e-01,
308,-2.64e+00,2.28e+00,
309,1.12e+00,-2.00e-01,
310,-3.04e+00,-1.84e+00,
311,1.20e+00,2.32e+00,
312,8.80e-01,-1.84e+00,
313,-3.12e+00,2.40e-01,
314,-2.40e+00,2.32e+00,
315,1.20e+00,-2.80e-01,
316,-3.04e+00,-1.88e+00,
317,1.20e+00,2.28e+00,
318,7.20e-01,-1.88e+00,
319,-3.12e+00,5.60e-01,
320,-1.68e+00,2.32e+00,
321,1.20e+00,-8.80e-01,
322,-3.12e+00,-1.88e+00,
323,1.20e+00,2.28e+00,
324,-3.12e+00,-1.88e+00,
325,1.20e+00,2.32e+00,
326,1.12e+00,-1.80e+00,
327,-3.04e+00,1.20e-01,
328,-2.88e+00,2.28e+00,
329,1.20e+00,-2.40e-01,
330,-3.04e+00,-1.88e+00,
331,1.20e+00,2.28e+00,
332,8.00e-01,-1.92e+00,
333,-3.04e+00,5.20e-01,
334,1.20e+00,2.16e+00,
335,-2.80e+00,-1.92e+00,
336,-3.04e+00,-6.00e-01,
337,1.28e+00,2.28e+00,
338,-3.04e+00,-1.88e+00,
339,1.28e+00,2.16e+00,
340,9.60e-01,-1.92e+00,
341,-3.04e+00,2.40e-01,
342,-2.16e+00,2.24e+00,
343,1.20e+00,-1.68e+00,
344,-3.04e+00,-1.96e+00,
345,1.20e+00,2.12e+00,
346,-2.96e+00,-2.00e+00,
347,1.20e+00,2.24e+00,
348,9.60e-01,-2.00e+00,
349,-3.04e+00,3.20e-01,
350,1.28e+00,2.20e+00,
351,-3.04e+00,-1.96e+00,
352,-3.04e+00,2.12e+00,
353,1.28e+00,-2.40e-01,
354,-3.04e+00,-2.04e+00,
355,1.28e+00,2.16e+00,
356,8.80e-01,-2.04e+00,
357,-3.04e+00,1.16e+00,
358,1.28e+00,2.20e+00,
359,-3.04e+00,-2.04e+00,
360,-2.64e+00,2.24e+00,
361,1.28e+00,-4.80e-01,
362,-3.04e+00,-2.08e+00,
363,1.28e+00,2.20e+00,
364,-2.96e+00,-2.00e+00,
365,1.36e+00,2.24e+00,
366,1.20e+00,-2.00e+00,
367,-3.04e+00,2.80e-01,
368,1.36e+00,2.20e+00,
369,-2.96e+00,-2.04e+00,
370,-2.88e+00,2.16e+00,
371,1.36e+00,-2.80e-01,
372,-2.96e+00,-2.04e+00,
373,1.28e+00,2.20e+00,
374,9.60e-01,-2.04e+00,
375,-2.96e+00,2.16e+00,
376,1.36e+00,8.00e-01,
377,-2.96e+00,-2.12e+00,
378,1.36e+00,2.20e+00,
379,-2.96e+00,-2.08e+00,
380,-2.96e+00,2.16e+00,
381,1.36e+00,-2.80e-01,
382,-2.96e+00,-2.12e+00,
383,1.36e+00,2.16e+00,
384,9.60e-01,-2.08e+00,
385,-2.88e+00,2.16e+00,
386,1.36e+00,1.28e+00,
387,-2.96e+00,-2.12e+00,
388,1.36e+00,2.16e+00,
389,-2.96e+00,-2.12e+00,
390,-2.80e+00,2.16e+00,
391,1.36e+00,-2.80e-01,
392,-2.88e+00,-2.12e+00,
393,1.44e+00,2.16e+00,
394,-2.96e+00,-2.16e+00,
395,1.04e+00,2.12e+00,
396,1.44e+00,1.44e+00,
397,-2.88e+00,-2.12e+00,
398,1.44e+00,2.08e+00,
399,-2.88e+00,-2.16e+00,
400,-2.72e+00,2.16e+00,
401,1.44e+00,-3.60e-01,
402,-2.88e+00,-2.16e+00,
403,1.44e+00,2.16e+00,
404,-2.80e+00,-2.12e+00,
405,1.44e+00,2.08e+00,
406,1.44e+00,-2.00e+00,
407,-2.88e+00,2.40e-01,
408,1.44e+00,2.08e+00,
409,-2.88e+00,-2.16e+00,
410,-2.48e+00,2.12e+00,
411,1.44e+00,-1.12e+00,
412,-2.88e+00,-2.08e+00,
413,1.44e+00,2.08e+00,
414,-2.80e+00,-2.08e+00,
415,1.52e+00,2.12e+00,
416,1.28e+00,-2.12e+00,
417,-2.88e+00,4.40e-01,
418,1.44e+00,2.12e+00,
419,-2.80e+00,-2.20e+00,
420,1.52e+00,2.04e+00,
421,-2.80e+00,-2.20e+00,
422,-2.72e+00,2.12e+00,
423,1.52e+00,-3.60e-01,
424,-2.80e+00,-2.20e+00,
425,1.52e+00,2.08e+00,
426,1.20e+00,-2.20e+00,
427,-2.80e+00,1.16e+00,
428,1.52e+00,2.12e+00,
429,-2.80e+00,-2.16e+00,
430,1.52e+00,2.04e+00,
431,-2.80e+00,-2.20e+00,
432,-2.64e+00,2.08e+00,
433,1.52e+00,-5.60e-01,
434,-2.72e+00,-2.20e+00,
435,1.52e+00,2.12e+00,
436,-2.72e+00,-2.20e+00,
437,1.20e+00,2.04e+00,
438,1.52e+00,5.60e-01,
439,-2.72e+00,-2.20e+00,
440,1.60e+00,2.04e+00,
441,-2.80e+00,-2.28e+00,
442,-2.40e+00,2.00e+00,
443,1.60e+00,-1.48e+00,
444,-2.72e+00,-2.20e+00,
445,1.60e+00,2.00e+00,
446,-2.72e+00,-2.20e+00,
447,1.60e+00,2.00e+00,
448,1.60e+00,-2.24e+00,
449,-2.64e+00,2.00e-01,
450,1.60e+00,2.00e+00,
451,-2.72e+00,-2.24e+00,
452,-2.24e+00,2.00e+00,
453,1.60e+00,-2.24e+00,
454,-2.64e+00,-1.56e+00,
455,1.60e+00,2.04e+00,
456,-2.64e+00,-2.24e+00,
457,1.60e+00,2.00e+00,
458,1.52e+00,-2.24e+00,
459,-2.64e+00,2.40e-01,
460,1.60e+00,2.04e+00,
461,-2.72e+00,-2.24e+00,
462,1.60e+00,2.00e+00,
463,-2.56e+00,-2.24e+00,
464,-2.64e+00,2.04e+00,
465,1.68e+00,-2.80e-01,
466,-2.56e+00,-2.20e+00,
467,1.68e+00,2.00e+00,
468,1.52e+00,-2.28e+00,
469,-2.56e+00,2.80e-01,
470,1.68e+00,2.00e+00,
471,-2.56e+00,-2.24e+00,
472,1.60e+00,2.00e+00,
473,-2.56e+00,-2.28e+00,
474,-2.56e+00,2.00e+00,
475,1.68e+00,-2.80e-01,
476,-2.56e+00,-2.24e+00,
477,1.68e+00,2.04e+00,
478,1.60e+00,-2.20e+00,
479,-2.56e+00,2.40e-01,
480,1.68e+00,2.00e+00,
481,-2.56e+00,-2.24e+00,
482,1.68e+00,2.00e+00,
483,-2.48e+00,-2.28e+00,
484,-2.56e+00,2.00e+00,
485,1.76e+00,-3.20e-01,
486,-2.56e+00,-2.20e+00,
487,1.76e+00,2.00e+00,
488,1.68e+00,-2.28e+00,
489,-2.56e+00,2.00e-01,
490,1.76e+00,2.00e+00,
491,-2.48e+00,-2.16e+00,
492,1.76e+00,1.96e+00,
493,-2.24e+00,-2.24e+00,
494,-2.48e+00,-4.80e-01,
495,1.76e+00,1.96e+00,
496,-2.48e+00,-2.28e+00,
497,1.76e+00,2.00e+00,
498,1.76e+00,-2.28e+00,
499,-2.48e+00,2.00e-01,
500,1.76e+00,1.92e+00,
501,-2.48e+00,-2.24e+00,
502,-2.08e+00,1.96e+00,
503,1.76e+00,-2.28e+00,
504,-2.48e+00,-1.80e+00,
505,1.76e+00,2.00e+00,
506,1.12e+00,-2.16e+00,
507,-2.48e+00,1.92e+00,
508,1.76e+00,9.20e-01,
509,-2.48e+00,-2.24e+00,
510,1.76e+00,2.00e+00,
511,-2.48e+00,-2.28e+00,
512,-2.16e+00,1.88e+00,
513,1.76e+00,-1.00e+00,
514,-2.48e+00,-2.24e+00,
515,1.84e+00,1.96e+00,
516,1.36e+00,-2.20e+00,
517,-2.40e+00,1.24e+00,
518,1.84e+00,2.04e+00,
519,-2.40e+00,-2.24e+00,
520,1.84e+00,2.04e+00,
521,-2.40e+00,-2.24e+00,
522,-2.24e+00,2.00e+00,
523,1.84e+00,-4.80e-01,
524,-2.40e+00,-2.24e+00,
525,1.84e+00,1.96e+00,
526,1.52e+00,-2.28e+00,
527,-2.40e+00,6.00e-01,
528,1.84e+00,1.96e+00,
529,-2.40e+00,-2.24e+00,
530,1.84e+00,2.04e+00,
531,-2.40e+00,-2.28e+00,
532,-2.24e+00,2.00e+00,
533,1.84e+00,-3.20e-01,
534,-2.40e+00,-2.24e+00,
535,1.84e+00,2.04e+00,
536,1.60e+00,-2.24e+00,
537,-2.40e+00,4.40e-01,
538,1.84e+00,2.00e+00,
539,-2.40e+00,-2.28e+00,
540,1.84e+00,2.00e+00,
541,-2.40e+00,-2.28e+00,
542,-2.32e+00,2.08e+00,
543,2.00e+00,-3.60e-01,
544,-2.40e+00,-2.24e+00,
545,1.92e+00,2.00e+00,
546,1.68e+00,-2.28e+00,
547,-2.40e+00,5.20e-01,
548,1.92e+00,2.00e+00,
549,-2.40e+00,-2.24e+00,
550,1.92e+00,2.04e+00,
551,-2.32e+00,-2.24e+00,
552,-2.24e+00,2.04e+00,
553,1.92e+00,-3.20e-01,
554,-2.32e+00,-2.20e+00,
555,2.00e+00,2.00e+00,
556,1.60e+00,-2.20e+00,
557,-2.32e+00,6.40e-01,
558,1.92e+00,2.00e+00,
559,-2.32e+00,-2.24e+00,
560,1.92e+00,2.00e+00,
561,-2.32e+00,-2.24e+00,
562,-2.24e+00,2.00e+00,
563,1.92e+00,-4.40e-01,
564,-2.32e+00,-2.12e+00,
565,2.00e+00,2.04e+00,
566,1.60e+00,-2.12e+00,
567,-2.32e+00,1.60e+00,
568,1.92e+00,2.04e+00,
569,-2.32e+00,-2.24e+00,
570,1.92e+00,2.04e+00,
571,-2.32e+00,-2.24e+00,
572,-2.08e+00,1.96e+00,
573,1.92e+00,-7.20e-01,
574,-2.32e+00,-2.20e+00,
575,2.00e+00,2.00e+00,
576,-2.32e+00,-2.20e+00,
577,1.76e+00,1.96e+00,
578,1.92e+00,2.80e-01,
579,-2.32e+00,-2.20e+00,
580,2.00e+00,2.08e+00,
581,-2.32e+00,-2.20e+00,
582,-2.00e+00,2.12e+00,
583,2.00e+00,-1.36e+00,
584,-2.32e+00,-2.16e+00,
585,2.00e+00,2.04e+00,
586,-2.32e+00,-2.20e+00,
587,1.92e+00,2.04e+00,
588,1.92e+00,-2.16e+00,
589,-2.32e+00,3.20e-01,
590,2.00e+00,2.08e+00,
591,-2.32e+00,-2.16e+00,
592,-1.84e+00,2.04e+00,
593,2.00e+00,-2.16e+00,
594,-2.32e+00,-9.20e-01,
595,2.00e+00,2.00e+00,
596,-2.32e+00,-2.20e+00,
597,2.00e+00,2.12e+00,
598,1.76e+00,-2.08e+00,
599,-2.24e+00,6.40e-01,
600,2.00e+00,2.16e+00,
601,-2.24e+00,-2.12e+00,
602,2.00e+00,2.12e+00,
603,-2.24e+00,-2.12e+00,
604,-2.24e+00,2.08e+00,
605,2.00e+00,-3.20e-01,
606,-2.24e+00,-2.12e+00,
607,2.00e+00,2.12e+00,
608,1.60e+00,-2.16e+00,
609,-2.24e+00,2.16e+00,
610,2.08e+00,1.60e+00,
611,-2.24e+00,-2.16e+00,
612,2.08e+00,2.12e+00,
613,-2.24e+00,-2.16e+00,
614,-2.24e+00,2.16e+00,
615,2.08e+00,-3.60e-01,
616,-2.24e+00,-2.16e+00,
617,2.08e+00,2.16e+00,
618,-2.24e+00,-2.12e+00,
619,1.92e+00,2.16e+00,
620,2.00e+00,-2.12e+00,
621,-2.24e+00,1.60e-01,
622,2.08e+00,2.20e+00,
623,-2.24e+00,-2.12e+00,
624,-2.08e+00,2.16e+00,
625,2.00e+00,-4.40e-01,
626,-2.24e+00,-2.08e+00,
627,2.00e+00,2.20e+00,
628,-2.24e+00,-2.16e+00,
629,2.00e+00,2.12e+00,
630,1.92e+00,-2.08e+00,
631,-2.24e+00,2.40e-01,
632,2.00e+00,2.16e+00,
633,-2.24e+00,-2.12e+00,
634,-2.08e+00,2.16e+00,
635,2.08e+00,-4.40e-01,
636,-2.24e+00,-2.04e+00,
637,2.00e+00,2.20e+00,
638,-2.24e+00,-2.08e+00,
639,2.00e+00,2.24e+00,
640,2.08e+00,-2.04e+00,
641,-2.24e+00,2.40e-01,
642,2.00e+00,2.16e+00,
643,-2.24e+00,-2.04e+00,
644,-2.16e+00,2.04e+00,
645,2.00e+00,-3.20e-01,
646,-2.24e+00,-2.04e+00,
647,2.00e+00,2.16e+00,
648,-2.24e+00,-2.04e+00,
649,1.76e+00,2.20e+00,
650,2.00e+00,3.60e-01,
651,-2.24e+00,-2.04e+00,
652,2.00e+00,2.24e+00,
653,-2.00e+00,-2.04e+00,
654,-2.24e+00,-5.60e-01,
655,2.00e+00,2.24e+00,
656,-2.24e+00,-2.00e+00,
657,2.08e+00,2.12e+00,
658,1.68e+00,-2.08e+00,
659,-2.24e+00,6.80e-01,
660,2.00e+00,2.20e+00,
661,-2.24e+00,-1.92e+00,
662,-2.08e+00,2.24e+00,
663,2.00e+00,-2.80e-01,
664,-2.24e+00,-2.00e+00,
665,2.00e+00,2.24e+00,
666,-2.24e+00,-1.96e+00,
667,1.68e+00,2.24e+00,
668,2.08e+00,4.80e-01,
669,-2.24e+00,-1.96e+00,
670,-1.92e+00,2.12e+00,
671,2.00e+00,-4.40e-01,
672,-2.32e+00,-1.88e+00,
673,2.00e+00,2.20e+00,
674,-2.32e+00,-1.96e+00,
675,1.92e+00,2.24e+00,
676,1.92e+00,-1.88e+00,
677,-2.32e+00,1.60e-01,
678,-1.84e+00,2.28e+00,
679,1.92e+00,-3.20e-01,
680,-2.24e+00,-1.92e+00,
681,1.92e+00,2.28e+00,
682,-2.32e+00,-1.92e+00,
683,1.76e+00,2.28e+00,
684,1.92e+00,2.80e-01,
685,-2.32e+00,-1.96e+00,
686,-2.08e+00,2.28e+00,
687,1.92e+00,-2.00e-01,
688,-2.32e+00,-1.92e+00,
689,1.92e+00,2.28e+00,
690,1.52e+00,-1.92e+00,
691,-2.32e+00,5.20e-01,
692,-8.80e-01,2.32e+00,
693,1.92e+00,-1.64e+00,
694,-2.32e+00,-1.92e+00,
695,2.00e+00,2.28e+00,
696,-2.32e+00,-1.88e+00,
697,1.92e+00,2.28e+00,
698,1.84e+00,-1.88e+00,
699,-2.32e+00,1.20e-01,
700,-2.08e+00,2.32e+00,
701,1.92e+00,-2.00e-01,
702,-2.32e+00,-1.84e+00,
703,1.92e+00,2.32e+00,
704,1.60e+00,-1.88e+00,
705,-2.24e+00,2.40e-01,
706,-1.60e+00,2.32e+00,
707,1.92e+00,-2.40e-01,
708,-2.24e+00,-1.84e+00,
709,1.92e+00,2.32e+00,
710,1.44e+00,-1.80e+00,
711,-2.32e+00,3.60e-01,
712,-1.20e+00,2.32e+00,
713,1.92e+00,-2.80e-01,
714,-2.32e+00,-1.88e+00,
715,1.92e+00,2.32e+00,
716,1.36e+00,-1.76e+00,
717,-2.32e+00,3.60e-01,
718,-1.20e+00,2.32e+00,
719,1.84e+00,-2.40e-01,
720,-2.32e+00,-1.80e+00,
721,1.84e+00,2.36e+00,
722,1.44e+00,-1.76e+00,
723,-2.32e+00,2.40e-01,
724,-1.76e+00,2.28e+00,
725,1.84e+00,-2.00e-01,
726,-2.32e+00,-1.76e+00,
727,1.84e+00,2.32e+00,
728,1.60e+00,0.00e+00,
729,-2.16e+00,-1.68e+00,
730,-2.32e+00,-2.00e-01,
731,1.84e+00,2.36e+00,
732,1.20e+00,-1.72e+00,
733,-2.32e+00,1.76e+00,
734,1.84e+00,2.32e+00,
735,5.60e-01,-2.00e-01,
736,-2.32e+00,-1.76e+00,
737,1.84e+00,2.36e+00,
738,1.44e+00,0.00e+00,
739,-2.32e+00,-1.72e+00,
740,-2.32e+00,2.24e+00,
741,1.84e+00,-2.00e-01,
742,1.20e+00,-1.64e+00,
743,-2.32e+00,3.20e-01,
744,-1.44e+00,2.36e+00,
745,1.84e+00,-1.60e-01,
746,-2.40e+00,-1.68e+00,
747,1.84e+00,2.36e+00,
748,1.68e+00,0.00e+00,
749,5.60e-01,-2.00e-01,
750,-2.40e+00,-1.68e+00,
751,1.76e+00,2.32e+00,
752,1.36e+00,0.00e+00,
753,3.20e-01,-2.40e-01,
754,-2.40e+00,-1.56e+00,
755,1.76e+00,2.28e+00,
756,1.36e+00,0.00e+00,
757,-8.00e-02,-4.40e-01,
758,-2.40e+00,-1.60e+00,
759,1.76e+00,2.36e+00,
760,1.28e+00,0.00e+00,
761,-1.92e+00,-1.60e+00,
762,-2.40e+00,-8.80e-01,
763,1.76e+00,2.40e+00,
764,1.12e+00,0.00e+00,
765,-1.04e+00,-1.28e+00,
766,-2.40e+00,-1.52e+00,
767,1.76e+00,2.36e+00,
768,1.20e+00,-4.00e-02,
769,-1.04e+00,-1.28e+00,
770,-2.40e+00,-1.52e+00,
771,1.76e+00,2.40e+00,
772,1.20e+00,-4.00e-02,
773,-2.40e-01,-4.40e-01,
774,-2.40e+00,-1.48e+00,
775,1.76e+00,2.40e+00,
776,1.20e+00,-4.00e-02,
777,3.20e-01,-2.00e-01,
778,2.40e-01,-1.20e-01,
779,8.00e-01,1.60e-01,
780,6.40e-01,-2.00e-01,
781,3.20e-01,8.00e-02,
782,6.40e-01,-1.60e-01,
783,3.20e-01,8.00e-02,
784,6.40e-01,4.00e-02,
785,4.80e-01,-1.20e-01,
786,5.60e-01,-1.60e-01,
787,4.00e-01,8.00e-02,
788,5.60e-01,-1.20e-01,
789,4.00e-01,4.00e-02,
790,4.00e-01,-1.20e-01,
791,6.40e-01,8.00e-02,
792,6.40e-01,8.00e-02,
793,4.00e-01,-1.60e-01,
794,4.00e-01,-1.20e-01,
795,6.40e-01,8.00e-02,
796,4.00e-01,-1.60e-01,
797,6.40e-01,4.00e-02,
798,5.60e-01,-1.20e-01,
799,4.00e-01,4.00e-02,
800,5.60e-01,-1.20e-01,
801,4.00e-01,8.00e-02,
802,5.60e-01,4.00e-02,
803,4.00e-01,-1.60e-01,
804,4.00e-01,-1.20e-01,
805,5.60e-01,8.00e-02,
806,5.60e-01,4.00e-02,
807,4.00e-01,-1.20e-01,
808,4.00e-01,4.00e-02,
809,5.60e-01,-1.20e-01,
810,5.60e-01,8.00e-02,
811,4.00e-01,-1.20e-01,
812,4.00e-01,-1.60e-01,
813,5.60e-01,4.00e-02,
814,4.00e-01,4.00e-02,
815,5.60e-01,-1.20e-01,
816,4.00e-01,8.00e-02,
817,5.60e-01,-1.20e-01,
818,4.00e-01,-1.20e-01,
819,4.80e-01,4.00e-02,
820,4.00e-01,-1.20e-01,
821,4.80e-01,8.00e-02,
822,4.00e-01,-1.20e-01,
823,5.60e-01,8.00e-02,
824,4.80e-01,-1.20e-01,
825,4.00e-01,8.00e-02,
826,4.00e-01,4.00e-02,
827,4.80e-01,-1.20e-01,
828,4.80e-01,-1.60e-01,
829,3.20e-01,4.00e-02,
830,4.80e-01,-1.60e-01,
831,3.20e-01,4.00e-02,
832,4.80e-01,-1.20e-01,
833,3.20e-01,4.00e-02,
834,4.80e-01,8.00e-02,
835,3.20e-01,-1.20e-01,
836,3.20e-01,4.00e-02,
837,4.80e-01,-1.60e-01,
838,4.80e-01,4.00e-02,
