Python/scripts/Traces/NF3.csv

X,CH1,CH2,Start,Increment,
Sequence,Volt,Volt,-1.200000e-04,2.000000e-07
0,-2.80e+00,1.60e+00,
1,-2.20e+00,2.20e+00,
2,-2.60e+00,1.60e+00,
3,-2.00e+00,2.20e+00,
4,-2.40e+00,2.20e+00,
5,-1.80e+00,1.60e+00,
6,-2.20e+00,1.60e+00,
7,-1.60e+00,2.20e+00,
8,-1.80e+00,1.60e+00,
9,-1.40e+00,2.20e+00,
10,-1.60e+00,2.20e+00,
11,-1.00e+00,1.60e+00,
12,-1.40e+00,2.20e+00,
13,-8.00e-01,1.60e+00,
14,-1.20e+00,2.20e+00,
15,-6.00e-01,1.60e+00,
16,-8.00e-01,1.60e+00,
17,-2.00e-01,2.20e+00,
18,-6.00e-01,1.60e+00,
19,0.00e+00,2.20e+00,
20,-4.00e-01,2.20e+00,
21,2.00e-01,1.60e+00,
22,-2.00e-01,1.60e+00,
23,4.00e-01,2.20e+00,
24,2.00e-01,2.20e+00,
25,8.00e-01,1.60e+00,
26,4.00e-01,2.20e+00,
27,1.00e+00,1.60e+00,
28,6.00e-01,2.20e+00,
29,1.20e+00,1.60e+00,
30,8.00e-01,2.20e+00,
31,1.40e+00,1.60e+00,
32,1.00e+00,2.20e+00,
33,1.60e+00,1.60e+00,
34,1.40e+00,1.60e+00,
35,1.80e+00,2.20e+00,
36,1.40e+00,1.60e+00,
37,2.20e+00,2.20e+00,
38,1.80e+00,1.60e+00,
39,2.40e+00,2.20e+00,
40,2.00e+00,1.60e+00,
41,2.80e+00,2.20e+00,
42,2.40e+00,1.60e+00,
43,3.00e+00,2.20e+00,
44,2.60e+00,2.00e+00,
45,3.20e+00,1.60e+00,
46,2.80e+00,1.60e+00,
47,3.40e+00,2.00e+00,
48,3.00e+00,1.60e+00,
49,3.60e+00,2.20e+00,
50,3.20e+00,2.00e+00,
51,3.80e+00,1.60e+00,
52,3.40e+00,1.60e+00,
53,4.00e+00,2.00e+00,
54,3.60e+00,2.00e+00,
55,4.20e+00,1.60e+00,
56,4.00e+00,2.00e+00,
57,4.40e+00,1.40e+00,
58,4.20e+00,2.00e+00,
59,4.60e+00,1.40e+00,
60,4.40e+00,2.00e+00,
61,5.00e+00,1.40e+00,
62,4.60e+00,1.40e+00,
63,5.20e+00,2.00e+00,
64,4.80e+00,2.00e+00,
65,5.40e+00,1.40e+00,
66,5.00e+00,1.40e+00,
67,5.80e+00,2.00e+00,
68,5.20e+00,1.40e+00,
69,5.80e+00,2.00e+00,
70,5.60e+00,1.40e+00,
71,6.00e+00,2.00e+00,
72,5.80e+00,1.80e+00,
73,6.20e+00,1.40e+00,
74,6.00e+00,1.40e+00,
75,6.40e+00,2.00e+00,
76,6.00e+00,1.80e+00,
77,6.60e+00,1.40e+00,
78,6.20e+00,1.80e+00,
79,7.00e+00,1.20e+00,
80,6.60e+00,1.40e+00,
81,7.00e+00,1.80e+00,
82,6.60e+00,1.80e+00,
83,7.40e+00,1.20e+00,
84,7.00e+00,1.80e+00,
85,7.60e+00,1.20e+00,
86,7.00e+00,1.80e+00,
87,7.80e+00,1.20e+00,
88,7.40e+00,1.20e+00,
89,8.00e+00,1.80e+00,
90,7.60e+00,1.60e+00,
91,8.20e+00,1.20e+00,
92,7.80e+00,1.60e+00,
93,8.40e+00,1.20e+00,
94,7.80e+00,1.60e+00,
95,8.40e+00,1.20e+00,
96,8.00e+00,1.60e+00,
97,8.60e+00,1.00e+00,
98,8.20e+00,1.60e+00,
99,8.80e+00,1.00e+00,
100,8.40e+00,1.60e+00,
101,9.00e+00,1.00e+00,
102,8.60e+00,1.00e+00,
103,9.00e+00,1.60e+00,
104,8.60e+00,1.00e+00,
105,9.20e+00,1.60e+00,
106,8.80e+00,1.40e+00,
107,9.40e+00,1.00e+00,
108,9.00e+00,1.40e+00,
109,9.60e+00,8.00e-01,
110,9.20e+00,1.40e+00,
111,9.60e+00,8.00e-01,
112,9.20e+00,1.40e+00,
113,9.80e+00,8.00e-01,
114,9.40e+00,1.40e+00,
115,1.00e+01,8.00e-01,
116,9.60e+00,1.40e+00,
117,1.02e+01,8.00e-01,
118,9.80e+00,8.00e-01,
119,1.02e+01,1.40e+00,
120,9.80e+00,1.20e+00,
121,1.06e+01,8.00e-01,
122,1.00e+01,8.00e-01,
123,1.06e+01,1.40e+00,
124,1.02e+01,1.20e+00,
125,1.08e+01,6.00e-01,
126,1.04e+01,1.20e+00,
127,1.08e+01,6.00e-01,
128,1.04e+01,1.20e+00,
129,1.10e+01,6.00e-01,
130,1.06e+01,6.00e-01,
131,1.10e+01,1.20e+00,
132,1.10e+01,6.00e-01,
133,1.04e+01,1.20e+00,
134,1.06e+01,1.00e+00,
135,1.10e+01,6.00e-01,
136,1.06e+01,1.00e+00,
137,1.10e+01,6.00e-01,
138,1.06e+01,1.00e+00,
139,1.10e+01,4.00e-01,
140,1.06e+01,1.00e+00,
141,1.10e+01,4.00e-01,
142,1.10e+01,4.00e-01,
143,1.04e+01,1.00e+00,
144,1.06e+01,1.00e+00,
145,1.10e+01,4.00e-01,
146,1.10e+01,8.00e-01,
147,1.04e+01,4.00e-01,
148,1.06e+01,8.00e-01,
149,1.10e+01,4.00e-01,
150,1.06e+01,8.00e-01,
151,1.10e+01,2.00e-01,
152,1.06e+01,8.00e-01,
153,1.10e+01,2.00e-01,
154,1.06e+01,2.00e-01,
155,1.10e+01,8.00e-01,
156,1.06e+01,2.00e-01,
157,1.10e+01,8.00e-01,
158,1.06e+01,6.00e-01,
159,1.10e+01,0.00e+00,
160,1.06e+01,6.00e-01,
161,1.10e+01,0.00e+00,
162,1.10e+01,6.00e-01,
163,1.04e+01,0.00e+00,
164,1.10e+01,0.00e+00,
165,1.04e+01,6.00e-01,
166,1.06e+01,0.00e+00,
167,1.10e+01,6.00e-01,
168,1.10e+01,4.00e-01,
169,1.04e+01,-2.00e-01,
170,1.06e+01,4.00e-01,
171,1.10e+01,-2.00e-01,
172,1.06e+01,-2.00e-01,
173,1.10e+01,4.00e-01,
174,1.10e+01,-2.00e-01,
175,1.04e+01,4.00e-01,
176,1.10e+01,2.00e-01,
177,1.04e+01,-2.00e-01,
178,1.06e+01,4.00e-01,
179,1.10e+01,-4.00e-01,
180,1.06e+01,2.00e-01,
181,1.10e+01,-4.00e-01,
182,1.06e+01,-4.00e-01,
183,1.10e+01,2.00e-01,
184,1.10e+01,-4.00e-01,
185,1.04e+01,2.00e-01,
186,1.10e+01,-6.00e-01,
187,1.04e+01,2.00e-01,
188,1.10e+01,0.00e+00,
189,1.04e+01,-6.00e-01,
190,1.04e+01,0.00e+00,
191,1.10e+01,-8.00e-01,
192,1.04e+01,-8.00e-01,
193,1.08e+01,0.00e+00,
194,1.04e+01,-2.00e-01,
195,1.08e+01,-8.00e-01,
196,1.08e+01,-4.00e-01,
197,1.02e+01,-8.00e-01,
198,1.06e+01,-4.00e-01,
199,1.02e+01,-1.00e+00,
200,1.06e+01,-4.00e-01,
201,1.00e+01,-1.00e+00,
202,1.06e+01,-4.00e-01,
203,9.80e+00,-1.00e+00,
204,1.04e+01,-4.00e-01,
205,9.80e+00,-1.00e+00,
206,1.04e+01,-1.00e+00,
207,9.60e+00,-4.00e-01,
208,1.02e+01,-6.00e-01,
209,9.60e+00,-1.20e+00,
210,1.00e+01,-6.00e-01,
211,9.60e+00,-1.00e+00,
212,1.00e+01,-6.00e-01,
213,9.40e+00,-1.20e+00,
214,9.80e+00,-8.00e-01,
215,9.20e+00,-1.20e+00,
216,9.20e+00,-8.00e-01,
217,9.80e+00,-1.40e+00,
218,9.60e+00,-8.00e-01,
219,9.00e+00,-1.40e+00,
220,9.40e+00,-8.00e-01,
221,9.00e+00,-1.40e+00,
222,9.40e+00,-8.00e-01,
223,8.80e+00,-1.40e+00,
224,9.20e+00,-1.40e+00,
225,8.60e+00,-8.00e-01,
226,9.00e+00,-1.00e+00,
227,8.40e+00,-1.60e+00,
228,8.40e+00,-1.00e+00,
229,9.00e+00,-1.60e+00,
230,8.80e+00,-1.00e+00,
231,8.20e+00,-1.60e+00,
232,8.60e+00,-1.60e+00,
233,8.00e+00,-1.00e+00,
234,8.40e+00,-1.00e+00,
235,7.80e+00,-1.60e+00,
236,8.40e+00,-1.60e+00,
237,7.60e+00,-1.00e+00,
238,8.20e+00,-1.20e+00,
239,7.60e+00,-1.80e+00,
240,8.00e+00,-1.20e+00,
241,7.40e+00,-1.80e+00,
242,7.80e+00,-1.20e+00,
243,7.20e+00,-1.80e+00,
244,7.40e+00,-1.20e+00,
245,6.80e+00,-1.80e+00,
246,7.20e+00,-1.20e+00,
247,6.80e+00,-1.80e+00,
248,7.00e+00,-1.40e+00,
249,6.40e+00,-2.00e+00,
250,6.80e+00,-1.40e+00,
251,6.40e+00,-2.00e+00,
252,6.60e+00,-1.40e+00,
253,6.20e+00,-2.00e+00,
254,6.40e+00,-1.40e+00,
255,5.80e+00,-2.00e+00,
256,6.20e+00,-1.40e+00,
257,5.60e+00,-2.00e+00,
258,6.00e+00,-2.00e+00,
259,5.40e+00,-1.40e+00,
260,5.80e+00,-2.00e+00,
261,5.20e+00,-1.40e+00,
262,5.60e+00,-1.60e+00,
263,5.00e+00,-2.20e+00,
264,5.40e+00,-1.60e+00,
265,4.80e+00,-2.20e+00,
266,5.20e+00,-1.60e+00,
267,4.60e+00,-2.20e+00,
268,5.00e+00,-2.20e+00,
269,4.20e+00,-1.60e+00,
270,4.60e+00,-1.60e+00,
271,4.00e+00,-2.20e+00,
272,4.40e+00,-2.20e+00,
273,3.80e+00,-1.60e+00,
274,4.20e+00,-2.20e+00,
275,3.40e+00,-1.60e+00,
276,3.80e+00,-2.20e+00,
277,3.20e+00,-1.60e+00,
278,3.80e+00,-1.80e+00,
279,3.00e+00,-2.20e+00,
280,3.40e+00,-1.80e+00,
281,2.80e+00,-2.40e+00,
282,3.20e+00,-1.80e+00,
283,2.60e+00,-2.40e+00,
284,3.00e+00,-1.80e+00,
285,2.40e+00,-2.40e+00,
286,2.60e+00,-1.80e+00,
287,2.20e+00,-2.40e+00,
288,2.40e+00,-1.80e+00,
289,1.80e+00,-2.40e+00,
290,1.60e+00,-1.80e+00,
291,2.20e+00,-2.40e+00,
292,1.80e+00,-1.80e+00,
293,1.20e+00,-2.40e+00,
294,1.60e+00,-1.80e+00,
295,1.00e+00,-2.40e+00,
296,1.40e+00,-1.80e+00,
297,6.00e-01,-2.40e+00,
298,1.00e+00,-1.80e+00,
299,4.00e-01,-2.40e+00,
300,1.00e+00,-1.80e+00,
301,2.00e-01,-2.40e+00,
302,6.00e-01,-1.80e+00,
303,0.00e+00,-2.40e+00,
304,4.00e-01,-1.80e+00,
305,-2.00e-01,-2.40e+00,
306,2.00e-01,-2.40e+00,
307,-6.00e-01,-1.80e+00,
308,-2.00e-01,-1.80e+00,
309,-8.00e-01,-2.40e+00,
310,-4.00e-01,-1.80e+00,
311,-1.00e+00,-2.40e+00,
312,-8.00e-01,-1.80e+00,
313,-1.40e+00,-2.40e+00,
314,-1.00e+00,-1.80e+00,
315,-1.60e+00,-2.40e+00,
316,-1.20e+00,-1.80e+00,
317,-1.80e+00,-2.40e+00,
318,-1.60e+00,-1.80e+00,
319,-2.20e+00,-2.40e+00,
320,-1.80e+00,-1.80e+00,
321,-2.40e+00,-2.40e+00,
322,-2.00e+00,-1.80e+00,
323,-2.60e+00,-2.40e+00,
324,-2.40e+00,-1.80e+00,
325,-2.80e+00,-2.40e+00,
326,-2.40e+00,-1.80e+00,
327,-3.20e+00,-2.40e+00,
328,-2.80e+00,-1.80e+00,
329,-3.40e+00,-2.40e+00,
330,-3.00e+00,-1.80e+00,
331,-3.60e+00,-2.40e+00,
332,-3.40e+00,-1.80e+00,
333,-4.00e+00,-2.40e+00,
334,-3.60e+00,-1.80e+00,
335,-4.20e+00,-2.20e+00,
336,-3.80e+00,-2.20e+00,
337,-4.40e+00,-1.60e+00,
338,-4.00e+00,-2.20e+00,
339,-4.80e+00,-1.60e+00,
340,-4.40e+00,-2.20e+00,
341,-5.00e+00,-1.60e+00,
342,-4.60e+00,-2.20e+00,
343,-5.20e+00,-1.60e+00,
344,-4.80e+00,-1.60e+00,
345,-5.40e+00,-2.20e+00,
346,-5.00e+00,-2.20e+00,
347,-5.60e+00,-1.60e+00,
348,-5.20e+00,-2.20e+00,
349,-5.80e+00,-1.60e+00,
350,-5.40e+00,-1.60e+00,
351,-6.00e+00,-2.20e+00,
352,-5.60e+00,-2.20e+00,
353,-6.20e+00,-1.60e+00,
354,-6.40e+00,-2.00e+00,
355,-5.80e+00,-1.40e+00,
356,-6.20e+00,-1.60e+00,
357,-6.80e+00,-2.00e+00,
358,-6.40e+00,-1.60e+00,
359,-7.00e+00,-2.00e+00,
360,-6.60e+00,-2.00e+00,
361,-7.20e+00,-1.40e+00,
362,-6.80e+00,-2.00e+00,
363,-7.40e+00,-1.40e+00,
364,-7.00e+00,-2.00e+00,
365,-7.60e+00,-1.40e+00,
366,-7.20e+00,-2.00e+00,
367,-8.00e+00,-1.40e+00,
368,-7.40e+00,-2.00e+00,
369,-8.00e+00,-1.40e+00,
370,-7.60e+00,-1.40e+00,
371,-8.20e+00,-2.00e+00,
372,-7.80e+00,-1.40e+00,
373,-8.40e+00,-2.00e+00,
374,-8.00e+00,-2.00e+00,
375,-8.60e+00,-1.20e+00,
376,-8.20e+00,-1.40e+00,
377,-8.80e+00,-2.00e+00,
378,-8.40e+00,-1.20e+00,
379,-9.00e+00,-2.00e+00,
380,-8.60e+00,-1.80e+00,
381,-9.40e+00,-1.20e+00,
382,-9.00e+00,-1.20e+00,
383,-9.40e+00,-1.80e+00,
384,-9.00e+00,-1.20e+00,
385,-9.80e+00,-1.80e+00,
386,-9.00e+00,-1.20e+00,
387,-1.00e+01,-1.80e+00,
388,-9.20e+00,-1.20e+00,
389,-1.02e+01,-1.60e+00,
390,-9.40e+00,-1.80e+00,
391,-1.02e+01,-1.00e+00,
392,-9.60e+00,-1.20e+00,
393,-1.02e+01,-1.60e+00,
394,-9.80e+00,-1.60e+00,
395,-1.04e+01,-1.00e+00,
396,-1.00e+01,-1.60e+00,
397,-1.04e+01,-1.00e+00,
398,-1.00e+01,-1.60e+00,
399,-1.06e+01,-1.00e+00,
400,-1.00e+01,-1.00e+00,
401,-1.06e+01,-1.60e+00,
402,-1.00e+01,-1.00e+00,
403,-1.06e+01,-1.60e+00,
404,-1.06e+01,-1.60e+00,
405,-1.00e+01,-8.00e-01,
406,-1.06e+01,-1.40e+00,
407,-1.00e+01,-8.00e-01,
408,-1.00e+01,-1.40e+00,
409,-1.06e+01,-8.00e-01,
410,-1.06e+01,-1.40e+00,
411,-1.00e+01,-8.00e-01,
412,-1.00e+01,-8.00e-01,
413,-1.06e+01,-1.40e+00,
414,-1.06e+01,-8.00e-01,
415,-1.00e+01,-1.40e+00,
416,-1.06e+01,-8.00e-01,
417,-1.00e+01,-1.40e+00,
418,-1.06e+01,-8.00e-01,
419,-1.00e+01,-1.20e+00,
420,-1.06e+01,-8.00e-01,
421,-1.00e+01,-1.20e+00,
422,-1.06e+01,-1.20e+00,
423,-1.00e+01,-6.00e-01,
424,-1.06e+01,-6.00e-01,
425,-1.00e+01,-1.20e+00,
426,-1.06e+01,-1.20e+00,
427,-1.00e+01,-6.00e-01,
428,-1.06e+01,-6.00e-01,
429,-1.00e+01,-1.20e+00,
430,-1.06e+01,-6.00e-01,
431,-1.00e+01,-1.00e+00,
432,-1.06e+01,-1.00e+00,
433,-1.00e+01,-4.00e-01,
434,-1.06e+01,-4.00e-01,
435,-1.00e+01,-1.00e+00,
436,-1.00e+01,-4.00e-01,
437,-1.06e+01,-1.00e+00,
438,-1.06e+01,-4.00e-01,
439,-1.00e+01,-1.00e+00,
440,-1.06e+01,-4.00e-01,
441,-1.00e+01,-8.00e-01,
442,-1.06e+01,-4.00e-01,
443,-1.00e+01,-1.00e+00,
444,-1.06e+01,-8.00e-01,
445,-1.00e+01,-2.00e-01,
446,-1.06e+01,-2.00e-01,
447,-1.00e+01,-8.00e-01,
448,-1.00e+01,0.00e+00,
449,-1.06e+01,-8.00e-01,
450,-1.00e+01,-6.00e-01,
451,-1.06e+01,0.00e+00,
452,-1.06e+01,0.00e+00,
453,-1.00e+01,-6.00e-01,
454,-1.00e+01,-4.00e-01,
455,-1.06e+01,2.00e-01,
456,-1.06e+01,-4.00e-01,
457,-1.00e+01,0.00e+00,
458,-1.06e+01,0.00e+00,
459,-1.00e+01,-4.00e-01,
460,-1.06e+01,-4.00e-01,
461,-1.00e+01,2.00e-01,
462,-1.00e+01,2.00e-01,
463,-1.06e+01,-4.00e-01,
464,-1.00e+01,2.00e-01,
465,-1.06e+01,-4.00e-01,
466,-1.00e+01,2.00e-01,
467,-1.06e+01,-2.00e-01,
468,-1.00e+01,-2.00e-01,
469,-1.06e+01,4.00e-01,
470,-1.00e+01,-2.00e-01,
471,-1.06e+01,4.00e-01,
472,-1.00e+01,4.00e-01,
473,-1.04e+01,-2.00e-01,
474,-1.00e+01,-2.00e-01,
475,-1.04e+01,4.00e-01,
476,-1.00e+01,0.00e+00,
477,-1.04e+01,4.00e-01,
478,-1.04e+01,6.00e-01,
479,-9.80e+00,-2.00e-01,
480,-1.00e+01,0.00e+00,
481,-1.04e+01,6.00e-01,
482,-1.04e+01,0.00e+00,
483,-9.80e+00,6.00e-01,
484,-1.04e+01,6.00e-01,
485,-9.80e+00,0.00e+00,
486,-9.80e+00,2.00e-01,
487,-1.04e+01,6.00e-01,
488,-1.04e+01,6.00e-01,
489,-9.80e+00,2.00e-01,
490,-1.02e+01,8.00e-01,
491,-9.80e+00,2.00e-01,
492,-1.02e+01,8.00e-01,
493,-9.60e+00,2.00e-01,
494,-1.02e+01,8.00e-01,
495,-9.60e+00,2.00e-01,
496,-9.60e+00,8.00e-01,
497,-1.00e+01,4.00e-01,
498,-1.00e+01,4.00e-01,
499,-9.40e+00,8.00e-01,
500,-1.00e+01,4.00e-01,
501,-9.00e+00,1.00e+00,
502,-1.02e+01,4.00e-01,
503,-8.80e+00,1.00e+00,
504,-9.00e+00,1.00e+00,
505,-1.00e+01,4.00e-01,
506,-8.80e+00,1.00e+00,
507,-9.80e+00,6.00e-01,
508,-8.80e+00,6.00e-01,
509,-9.60e+00,1.20e+00,
510,-9.00e+00,1.20e+00,
511,-9.40e+00,6.00e-01,
512,-9.40e+00,1.20e+00,
513,-8.60e+00,6.00e-01,
514,-9.00e+00,1.20e+00,
515,-8.60e+00,6.00e-01,
516,-9.00e+00,1.20e+00,
517,-8.40e+00,6.00e-01,
518,-8.80e+00,1.20e+00,
519,-8.20e+00,8.00e-01,
520,-8.80e+00,8.00e-01,
521,-8.00e+00,1.40e+00,
522,-8.60e+00,1.40e+00,
523,-8.00e+00,8.00e-01,
524,-8.40e+00,1.40e+00,
525,-7.80e+00,8.00e-01,
526,-8.20e+00,1.40e+00,
527,-7.60e+00,1.00e+00,
528,-8.20e+00,1.00e+00,
529,-7.60e+00,1.60e+00,
530,-8.00e+00,1.00e+00,
531,-7.40e+00,1.60e+00,
532,-7.80e+00,1.60e+00,
533,-7.20e+00,1.00e+00,
534,-7.60e+00,1.60e+00,
535,-7.00e+00,1.00e+00,
536,-7.40e+00,1.60e+00,
537,-7.00e+00,1.00e+00,
538,-7.20e+00,1.60e+00,
539,-6.80e+00,1.20e+00,
540,-7.20e+00,1.20e+00,
541,-6.60e+00,1.80e+00,
542,-7.00e+00,1.80e+00,
543,-6.40e+00,1.20e+00,
544,-6.80e+00,1.80e+00,
545,-6.20e+00,1.20e+00,
546,-6.00e+00,1.80e+00,
547,-6.60e+00,1.20e+00,
548,-6.20e+00,1.80e+00,
549,-5.80e+00,1.20e+00,
550,-6.00e+00,1.80e+00,
551,-5.40e+00,1.20e+00,
552,-6.00e+00,1.40e+00,
553,-5.40e+00,1.80e+00,
554,-5.80e+00,1.40e+00,
555,-5.20e+00,2.00e+00,
556,-5.00e+00,1.40e+00,
557,-5.60e+00,2.00e+00,
558,-5.20e+00,1.40e+00,
559,-4.60e+00,2.00e+00,
560,-5.20e+00,2.00e+00,
561,-4.40e+00,1.40e+00,
562,-4.80e+00,2.00e+00,
563,-4.20e+00,1.40e+00,
564,-4.80e+00,1.40e+00,
565,-4.00e+00,2.00e+00,
566,-4.40e+00,2.00e+00,
567,-3.80e+00,1.40e+00,
568,-4.20e+00,2.00e+00,
569,-3.60e+00,1.40e+00,
570,-4.00e+00,2.00e+00,
571,-3.20e+00,1.60e+00,
572,-3.60e+00,2.00e+00,
573,-3.00e+00,1.60e+00,
574,-3.40e+00,2.00e+00,
575,-2.80e+00,1.60e+00,
576,-3.20e+00,1.60e+00,
577,-2.60e+00,2.20e+00,
578,-3.00e+00,1.60e+00,
579,-2.40e+00,2.20e+00,
580,-2.80e+00,1.60e+00,
581,-2.20e+00,2.20e+00,
582,-2.40e+00,2.20e+00,
583,-2.00e+00,1.60e+00,
584,-2.20e+00,2.20e+00,
585,-1.60e+00,1.60e+00,
586,-2.00e+00,1.60e+00,
587,-1.40e+00,2.20e+00,
588,-1.80e+00,1.60e+00,
589,-1.20e+00,2.20e+00,
590,-1.60e+00,1.60e+00,
591,-1.00e+00,2.20e+00,
592,-1.40e+00,2.20e+00,
593,-8.00e-01,1.60e+00,
594,-1.00e+00,2.20e+00,
595,-4.00e-01,1.60e+00,
596,-8.00e-01,2.20e+00,
597,0.00e+00,1.60e+00,
598,-6.00e-01,1.60e+00,
599,2.00e-01,2.20e+00,
600,-2.00e-01,1.60e+00,
601,4.00e-01,2.20e+00,
602,0.00e+00,2.20e+00,
603,6.00e-01,1.60e+00,
604,2.00e-01,2.20e+00,
605,8.00e-01,1.60e+00,
606,4.00e-01,1.60e+00,
607,1.00e+00,2.20e+00,
608,6.00e-01,1.60e+00,
609,1.20e+00,2.20e+00,
610,1.00e+00,2.20e+00,
611,1.60e+00,1.60e+00,
612,1.20e+00,2.20e+00,
613,1.80e+00,1.60e+00,
614,1.40e+00,1.60e+00,
615,2.00e+00,2.20e+00,
616,1.80e+00,2.20e+00,
617,2.40e+00,1.60e+00,
618,2.00e+00,1.60e+00,
619,2.60e+00,2.20e+00,
620,2.20e+00,1.60e+00,
621,2.80e+00,2.20e+00,
622,2.40e+00,1.60e+00,
623,3.00e+00,2.20e+00,
624,2.60e+00,2.00e+00,
625,3.20e+00,1.60e+00,
626,2.80e+00,2.00e+00,
627,3.40e+00,1.60e+00,
628,3.20e+00,2.00e+00,
629,3.60e+00,1.60e+00,
630,3.40e+00,2.00e+00,
631,4.00e+00,1.60e+00,
632,3.60e+00,2.00e+00,
633,4.20e+00,1.60e+00,
634,3.80e+00,2.00e+00,
635,4.40e+00,1.60e+00,
636,4.00e+00,2.00e+00,
637,4.60e+00,1.40e+00,
638,4.20e+00,2.00e+00,
639,5.00e+00,1.60e+00,
640,4.60e+00,2.00e+00,
641,5.00e+00,1.40e+00,
642,4.80e+00,2.00e+00,
643,5.40e+00,1.40e+00,
644,5.00e+00,2.00e+00,
645,5.60e+00,1.40e+00,
646,5.20e+00,2.00e+00,
647,5.80e+00,1.40e+00,
648,5.40e+00,2.00e+00,
649,6.00e+00,1.40e+00,
650,5.60e+00,1.40e+00,
651,6.20e+00,2.00e+00,
652,5.80e+00,1.40e+00,
653,6.40e+00,2.00e+00,
654,6.00e+00,1.80e+00,
655,6.60e+00,1.40e+00,
656,6.20e+00,1.80e+00,
657,6.80e+00,1.40e+00,
658,6.40e+00,1.80e+00,
659,7.00e+00,1.40e+00,
660,6.60e+00,1.80e+00,
661,7.20e+00,1.20e+00,
662,6.60e+00,1.80e+00,
663,7.40e+00,1.20e+00,
664,6.80e+00,1.80e+00,
665,7.60e+00,1.20e+00,
666,7.20e+00,1.20e+00,
667,7.80e+00,1.80e+00,
668,7.40e+00,1.20e+00,
669,8.00e+00,1.80e+00,
670,7.60e+00,1.20e+00,
671,8.20e+00,1.80e+00,
672,7.80e+00,1.60e+00,
673,8.40e+00,1.20e+00,
674,8.00e+00,1.20e+00,
675,8.60e+00,1.60e+00,
676,8.20e+00,1.60e+00,
677,8.80e+00,1.00e+00,
678,8.40e+00,1.60e+00,
679,8.80e+00,1.00e+00,
680,8.40e+00,1.60e+00,
681,9.00e+00,1.00e+00,
682,8.60e+00,1.60e+00,
683,9.20e+00,1.00e+00,
684,8.80e+00,1.00e+00,
685,9.40e+00,1.60e+00,
686,9.00e+00,1.00e+00,
687,9.40e+00,1.60e+00,
688,9.00e+00,1.40e+00,
689,9.80e+00,1.00e+00,
690,9.20e+00,1.40e+00,
691,9.80e+00,8.00e-01,
692,9.40e+00,1.40e+00,
693,1.00e+01,8.00e-01,
694,9.60e+00,1.40e+00,
695,1.00e+01,8.00e-01,
696,9.60e+00,8.00e-01,
697,1.04e+01,1.40e+00,
698,1.04e+01,8.00e-01,
699,9.80e+00,1.40e+00,
700,1.00e+01,1.40e+00,
701,1.06e+01,8.00e-01,
702,1.02e+01,1.20e+00,
703,1.06e+01,6.00e-01,
704,1.02e+01,1.20e+00,
705,1.08e+01,6.00e-01,
706,1.04e+01,1.20e+00,
707,1.08e+01,6.00e-01,
708,1.04e+01,1.20e+00,
709,1.10e+01,6.00e-01,
710,1.10e+01,6.00e-01,
711,1.04e+01,1.20e+00,
712,1.10e+01,6.00e-01,
713,1.04e+01,1.20e+00,
714,1.06e+01,6.00e-01,
715,1.10e+01,1.20e+00,
716,1.06e+01,1.00e+00,
717,1.10e+01,4.00e-01,
718,1.04e+01,4.00e-01,
719,1.10e+01,1.00e+00,
720,1.06e+01,4.00e-01,
721,1.10e+01,1.00e+00,
722,1.10e+01,4.00e-01,
723,1.04e+01,1.00e+00,
724,1.06e+01,4.00e-01,
725,1.10e+01,1.00e+00,
726,1.10e+01,8.00e-01,
727,1.06e+01,2.00e-01,
728,1.06e+01,8.00e-01,
729,1.10e+01,2.00e-01,
730,1.06e+01,8.00e-01,
731,1.10e+01,2.00e-01,
732,1.10e+01,2.00e-01,
733,1.04e+01,8.00e-01,
734,1.10e+01,6.00e-01,
735,1.06e+01,2.00e-01,
736,1.10e+01,6.00e-01,
737,1.04e+01,2.00e-01,
738,1.10e+01,6.00e-01,
739,1.06e+01,0.00e+00,
740,1.06e+01,6.00e-01,
741,1.10e+01,0.00e+00,
742,1.06e+01,0.00e+00,
743,1.10e+01,6.00e-01,
744,1.06e+01,0.00e+00,
745,1.10e+01,6.00e-01,
746,1.10e+01,0.00e+00,
747,1.04e+01,6.00e-01,
748,1.10e+01,0.00e+00,
749,1.04e+01,4.00e-01,
750,1.06e+01,4.00e-01,
751,1.10e+01,-2.00e-01,
752,1.06e+01,-2.00e-01,
753,1.10e+01,4.00e-01,
754,1.06e+01,-2.00e-01,
755,1.10e+01,4.00e-01,
756,1.10e+01,2.00e-01,
757,1.04e+01,-4.00e-01,
758,1.10e+01,2.00e-01,
759,1.06e+01,-4.00e-01,
760,1.10e+01,2.00e-01,
761,1.04e+01,-4.00e-01,
762,1.10e+01,-4.00e-01,
763,1.04e+01,2.00e-01,
764,1.10e+01,0.00e+00,
765,1.04e+01,-4.00e-01,
766,1.06e+01,0.00e+00,
767,1.10e+01,-4.00e-01,
768,1.10e+01,0.00e+00,
769,1.04e+01,-6.00e-01,
770,1.10e+01,-8.00e-01,
771,1.04e+01,0.00e+00,
772,1.04e+01,0.00e+00,
773,1.08e+01,-8.00e-01,
774,1.08e+01,-2.00e-01,
775,1.04e+01,-8.00e-01,
776,1.02e+01,-8.00e-01,
777,1.08e+01,-2.00e-01,
778,1.02e+01,-4.00e-01,
779,1.06e+01,-8.00e-01,
780,1.06e+01,-4.00e-01,
781,1.00e+01,-1.00e+00,
782,1.04e+01,-4.00e-01,
783,1.00e+01,-1.00e+00,
784,1.04e+01,-1.00e+00,
785,9.80e+00,-4.00e-01,
786,1.04e+01,-1.00e+00,
787,9.60e+00,-4.00e-01,
788,1.02e+01,-6.00e-01,
789,9.60e+00,-1.20e+00,
790,1.00e+01,-6.00e-01,
791,9.60e+00,-1.20e+00,
792,9.80e+00,-6.00e-01,
793,9.40e+00,-1.20e+00,
794,9.80e+00,-6.00e-01,
795,9.20e+00,-1.20e+00,
796,9.60e+00,-1.20e+00,
797,9.20e+00,-6.00e-01,
798,9.60e+00,-8.00e-01,
799,9.00e+00,-1.40e+00,
800,9.40e+00,-8.00e-01,
801,9.00e+00,-1.40e+00,
802,9.20e+00,-8.00e-01,
803,8.80e+00,-1.40e+00,
804,9.20e+00,-8.00e-01,
805,8.60e+00,-1.40e+00,
806,9.00e+00,-1.00e+00,
807,8.40e+00,-1.60e+00,
808,9.00e+00,-1.00e+00,
809,8.40e+00,-1.60e+00,
810,8.80e+00,-1.00e+00,
811,8.20e+00,-1.60e+00,
812,8.60e+00,-1.00e+00,
813,8.00e+00,-1.60e+00,
814,8.40e+00,-1.00e+00,
815,7.80e+00,-1.80e+00,
816,8.20e+00,-1.20e+00,
817,7.60e+00,-1.80e+00,
818,7.60e+00,-1.20e+00,
819,8.00e+00,-1.80e+00,
820,7.40e+00,-1.20e+00,
821,8.00e+00,-1.80e+00,
822,7.60e+00,-1.20e+00,
823,7.00e+00,-1.80e+00,
824,7.40e+00,-1.80e+00,
825,6.80e+00,-1.20e+00,
826,7.20e+00,-1.80e+00,
827,6.60e+00,-1.20e+00,
828,7.00e+00,-1.40e+00,
829,6.40e+00,-2.00e+00,
830,6.80e+00,-1.40e+00,
831,6.20e+00,-2.00e+00,
832,6.60e+00,-1.40e+00,
833,6.00e+00,-2.00e+00,
834,6.40e+00,-1.40e+00,
835,5.80e+00,-2.00e+00,
836,6.20e+00,-1.40e+00,
837,5.60e+00,-2.00e+00,
838,6.00e+00,-1.60e+00,
839,5.40e+00,-2.00e+00,
840,5.80e+00,-1.40e+00,
