Python/scripts/Traces/NF4.csv

X,CH1,CH2,Start,Increment,
Sequence,Volt,Volt,-1.200000e-04,2.000000e-09
0,-2.20e+00,5.20e-01,
1,-2.20e+00,5.20e-01,
2,-2.20e+00,5.20e-01,
3,-2.20e+00,5.20e-01,
4,-2.20e+00,5.20e-01,
5,-2.20e+00,5.20e-01,
6,-2.20e+00,5.20e-01,
7,-2.20e+00,5.20e-01,
8,-2.20e+00,5.20e-01,
9,-2.20e+00,5.20e-01,
10,-2.20e+00,5.20e-01,
11,-2.20e+00,5.20e-01,
12,-2.20e+00,4.80e-01,
13,-2.20e+00,5.20e-01,
14,-2.20e+00,5.20e-01,
15,-2.20e+00,5.20e-01,
16,-2.20e+00,5.20e-01,
17,-2.20e+00,5.20e-01,
18,-2.20e+00,5.20e-01,
19,-2.20e+00,5.20e-01,
20,-2.20e+00,5.20e-01,
21,-2.20e+00,5.20e-01,
22,-2.20e+00,5.20e-01,
23,-2.20e+00,5.20e-01,
24,-2.20e+00,5.20e-01,
25,-2.20e+00,5.20e-01,
26,-2.20e+00,5.20e-01,
27,-2.20e+00,5.20e-01,
28,-2.20e+00,5.20e-01,
29,-2.20e+00,5.20e-01,
30,-2.20e+00,5.20e-01,
31,-2.20e+00,5.20e-01,
32,-2.20e+00,5.20e-01,
33,-2.20e+00,5.20e-01,
34,-2.20e+00,5.20e-01,
35,-2.20e+00,5.20e-01,
36,-2.20e+00,5.20e-01,
37,-2.20e+00,5.20e-01,
38,-2.20e+00,5.20e-01,
39,-2.20e+00,5.20e-01,
40,-2.16e+00,5.20e-01,
41,-2.20e+00,5.20e-01,
42,-2.20e+00,5.20e-01,
43,-2.20e+00,5.20e-01,
44,-2.20e+00,5.20e-01,
45,-2.16e+00,5.20e-01,
46,-2.20e+00,5.20e-01,
47,-2.20e+00,5.20e-01,
48,-2.16e+00,5.20e-01,
49,-2.20e+00,5.20e-01,
50,-2.20e+00,5.20e-01,
51,-2.16e+00,5.20e-01,
52,-2.20e+00,4.80e-01,
53,-2.16e+00,5.20e-01,
54,-2.20e+00,5.20e-01,
55,-2.20e+00,5.20e-01,
56,-2.16e+00,5.20e-01,
57,-2.20e+00,5.20e-01,
58,-2.20e+00,5.20e-01,
59,-2.20e+00,5.20e-01,
60,-2.16e+00,5.20e-01,
61,-2.20e+00,5.20e-01,
62,-2.20e+00,5.20e-01,
63,-2.20e+00,5.20e-01,
64,-2.16e+00,5.20e-01,
65,-2.20e+00,5.20e-01,
66,-2.20e+00,5.20e-01,
67,-2.20e+00,5.20e-01,
68,-2.16e+00,5.20e-01,
69,-2.20e+00,5.20e-01,
70,-2.16e+00,5.20e-01,
71,-2.20e+00,5.20e-01,
72,-2.16e+00,5.20e-01,
73,-2.16e+00,5.20e-01,
74,-2.20e+00,5.20e-01,
75,-2.20e+00,5.20e-01,
76,-2.16e+00,5.20e-01,
77,-2.16e+00,5.20e-01,
78,-2.20e+00,5.20e-01,
79,-2.20e+00,5.20e-01,
80,-2.16e+00,5.20e-01,
81,-2.20e+00,5.20e-01,
82,-2.20e+00,5.20e-01,
83,-2.20e+00,5.20e-01,
84,-2.16e+00,5.20e-01,
85,-2.16e+00,5.20e-01,
86,-2.20e+00,5.20e-01,
87,-2.20e+00,5.20e-01,
88,-2.16e+00,5.20e-01,
89,-2.16e+00,5.20e-01,
90,-2.20e+00,5.20e-01,
91,-2.20e+00,5.20e-01,
92,-2.16e+00,5.20e-01,
93,-2.16e+00,5.20e-01,
94,-2.20e+00,5.20e-01,
95,-2.16e+00,5.20e-01,
96,-2.16e+00,5.20e-01,
97,-2.16e+00,5.20e-01,
98,-2.16e+00,5.20e-01,
99,-2.20e+00,5.20e-01,
100,-2.16e+00,5.20e-01,
101,-2.16e+00,5.20e-01,
102,-2.16e+00,5.20e-01,
103,-2.16e+00,5.20e-01,
104,-2.16e+00,5.20e-01,
105,-2.16e+00,5.20e-01,
106,-2.16e+00,5.20e-01,
107,-2.16e+00,5.20e-01,
108,-2.16e+00,5.20e-01,
109,-2.16e+00,5.20e-01,
110,-2.16e+00,5.20e-01,
111,-2.16e+00,5.20e-01,
112,-2.16e+00,5.20e-01,
113,-2.16e+00,5.20e-01,
114,-2.16e+00,5.20e-01,
115,-2.16e+00,5.20e-01,
116,-2.16e+00,5.20e-01,
117,-2.16e+00,5.20e-01,
118,-2.16e+00,5.20e-01,
119,-2.16e+00,5.20e-01,
120,-2.16e+00,5.20e-01,
121,-2.16e+00,5.20e-01,
122,-2.16e+00,5.20e-01,
123,-2.16e+00,5.20e-01,
124,-2.16e+00,5.20e-01,
125,-2.16e+00,5.20e-01,
126,-2.16e+00,5.20e-01,
127,-2.16e+00,5.20e-01,
128,-2.16e+00,5.20e-01,
129,-2.16e+00,5.20e-01,
130,-2.16e+00,5.20e-01,
131,-2.16e+00,5.20e-01,
132,-2.16e+00,5.20e-01,
133,-2.16e+00,5.20e-01,
134,-2.16e+00,5.20e-01,
135,-2.16e+00,5.20e-01,
136,-2.12e+00,5.20e-01,
137,-2.16e+00,5.20e-01,
138,-2.16e+00,5.20e-01,
139,-2.16e+00,5.20e-01,
140,-2.16e+00,5.20e-01,
141,-2.16e+00,5.20e-01,
142,-2.16e+00,5.20e-01,
143,-2.16e+00,5.20e-01,
144,-2.16e+00,5.20e-01,
145,-2.16e+00,5.20e-01,
146,-2.16e+00,5.20e-01,
147,-2.16e+00,5.20e-01,
148,-2.16e+00,5.20e-01,
149,-2.16e+00,5.20e-01,
150,-2.16e+00,5.20e-01,
151,-2.16e+00,5.20e-01,
152,-2.12e+00,5.20e-01,
153,-2.16e+00,5.20e-01,
154,-2.16e+00,5.20e-01,
155,-2.16e+00,5.20e-01,
156,-2.16e+00,5.20e-01,
157,-2.16e+00,5.20e-01,
158,-2.16e+00,5.20e-01,
159,-2.16e+00,5.20e-01,
160,-2.12e+00,5.20e-01,
161,-2.16e+00,5.20e-01,
162,-2.16e+00,5.20e-01,
163,-2.16e+00,5.20e-01,
164,-2.12e+00,5.20e-01,
165,-2.16e+00,5.20e-01,
166,-2.16e+00,5.20e-01,
167,-2.16e+00,5.20e-01,
168,-2.12e+00,5.20e-01,
169,-2.16e+00,5.20e-01,
170,-2.16e+00,5.20e-01,
171,-2.16e+00,5.20e-01,
172,-2.12e+00,5.20e-01,
173,-2.16e+00,5.20e-01,
174,-2.16e+00,5.20e-01,
175,-2.16e+00,5.20e-01,
176,-2.12e+00,5.20e-01,
177,-2.16e+00,5.20e-01,
178,-2.16e+00,5.20e-01,
179,-2.16e+00,5.20e-01,
180,-2.12e+00,5.20e-01,
181,-2.16e+00,5.20e-01,
182,-2.16e+00,5.20e-01,
183,-2.16e+00,5.20e-01,
184,-2.12e+00,5.20e-01,
185,-2.16e+00,5.20e-01,
186,-2.16e+00,5.20e-01,
187,-2.16e+00,5.20e-01,
188,-2.12e+00,5.20e-01,
189,-2.12e+00,5.20e-01,
190,-2.16e+00,5.20e-01,
191,-2.16e+00,5.20e-01,
192,-2.12e+00,5.20e-01,
193,-2.12e+00,5.20e-01,
194,-2.16e+00,5.20e-01,
195,-2.16e+00,5.20e-01,
196,-2.12e+00,5.20e-01,
197,-2.12e+00,5.20e-01,
198,-2.12e+00,5.20e-01,
199,-2.16e+00,5.20e-01,
200,-2.12e+00,5.20e-01,
201,-2.12e+00,5.20e-01,
202,-2.16e+00,5.20e-01,
203,-2.16e+00,5.20e-01,
204,-2.12e+00,5.20e-01,
205,-2.12e+00,5.20e-01,
206,-2.12e+00,5.20e-01,
207,-2.16e+00,5.20e-01,
208,-2.12e+00,5.20e-01,
209,-2.12e+00,5.20e-01,
210,-2.12e+00,5.20e-01,
211,-2.16e+00,5.20e-01,
212,-2.12e+00,5.20e-01,
213,-2.12e+00,5.20e-01,
214,-2.12e+00,5.20e-01,
215,-2.12e+00,5.20e-01,
216,-2.12e+00,5.20e-01,
217,-2.12e+00,5.20e-01,
218,-2.12e+00,5.20e-01,
219,-2.16e+00,5.20e-01,
220,-2.12e+00,5.20e-01,
221,-2.12e+00,5.20e-01,
222,-2.12e+00,5.20e-01,
223,-2.12e+00,5.20e-01,
224,-2.12e+00,5.20e-01,
225,-2.12e+00,5.20e-01,
226,-2.12e+00,5.20e-01,
227,-2.12e+00,5.20e-01,
228,-2.12e+00,5.20e-01,
229,-2.12e+00,5.20e-01,
230,-2.12e+00,5.20e-01,
231,-2.12e+00,5.20e-01,
232,-2.12e+00,5.20e-01,
233,-2.12e+00,5.20e-01,
234,-2.12e+00,5.20e-01,
235,-2.12e+00,5.20e-01,
236,-2.12e+00,5.20e-01,
237,-2.12e+00,5.20e-01,
238,-2.12e+00,5.20e-01,
239,-2.12e+00,5.20e-01,
240,-2.12e+00,5.20e-01,
241,-2.12e+00,5.20e-01,
242,-2.12e+00,5.20e-01,
243,-2.12e+00,5.20e-01,
244,-2.12e+00,5.20e-01,
245,-2.12e+00,5.20e-01,
246,-2.12e+00,5.20e-01,
247,-2.12e+00,5.20e-01,
248,-2.12e+00,5.20e-01,
249,-2.12e+00,5.20e-01,
250,-2.12e+00,5.20e-01,
251,-2.12e+00,5.20e-01,
252,-2.12e+00,5.20e-01,
253,-2.08e+00,5.20e-01,
254,-2.12e+00,5.20e-01,
255,-2.12e+00,5.20e-01,
256,-2.08e+00,5.20e-01,
257,-2.12e+00,5.20e-01,
258,-2.12e+00,5.20e-01,
259,-2.12e+00,5.20e-01,
260,-2.12e+00,5.20e-01,
261,-2.12e+00,5.20e-01,
262,-2.12e+00,5.20e-01,
263,-2.12e+00,5.20e-01,
264,-2.12e+00,5.20e-01,
265,-2.12e+00,5.20e-01,
266,-2.12e+00,5.20e-01,
267,-2.12e+00,5.20e-01,
268,-2.08e+00,5.20e-01,
269,-2.12e+00,5.20e-01,
270,-2.12e+00,5.20e-01,
271,-2.12e+00,5.20e-01,
272,-2.12e+00,5.20e-01,
273,-2.12e+00,5.20e-01,
274,-2.12e+00,5.20e-01,
275,-2.12e+00,5.20e-01,
276,-2.12e+00,5.20e-01,
277,-2.12e+00,5.20e-01,
278,-2.12e+00,5.20e-01,
279,-2.12e+00,5.20e-01,
280,-2.08e+00,5.20e-01,
281,-2.12e+00,5.20e-01,
282,-2.12e+00,5.20e-01,
283,-2.12e+00,5.20e-01,
284,-2.12e+00,5.20e-01,
285,-2.12e+00,5.20e-01,
286,-2.12e+00,5.20e-01,
287,-2.12e+00,5.20e-01,
288,-2.08e+00,5.20e-01,
289,-2.12e+00,5.20e-01,
290,-2.12e+00,5.20e-01,
291,-2.12e+00,5.20e-01,
292,-2.08e+00,5.20e-01,
293,-2.12e+00,5.20e-01,
294,-2.12e+00,5.20e-01,
295,-2.12e+00,5.20e-01,
296,-2.08e+00,5.20e-01,
297,-2.12e+00,5.20e-01,
298,-2.12e+00,5.20e-01,
299,-2.12e+00,5.20e-01,
300,-2.08e+00,5.20e-01,
301,-2.08e+00,5.20e-01,
302,-2.12e+00,5.20e-01,
303,-2.12e+00,5.20e-01,
304,-2.08e+00,5.20e-01,
305,-2.12e+00,5.20e-01,
306,-2.12e+00,5.20e-01,
307,-2.12e+00,5.20e-01,
308,-2.08e+00,5.20e-01,
309,-2.12e+00,5.20e-01,
310,-2.12e+00,5.20e-01,
311,-2.12e+00,5.20e-01,
312,-2.08e+00,5.20e-01,
313,-2.08e+00,5.20e-01,
314,-2.12e+00,5.20e-01,
315,-2.12e+00,5.20e-01,
316,-2.08e+00,5.20e-01,
317,-2.08e+00,5.20e-01,
318,-2.12e+00,5.20e-01,
319,-2.12e+00,5.20e-01,
320,-2.08e+00,5.20e-01,
321,-2.12e+00,5.20e-01,
322,-2.08e+00,5.20e-01,
323,-2.12e+00,5.20e-01,
324,-2.08e+00,5.20e-01,
325,-2.08e+00,5.20e-01,
326,-2.12e+00,5.20e-01,
327,-2.08e+00,5.20e-01,
328,-2.08e+00,5.20e-01,
329,-2.08e+00,5.20e-01,
330,-2.08e+00,5.20e-01,
331,-2.12e+00,5.20e-01,
332,-2.08e+00,5.20e-01,
333,-2.08e+00,5.20e-01,
334,-2.08e+00,5.20e-01,
335,-2.08e+00,5.20e-01,
336,-2.08e+00,5.20e-01,
337,-2.08e+00,5.20e-01,
338,-2.08e+00,5.20e-01,
339,-2.12e+00,5.20e-01,
340,-2.08e+00,5.20e-01,
341,-2.08e+00,5.20e-01,
342,-2.08e+00,5.20e-01,
343,-2.08e+00,5.20e-01,
344,-2.08e+00,5.20e-01,
345,-2.08e+00,5.20e-01,
346,-2.08e+00,5.20e-01,
347,-2.08e+00,5.20e-01,
348,-2.08e+00,5.20e-01,
349,-2.08e+00,5.20e-01,
350,-2.08e+00,5.20e-01,
351,-2.08e+00,5.20e-01,
352,-2.08e+00,5.20e-01,
353,-2.08e+00,5.20e-01,
354,-2.08e+00,5.20e-01,
355,-2.08e+00,5.20e-01,
356,-2.08e+00,5.20e-01,
357,-2.08e+00,5.20e-01,
358,-2.08e+00,5.20e-01,
359,-2.08e+00,5.20e-01,
360,-2.08e+00,5.20e-01,
361,-2.08e+00,5.20e-01,
362,-2.08e+00,5.20e-01,
363,-2.08e+00,5.20e-01,
364,-2.08e+00,5.20e-01,
365,-2.08e+00,5.20e-01,
366,-2.08e+00,5.20e-01,
367,-2.08e+00,5.20e-01,
368,-2.08e+00,5.20e-01,
369,-2.08e+00,5.20e-01,
370,-2.08e+00,5.20e-01,
371,-2.08e+00,5.20e-01,
372,-2.08e+00,5.20e-01,
373,-2.08e+00,5.20e-01,
374,-2.08e+00,5.20e-01,
375,-2.08e+00,5.20e-01,
376,-2.08e+00,5.20e-01,
377,-2.08e+00,5.20e-01,
378,-2.08e+00,5.20e-01,
379,-2.08e+00,5.20e-01,
380,-2.08e+00,5.20e-01,
381,-2.08e+00,5.20e-01,
382,-2.08e+00,5.20e-01,
383,-2.08e+00,5.20e-01,
384,-2.04e+00,5.20e-01,
385,-2.08e+00,5.20e-01,
386,-2.08e+00,5.20e-01,
387,-2.08e+00,5.20e-01,
388,-2.08e+00,5.20e-01,
389,-2.08e+00,5.20e-01,
390,-2.08e+00,5.20e-01,
391,-2.08e+00,5.20e-01,
392,-2.04e+00,5.20e-01,
393,-2.08e+00,5.20e-01,
394,-2.08e+00,5.20e-01,
395,-2.08e+00,5.20e-01,
396,-2.08e+00,5.20e-01,
397,-2.04e+00,5.20e-01,
398,-2.08e+00,5.20e-01,
399,-2.08e+00,5.20e-01,
400,-2.04e+00,5.20e-01,
401,-2.08e+00,5.20e-01,
402,-2.08e+00,5.20e-01,
403,-2.08e+00,5.20e-01,
404,-2.04e+00,5.20e-01,
405,-2.08e+00,5.20e-01,
406,-2.08e+00,5.20e-01,
407,-2.08e+00,5.20e-01,
408,-2.04e+00,5.20e-01,
409,-2.08e+00,5.20e-01,
410,-2.08e+00,5.20e-01,
411,-2.08e+00,5.20e-01,
412,-2.04e+00,5.20e-01,
413,-2.08e+00,5.20e-01,
414,-2.08e+00,5.20e-01,
415,-2.08e+00,5.20e-01,
416,-2.04e+00,5.20e-01,
417,-2.08e+00,5.20e-01,
418,-2.08e+00,5.20e-01,
419,-2.08e+00,5.20e-01,
420,-2.04e+00,5.20e-01,
421,-2.04e+00,5.20e-01,
422,-2.08e+00,5.20e-01,
423,-2.08e+00,5.20e-01,
424,-2.04e+00,5.20e-01,
425,-2.04e+00,5.20e-01,
426,-2.08e+00,5.20e-01,
427,-2.08e+00,5.20e-01,
428,-2.04e+00,5.20e-01,
429,-2.04e+00,5.20e-01,
430,-2.04e+00,5.20e-01,
431,-2.08e+00,5.20e-01,
432,-2.04e+00,5.20e-01,
433,-2.04e+00,5.20e-01,
434,-2.08e+00,5.20e-01,
435,-2.08e+00,5.20e-01,
436,-2.04e+00,5.20e-01,
437,-2.04e+00,5.20e-01,
438,-2.08e+00,5.20e-01,
439,-2.08e+00,5.20e-01,
440,-2.04e+00,5.20e-01,
441,-2.08e+00,5.20e-01,
442,-2.04e+00,5.20e-01,
443,-2.08e+00,5.20e-01,
444,-2.04e+00,5.20e-01,
445,-2.04e+00,5.20e-01,
446,-2.08e+00,5.20e-01,
447,-2.04e+00,5.20e-01,
448,-2.04e+00,5.20e-01,
449,-2.08e+00,5.20e-01,
450,-2.04e+00,5.20e-01,
451,-2.04e+00,5.20e-01,
452,-2.08e+00,5.20e-01,
453,-2.04e+00,5.20e-01,
454,-2.08e+00,5.20e-01,
455,-2.04e+00,5.20e-01,
456,-2.04e+00,5.20e-01,
457,-2.04e+00,5.20e-01,
458,-2.04e+00,5.20e-01,
459,-2.04e+00,5.20e-01,
460,-2.04e+00,5.20e-01,
461,-2.04e+00,5.20e-01,
462,-2.04e+00,5.20e-01,
463,-2.04e+00,5.20e-01,
464,-2.04e+00,5.20e-01,
465,-2.04e+00,5.20e-01,
466,-2.04e+00,5.20e-01,
467,-2.04e+00,5.20e-01,
468,-2.04e+00,5.20e-01,
469,-2.04e+00,5.20e-01,
470,-2.04e+00,5.20e-01,
471,-2.04e+00,5.20e-01,
472,-2.04e+00,5.20e-01,
473,-2.04e+00,5.20e-01,
474,-2.04e+00,5.20e-01,
475,-2.04e+00,5.20e-01,
476,-2.04e+00,5.20e-01,
477,-2.04e+00,5.20e-01,
478,-2.04e+00,5.20e-01,
479,-2.04e+00,5.20e-01,
480,-2.04e+00,5.20e-01,
481,-2.04e+00,5.20e-01,
482,-2.04e+00,5.20e-01,
483,-2.04e+00,5.20e-01,
484,-2.04e+00,5.20e-01,
485,-2.04e+00,5.20e-01,
486,-2.04e+00,5.20e-01,
487,-2.04e+00,5.20e-01,
488,-2.04e+00,5.20e-01,
489,-2.04e+00,5.20e-01,
490,-2.04e+00,5.20e-01,
491,-2.04e+00,5.20e-01,
492,-2.04e+00,5.20e-01,
493,-2.04e+00,5.20e-01,
494,-2.04e+00,5.20e-01,
495,-2.04e+00,5.20e-01,
496,-2.04e+00,5.20e-01,
497,-2.04e+00,5.20e-01,
498,-2.04e+00,5.20e-01,
499,-2.04e+00,5.20e-01,
500,-1.96e+00,5.20e-01,
501,-2.04e+00,5.60e-01,
502,-2.04e+00,5.20e-01,
503,-2.04e+00,5.20e-01,
504,-1.96e+00,5.20e-01,
505,-2.04e+00,5.20e-01,
506,-2.04e+00,5.20e-01,
507,-2.04e+00,5.20e-01,
508,-1.96e+00,5.20e-01,
509,-2.04e+00,5.20e-01,
510,-2.04e+00,5.20e-01,
511,-2.04e+00,5.20e-01,
512,-1.96e+00,5.20e-01,
513,-2.04e+00,5.20e-01,
514,-2.04e+00,5.20e-01,
515,-2.04e+00,5.20e-01,
516,-2.04e+00,5.20e-01,
517,-2.04e+00,5.20e-01,
518,-2.04e+00,5.20e-01,
519,-2.04e+00,5.20e-01,
520,-1.96e+00,5.20e-01,
521,-2.04e+00,5.20e-01,
522,-2.04e+00,5.20e-01,
523,-2.04e+00,5.20e-01,
524,-1.96e+00,5.20e-01,
525,-2.04e+00,5.20e-01,
526,-2.04e+00,5.20e-01,
527,-2.04e+00,5.20e-01,
528,-1.96e+00,5.20e-01,
529,-2.04e+00,5.20e-01,
530,-2.04e+00,5.20e-01,
531,-2.04e+00,5.20e-01,
532,-1.96e+00,5.20e-01,
533,-1.96e+00,5.20e-01,
534,-2.04e+00,5.20e-01,
535,-2.04e+00,5.20e-01,
536,-1.96e+00,5.20e-01,
537,-1.96e+00,5.20e-01,
538,-2.04e+00,5.20e-01,
539,-2.04e+00,5.20e-01,
540,-1.96e+00,5.20e-01,
541,-1.96e+00,5.20e-01,
542,-2.04e+00,5.20e-01,
543,-2.04e+00,5.20e-01,
544,-1.96e+00,5.20e-01,
545,-1.96e+00,5.20e-01,
546,-2.04e+00,5.20e-01,
547,-1.96e+00,5.20e-01,
548,-1.96e+00,5.20e-01,
549,-1.96e+00,5.20e-01,
550,-1.96e+00,5.20e-01,
551,-2.04e+00,5.20e-01,
552,-1.96e+00,5.20e-01,
553,-1.96e+00,5.20e-01,
554,-2.04e+00,5.20e-01,
555,-2.04e+00,5.20e-01,
556,-1.96e+00,5.20e-01,
557,-1.96e+00,5.60e-01,
558,-1.96e+00,5.20e-01,
559,-2.04e+00,5.20e-01,
560,-1.96e+00,5.20e-01,
561,-1.96e+00,5.20e-01,
562,-1.96e+00,5.20e-01,
563,-2.04e+00,5.20e-01,
564,-1.96e+00,5.20e-01,
565,-1.96e+00,5.20e-01,
566,-1.96e+00,5.20e-01,
567,-1.96e+00,5.20e-01,
568,-1.96e+00,5.20e-01,
569,-1.96e+00,5.20e-01,
570,-1.96e+00,5.20e-01,
571,-2.04e+00,5.20e-01,
572,-1.96e+00,5.20e-01,
573,-1.96e+00,5.20e-01,
574,-1.96e+00,5.20e-01,
575,-1.96e+00,5.20e-01,
576,-1.96e+00,5.20e-01,
577,-1.96e+00,5.20e-01,
578,-1.96e+00,5.20e-01,
579,-1.96e+00,5.20e-01,
580,-1.96e+00,5.20e-01,
581,-1.96e+00,5.20e-01,
582,-1.96e+00,5.20e-01,
583,-1.96e+00,5.20e-01,
584,-1.96e+00,5.20e-01,
585,-1.96e+00,5.20e-01,
586,-1.96e+00,5.20e-01,
587,-1.96e+00,5.20e-01,
588,-1.96e+00,5.20e-01,
589,-1.96e+00,5.20e-01,
590,-1.96e+00,5.20e-01,
591,-1.96e+00,5.20e-01,
592,-1.96e+00,5.20e-01,
593,-1.96e+00,5.20e-01,
594,-1.96e+00,5.20e-01,
595,-1.96e+00,5.20e-01,
596,-1.96e+00,5.20e-01,
597,-1.96e+00,5.60e-01,
598,-1.96e+00,5.20e-01,
599,-1.96e+00,5.20e-01,
600,-1.96e+00,5.20e-01,
601,-1.96e+00,5.20e-01,
602,-1.96e+00,5.20e-01,
603,-1.96e+00,5.20e-01,
604,-1.96e+00,5.20e-01,
605,-1.96e+00,5.20e-01,
606,-1.96e+00,5.20e-01,
607,-1.96e+00,5.20e-01,
608,-1.96e+00,5.20e-01,
609,-1.96e+00,5.20e-01,
610,-1.96e+00,5.20e-01,
611,-1.96e+00,5.20e-01,
612,-1.96e+00,5.20e-01,
613,-1.96e+00,5.60e-01,
614,-1.96e+00,5.20e-01,
615,-1.96e+00,5.20e-01,
616,-1.92e+00,5.20e-01,
617,-1.96e+00,5.20e-01,
618,-1.96e+00,5.20e-01,
619,-1.96e+00,5.20e-01,
620,-1.92e+00,5.20e-01,
621,-1.96e+00,5.60e-01,
622,-1.96e+00,5.20e-01,
623,-1.96e+00,5.20e-01,
624,-1.92e+00,5.20e-01,
625,-1.96e+00,5.20e-01,
626,-1.96e+00,5.20e-01,
627,-1.96e+00,5.20e-01,
628,-1.92e+00,5.20e-01,
629,-1.96e+00,5.20e-01,
630,-1.96e+00,5.20e-01,
631,-1.96e+00,5.20e-01,
632,-1.92e+00,5.20e-01,
633,-1.96e+00,5.60e-01,
634,-1.96e+00,5.60e-01,
635,-1.96e+00,5.20e-01,
636,-1.92e+00,5.20e-01,
637,-1.92e+00,5.20e-01,
638,-1.96e+00,5.20e-01,
639,-1.96e+00,5.20e-01,
640,-1.92e+00,5.20e-01,
641,-1.96e+00,5.60e-01,
642,-1.96e+00,5.60e-01,
643,-1.96e+00,5.20e-01,
644,-1.92e+00,5.20e-01,
645,-1.92e+00,5.20e-01,
646,-1.92e+00,5.20e-01,
647,-1.92e+00,5.20e-01,
648,-1.92e+00,5.20e-01,
649,-1.96e+00,5.20e-01,
650,-1.96e+00,5.20e-01,
651,-1.92e+00,5.20e-01,
652,-1.96e+00,5.20e-01,
653,-1.92e+00,5.60e-01,
654,-1.96e+00,5.60e-01,
655,-1.96e+00,5.20e-01,
656,-1.92e+00,5.20e-01,
657,-1.96e+00,5.20e-01,
658,-1.92e+00,5.20e-01,
659,-1.96e+00,5.20e-01,
660,-1.92e+00,5.20e-01,
661,-1.92e+00,5.60e-01,
662,-1.92e+00,5.20e-01,
663,-1.92e+00,5.20e-01,
664,-1.92e+00,5.20e-01,
665,-1.92e+00,5.20e-01,
666,-1.92e+00,5.20e-01,
667,-1.92e+00,5.20e-01,
668,-1.92e+00,5.20e-01,
669,-1.92e+00,5.20e-01,
670,-1.92e+00,5.20e-01,
671,-1.92e+00,5.20e-01,
672,-1.92e+00,5.20e-01,
673,-1.92e+00,5.20e-01,
674,-1.92e+00,5.20e-01,
675,-1.92e+00,5.20e-01,
676,-1.92e+00,5.20e-01,
677,-1.92e+00,5.60e-01,
678,-1.92e+00,5.60e-01,
679,-1.92e+00,5.20e-01,
680,-1.92e+00,5.20e-01,
681,-1.92e+00,5.20e-01,
682,-1.92e+00,5.20e-01,
683,-1.92e+00,5.20e-01,
684,-1.92e+00,5.20e-01,
685,-1.92e+00,5.60e-01,
686,-1.92e+00,5.20e-01,
687,-1.92e+00,5.20e-01,
688,-1.92e+00,5.20e-01,
689,-1.92e+00,5.20e-01,
690,-1.92e+00,5.20e-01,
691,-1.92e+00,5.20e-01,
692,-1.92e+00,5.20e-01,
693,-1.92e+00,5.60e-01,
694,-1.92e+00,5.60e-01,
695,-1.92e+00,5.20e-01,
696,-1.92e+00,5.20e-01,
697,-1.92e+00,5.60e-01,
698,-1.92e+00,5.20e-01,
699,-1.92e+00,5.20e-01,
700,-1.92e+00,5.20e-01,
701,-1.92e+00,5.20e-01,
702,-1.92e+00,5.60e-01,
703,-1.92e+00,5.20e-01,
704,-1.92e+00,5.20e-01,
705,-1.92e+00,5.60e-01,
706,-1.92e+00,5.20e-01,
707,-1.92e+00,5.20e-01,
708,-1.92e+00,5.20e-01,
709,-1.92e+00,5.60e-01,
710,-1.92e+00,5.60e-01,
711,-1.92e+00,5.20e-01,
712,-1.92e+00,5.20e-01,
713,-1.92e+00,5.20e-01,
714,-1.92e+00,5.20e-01,
715,-1.92e+00,5.20e-01,
716,-1.92e+00,5.20e-01,
717,-1.92e+00,5.60e-01,
718,-1.92e+00,5.60e-01,
719,-1.92e+00,5.20e-01,
720,-1.88e+00,5.20e-01,
721,-1.92e+00,5.60e-01,
722,-1.92e+00,5.60e-01,
723,-1.92e+00,5.20e-01,
724,-1.88e+00,5.20e-01,
725,-1.92e+00,5.60e-01,
726,-1.92e+00,5.20e-01,
727,-1.92e+00,5.20e-01,
728,-1.88e+00,5.20e-01,
729,-1.92e+00,5.60e-01,
730,-1.92e+00,5.20e-01,
731,-1.92e+00,5.20e-01,
732,-1.88e+00,5.20e-01,
733,-1.92e+00,5.60e-01,
734,-1.92e+00,5.60e-01,
735,-1.92e+00,5.20e-01,
736,-1.88e+00,5.20e-01,
737,-1.92e+00,5.20e-01,
738,-1.92e+00,5.20e-01,
739,-1.92e+00,5.20e-01,
740,-1.88e+00,5.20e-01,
741,-1.92e+00,5.60e-01,
742,-1.92e+00,5.20e-01,
743,-1.92e+00,5.20e-01,
744,-1.88e+00,5.20e-01,
745,-1.92e+00,5.60e-01,
746,-1.92e+00,5.20e-01,
747,-1.92e+00,5.20e-01,
748,-1.88e+00,5.20e-01,
749,-1.88e+00,5.60e-01,
750,-1.92e+00,5.20e-01,
751,-1.92e+00,5.20e-01,
752,-1.88e+00,5.20e-01,
753,-1.88e+00,5.20e-01,
754,-1.92e+00,5.20e-01,
755,-1.92e+00,5.20e-01,
756,-1.88e+00,5.20e-01,
757,-1.88e+00,5.60e-01,
758,-1.88e+00,5.60e-01,
759,-1.92e+00,5.20e-01,
760,-1.88e+00,5.20e-01,
761,-1.88e+00,5.60e-01,
762,-1.92e+00,5.60e-01,
763,-1.92e+00,5.20e-01,
764,-1.88e+00,5.20e-01,
765,-1.88e+00,5.60e-01,
766,-1.92e+00,5.60e-01,
767,-1.92e+00,5.20e-01,
768,-1.88e+00,5.20e-01,
769,-1.88e+00,5.60e-01,
770,-1.88e+00,5.60e-01,
771,-1.92e+00,5.60e-01,
772,-1.88e+00,5.20e-01,
773,-1.88e+00,5.20e-01,
774,-1.88e+00,5.60e-01,
775,-1.92e+00,5.20e-01,
776,-1.88e+00,5.20e-01,
777,-1.88e+00,5.20e-01,
778,-1.88e+00,5.20e-01,
779,-1.92e+00,5.20e-01,
780,-1.88e+00,5.20e-01,
781,-1.88e+00,5.60e-01,
782,-1.88e+00,5.60e-01,
783,-1.88e+00,5.20e-01,
784,-1.88e+00,5.20e-01,
785,-1.88e+00,5.60e-01,
786,-1.88e+00,5.20e-01,
787,-1.88e+00,5.20e-01,
788,-1.88e+00,5.20e-01,
789,-1.88e+00,5.60e-01,
790,-1.88e+00,5.20e-01,
791,-1.88e+00,5.20e-01,
792,-1.88e+00,5.20e-01,
793,-1.88e+00,5.60e-01,
794,-1.88e+00,5.20e-01,
795,-1.92e+00,5.20e-01,
796,-1.88e+00,5.20e-01,
797,-1.88e+00,5.60e-01,
798,-1.88e+00,5.60e-01,
799,-1.88e+00,5.20e-01,
800,-1.88e+00,5.20e-01,
801,-1.88e+00,5.60e-01,
802,-1.88e+00,5.60e-01,
803,-1.88e+00,5.20e-01,
804,-1.88e+00,5.20e-01,
805,-1.88e+00,5.60e-01,
806,-1.88e+00,5.60e-01,
807,-1.88e+00,5.20e-01,
808,-1.88e+00,5.20e-01,
809,-1.88e+00,5.60e-01,
810,-1.88e+00,5.20e-01,
811,-1.88e+00,5.20e-01,
812,-1.88e+00,5.20e-01,
813,-1.88e+00,5.60e-01,
814,-1.88e+00,5.20e-01,
815,-1.88e+00,5.20e-01,
816,-1.88e+00,5.20e-01,
817,-1.88e+00,5.60e-01,
818,-1.88e+00,5.60e-01,
819,-1.88e+00,5.20e-01,
820,-1.88e+00,5.20e-01,
821,-1.88e+00,5.60e-01,
822,-1.88e+00,5.60e-01,
823,-1.88e+00,5.20e-01,
824,-1.88e+00,5.20e-01,
825,-1.88e+00,5.60e-01,
826,-1.88e+00,5.60e-01,
827,-1.88e+00,5.20e-01,
828,-1.88e+00,5.20e-01,
829,-1.88e+00,5.60e-01,
830,-1.88e+00,5.60e-01,
831,-1.88e+00,5.20e-01,
832,-1.88e+00,5.20e-01,
833,-1.88e+00,5.60e-01,
