Python/scripts/Traces/NF4a.csv

X,CH1,CH2,Start,Increment,
Sequence,Volt,Volt,-1.200000e-04,2.000000e-07
0,-2.20e+00,5.60e-01,
1,-2.08e+00,5.20e-01,
2,-2.16e+00,5.20e-01,
3,-2.00e+00,5.60e-01,
4,-2.08e+00,5.60e-01,
5,-1.92e+00,5.20e-01,
6,-1.96e+00,5.20e-01,
7,-1.84e+00,6.00e-01,
8,-1.88e+00,6.00e-01,
9,-1.76e+00,5.20e-01,
10,-1.84e+00,6.00e-01,
11,-1.68e+00,5.20e-01,
12,-1.76e+00,6.00e-01,
13,-1.60e+00,5.60e-01,
14,-1.68e+00,6.00e-01,
15,-1.56e+00,5.60e-01,
16,-1.60e+00,6.00e-01,
17,-1.48e+00,5.60e-01,
18,-1.48e+00,5.60e-01,
19,-1.36e+00,6.80e-01,
20,-1.40e+00,5.60e-01,
21,-1.28e+00,6.80e-01,
22,-1.32e+00,5.60e-01,
23,-1.20e+00,6.80e-01,
24,-1.24e+00,6.80e-01,
25,-1.12e+00,5.60e-01,
26,-1.16e+00,6.40e-01,
27,-1.04e+00,6.80e-01,
28,-1.08e+00,6.40e-01,
29,-9.60e-01,6.80e-01,
30,-1.00e+00,6.40e-01,
31,-8.40e-01,6.80e-01,
32,-8.80e-01,6.80e-01,
33,-7.60e-01,5.60e-01,
34,-8.00e-01,6.40e-01,
35,-6.80e-01,6.80e-01,
36,-7.20e-01,6.40e-01,
37,-6.00e-01,6.80e-01,
38,-6.40e-01,6.40e-01,
39,-4.80e-01,7.60e-01,
40,-5.60e-01,7.20e-01,
41,-4.40e-01,6.00e-01,
42,-4.80e-01,6.40e-01,
43,-3.20e-01,7.20e-01,
44,-3.60e-01,6.40e-01,
45,-2.40e-01,7.20e-01,
46,-2.80e-01,6.40e-01,
47,-1.60e-01,7.20e-01,
48,-2.00e-01,6.40e-01,
49,-8.00e-02,7.20e-01,
50,-1.20e-01,6.40e-01,
51,4.00e-02,7.20e-01,
52,-4.00e-02,6.40e-01,
53,1.20e-01,7.20e-01,
54,8.00e-02,6.40e-01,
55,2.00e-01,7.20e-01,
56,1.60e-01,6.40e-01,
57,3.20e-01,7.20e-01,
58,2.80e-01,6.40e-01,
59,4.00e-01,7.20e-01,
60,3.60e-01,6.40e-01,
61,4.80e-01,7.20e-01,
62,4.40e-01,6.40e-01,
63,5.60e-01,7.20e-01,
64,5.20e-01,6.40e-01,
65,6.40e-01,6.80e-01,
66,6.40e-01,6.40e-01,
67,7.60e-01,6.80e-01,
68,7.20e-01,6.40e-01,
69,8.40e-01,6.80e-01,
70,8.00e-01,6.40e-01,
71,9.20e-01,6.80e-01,
72,8.80e-01,6.40e-01,
73,1.00e+00,6.80e-01,
74,9.60e-01,6.40e-01,
75,1.08e+00,6.80e-01,
76,1.04e+00,6.40e-01,
77,1.20e+00,6.80e-01,
78,1.16e+00,6.80e-01,
79,1.28e+00,6.00e-01,
80,1.24e+00,6.00e-01,
81,1.36e+00,6.80e-01,
82,1.32e+00,6.80e-01,
83,1.44e+00,5.60e-01,
84,1.40e+00,5.60e-01,
85,1.52e+00,6.80e-01,
86,1.44e+00,6.40e-01,
87,1.60e+00,5.60e-01,
88,1.56e+00,6.00e-01,
89,1.64e+00,5.60e-01,
90,1.64e+00,6.00e-01,
91,1.76e+00,5.60e-01,
92,1.72e+00,6.00e-01,
93,1.84e+00,5.60e-01,
94,1.80e+00,6.00e-01,
95,1.92e+00,5.20e-01,
96,1.88e+00,6.00e-01,
97,2.00e+00,5.20e-01,
98,1.92e+00,6.00e-01,
99,2.04e+00,5.20e-01,
100,2.00e+00,5.60e-01,
101,2.12e+00,5.20e-01,
102,2.08e+00,5.60e-01,
103,2.20e+00,5.20e-01,
104,2.20e+00,5.60e-01,
105,2.32e+00,4.80e-01,
106,2.24e+00,4.80e-01,
107,2.36e+00,5.60e-01,
108,2.32e+00,5.60e-01,
109,2.44e+00,4.80e-01,
110,2.40e+00,5.20e-01,
111,2.52e+00,4.80e-01,
112,2.44e+00,4.80e-01,
113,2.56e+00,5.20e-01,
114,2.52e+00,5.20e-01,
115,2.64e+00,4.40e-01,
116,2.56e+00,4.40e-01,
117,2.72e+00,5.20e-01,
118,2.68e+00,4.40e-01,
119,2.80e+00,5.20e-01,
120,2.72e+00,4.80e-01,
121,2.84e+00,4.00e-01,
122,2.80e+00,4.80e-01,
123,2.88e+00,4.00e-01,
124,2.84e+00,4.80e-01,
125,2.96e+00,4.00e-01,
126,2.88e+00,4.00e-01,
127,3.00e+00,4.40e-01,
128,2.96e+00,4.40e-01,
129,3.08e+00,3.60e-01,
130,3.00e+00,4.40e-01,
131,3.12e+00,3.60e-01,
132,3.08e+00,3.60e-01,
133,3.16e+00,4.40e-01,
134,3.12e+00,3.60e-01,
135,3.20e+00,4.00e-01,
136,3.20e+00,4.00e-01,
137,3.32e+00,3.20e-01,
138,3.24e+00,3.20e-01,
139,3.32e+00,4.00e-01,
140,3.28e+00,3.20e-01,
141,3.40e+00,3.60e-01,
142,3.32e+00,3.60e-01,
143,3.44e+00,2.80e-01,
144,3.36e+00,2.80e-01,
145,3.48e+00,3.60e-01,
146,3.40e+00,2.80e-01,
147,3.52e+00,3.20e-01,
148,3.52e+00,3.20e-01,
149,3.44e+00,2.40e-01,
150,3.56e+00,2.40e-01,
151,3.48e+00,3.20e-01,
152,3.52e+00,2.40e-01,
153,3.60e+00,3.20e-01,
154,3.56e+00,2.80e-01,
155,3.64e+00,2.00e-01,
156,3.56e+00,2.00e-01,
157,3.68e+00,2.80e-01,
158,3.60e+00,2.80e-01,
159,3.72e+00,1.60e-01,
160,3.76e+00,2.40e-01,
161,3.64e+00,1.60e-01,
162,3.68e+00,2.80e-01,
163,3.80e+00,1.20e-01,
164,3.72e+00,1.20e-01,
165,3.80e+00,2.40e-01,
166,3.72e+00,8.00e-02,
167,3.84e+00,2.00e-01,
168,3.76e+00,8.00e-02,
169,3.84e+00,2.00e-01,
170,3.76e+00,8.00e-02,
171,3.88e+00,1.20e-01,
172,3.80e+00,1.20e-01,
173,3.88e+00,4.00e-02,
174,3.80e+00,1.20e-01,
175,3.88e+00,4.00e-02,
176,3.92e+00,8.00e-02,
177,3.84e+00,4.00e-02,
178,3.84e+00,8.00e-02,
179,3.92e+00,0.00e+00,
180,3.84e+00,8.00e-02,
181,3.92e+00,0.00e+00,
182,3.84e+00,4.00e-02,
183,3.96e+00,-4.00e-02,
184,3.84e+00,4.00e-02,
185,3.96e+00,-4.00e-02,
186,3.84e+00,0.00e+00,
187,3.96e+00,-4.00e-02,
188,3.88e+00,0.00e+00,
189,3.96e+00,-8.00e-02,
190,3.96e+00,-8.00e-02,
191,3.84e+00,0.00e+00,
192,3.88e+00,-8.00e-02,
193,3.96e+00,-4.00e-02,
194,3.84e+00,-4.00e-02,
195,3.96e+00,-1.20e-01,
196,3.84e+00,-4.00e-02,
197,3.96e+00,-1.20e-01,
198,3.84e+00,-8.00e-02,
199,3.92e+00,-1.60e-01,
200,3.92e+00,-8.00e-02,
201,3.80e+00,-1.60e-01,
202,3.80e+00,-8.00e-02,
203,3.92e+00,-1.60e-01,
204,3.88e+00,-1.20e-01,
205,3.80e+00,-2.00e-01,
206,3.80e+00,-1.20e-01,
207,3.88e+00,-2.00e-01,
208,3.88e+00,-2.00e-01,
209,3.76e+00,-1.60e-01,
210,3.76e+00,-1.60e-01,
211,3.84e+00,-2.40e-01,
212,3.84e+00,-2.40e-01,
213,3.72e+00,-1.60e-01,
214,3.72e+00,-2.00e-01,
215,3.80e+00,-2.80e-01,
216,3.76e+00,-2.00e-01,
217,3.64e+00,-2.80e-01,
218,3.72e+00,-2.80e-01,
219,3.60e+00,-2.00e-01,
220,3.60e+00,-2.40e-01,
221,3.68e+00,-3.20e-01,
222,3.64e+00,-3.20e-01,
223,3.56e+00,-2.40e-01,
224,3.60e+00,-3.20e-01,
225,3.52e+00,-2.40e-01,
226,3.60e+00,-2.80e-01,
227,3.48e+00,-3.60e-01,
228,3.56e+00,-2.80e-01,
229,3.44e+00,-4.00e-01,
230,3.52e+00,-3.20e-01,
231,3.40e+00,-4.00e-01,
232,3.48e+00,-3.60e-01,
233,3.36e+00,-4.40e-01,
234,3.44e+00,-3.60e-01,
235,3.32e+00,-4.40e-01,
236,3.40e+00,-4.40e-01,
237,3.28e+00,-3.60e-01,
238,3.36e+00,-4.40e-01,
239,3.24e+00,-3.60e-01,
240,3.32e+00,-4.00e-01,
241,3.20e+00,-4.80e-01,
242,3.28e+00,-4.00e-01,
243,3.12e+00,-4.80e-01,
244,3.16e+00,-4.00e-01,
245,3.08e+00,-4.80e-01,
246,3.12e+00,-4.40e-01,
247,3.04e+00,-5.20e-01,
248,3.08e+00,-4.40e-01,
249,2.96e+00,-5.20e-01,
250,3.00e+00,-5.20e-01,
251,2.92e+00,-4.40e-01,
252,2.96e+00,-4.80e-01,
253,2.84e+00,-5.20e-01,
254,2.92e+00,-4.80e-01,
255,2.80e+00,-5.60e-01,
256,2.84e+00,-4.80e-01,
257,2.76e+00,-5.60e-01,
258,2.80e+00,-5.60e-01,
259,2.68e+00,-4.80e-01,
260,2.72e+00,-5.20e-01,
261,2.60e+00,-6.00e-01,
262,2.64e+00,-5.20e-01,
263,2.52e+00,-6.00e-01,
264,2.60e+00,-5.20e-01,
265,2.48e+00,-6.00e-01,
266,2.52e+00,-6.00e-01,
267,2.40e+00,-5.20e-01,
268,2.44e+00,-6.00e-01,
269,2.32e+00,-5.60e-01,
270,2.40e+00,-5.60e-01,
271,2.28e+00,-6.40e-01,
272,2.32e+00,-5.60e-01,
273,2.20e+00,-6.40e-01,
274,2.24e+00,-6.40e-01,
275,2.12e+00,-5.60e-01,
276,2.16e+00,-6.40e-01,
277,2.04e+00,-5.60e-01,
278,2.08e+00,-5.60e-01,
279,1.96e+00,-6.80e-01,
280,2.00e+00,-6.00e-01,
281,1.88e+00,-6.80e-01,
282,1.92e+00,-6.00e-01,
283,1.80e+00,-6.80e-01,
284,1.88e+00,-6.00e-01,
285,1.72e+00,-7.20e-01,
286,1.84e+00,-5.60e-01,
287,1.68e+00,-7.20e-01,
288,1.72e+00,-6.80e-01,
289,1.56e+00,-6.00e-01,
290,1.60e+00,-6.40e-01,
291,1.48e+00,-7.20e-01,
292,1.52e+00,-6.40e-01,
293,1.40e+00,-7.20e-01,
294,1.44e+00,-7.20e-01,
295,1.32e+00,-6.40e-01,
296,1.36e+00,-7.20e-01,
297,1.24e+00,-6.40e-01,
298,1.28e+00,-6.40e-01,
299,1.16e+00,-7.20e-01,
300,1.20e+00,-7.20e-01,
301,1.04e+00,-6.40e-01,
302,1.08e+00,-7.20e-01,
303,9.60e-01,-6.40e-01,
304,1.00e+00,-7.20e-01,
305,8.80e-01,-6.40e-01,
306,9.20e-01,-7.20e-01,
307,8.00e-01,-6.80e-01,
308,8.40e-01,-6.80e-01,
309,7.20e-01,-7.20e-01,
310,7.60e-01,-6.80e-01,
311,6.40e-01,-7.60e-01,
312,6.80e-01,-6.80e-01,
313,5.20e-01,-7.60e-01,
314,5.60e-01,-7.60e-01,
315,4.40e-01,-6.80e-01,
316,4.80e-01,-6.80e-01,
317,3.60e-01,-7.60e-01,
318,4.00e-01,-6.80e-01,
319,2.80e-01,-7.60e-01,
320,3.20e-01,-7.60e-01,
321,2.00e-01,-6.80e-01,
322,2.40e-01,-7.60e-01,
323,1.20e-01,-6.80e-01,
324,1.60e-01,-6.80e-01,
325,0.00e+00,-7.60e-01,
326,4.00e-02,-7.60e-01,
327,-8.00e-02,-6.80e-01,
328,-4.00e-02,-7.60e-01,
329,-1.60e-01,-6.80e-01,
330,-1.20e-01,-6.80e-01,
331,-2.80e-01,-7.60e-01,
332,-2.00e-01,-7.60e-01,
333,-3.20e-01,-6.80e-01,
334,-3.20e-01,-7.60e-01,
335,-4.00e-01,-6.80e-01,
336,-3.60e-01,-7.60e-01,
337,-5.20e-01,-6.80e-01,
338,-4.80e-01,-7.60e-01,
339,-6.40e-01,-6.80e-01,
340,-5.60e-01,-6.80e-01,
341,-7.20e-01,-7.60e-01,
342,-6.40e-01,-6.80e-01,
343,-8.00e-01,-7.60e-01,
344,-7.20e-01,-7.20e-01,
345,-8.80e-01,-6.80e-01,
346,-8.40e-01,-7.20e-01,
347,-9.60e-01,-6.80e-01,
348,-8.80e-01,-7.20e-01,
349,-1.08e+00,-6.40e-01,
350,-1.00e+00,-7.20e-01,
351,-1.16e+00,-6.40e-01,
352,-1.08e+00,-7.20e-01,
353,-1.24e+00,-6.40e-01,
354,-1.16e+00,-7.20e-01,
355,-1.32e+00,-6.40e-01,
356,-1.24e+00,-7.20e-01,
357,-1.40e+00,-6.40e-01,
358,-1.32e+00,-6.40e-01,
359,-1.52e+00,-7.20e-01,
360,-1.44e+00,-6.40e-01,
361,-1.56e+00,-7.20e-01,
362,-1.52e+00,-6.80e-01,
363,-1.64e+00,-6.40e-01,
364,-1.60e+00,-6.80e-01,
365,-1.72e+00,-6.00e-01,
366,-1.68e+00,-6.00e-01,
367,-1.80e+00,-6.80e-01,
368,-1.76e+00,-6.80e-01,
369,-1.88e+00,-6.00e-01,
370,-1.80e+00,-6.80e-01,
371,-1.96e+00,-6.00e-01,
372,-1.92e+00,-6.00e-01,
373,-2.04e+00,-6.80e-01,
374,-2.00e+00,-6.80e-01,
375,-2.12e+00,-5.60e-01,
376,-2.08e+00,-6.40e-01,
377,-2.20e+00,-5.60e-01,
378,-2.16e+00,-6.40e-01,
379,-2.28e+00,-5.60e-01,
380,-2.20e+00,-5.60e-01,
381,-2.32e+00,-6.40e-01,
382,-2.28e+00,-5.60e-01,
383,-2.40e+00,-6.40e-01,
384,-2.36e+00,-6.00e-01,
385,-2.48e+00,-5.60e-01,
386,-2.40e+00,-6.00e-01,
387,-2.56e+00,-5.20e-01,
388,-2.52e+00,-5.20e-01,
389,-2.64e+00,-6.00e-01,
390,-2.56e+00,-5.20e-01,
391,-2.72e+00,-6.00e-01,
392,-2.64e+00,-5.20e-01,
393,-2.76e+00,-5.60e-01,
394,-2.68e+00,-5.60e-01,
395,-2.80e+00,-4.80e-01,
396,-2.76e+00,-4.80e-01,
397,-2.88e+00,-5.60e-01,
398,-2.80e+00,-4.80e-01,
399,-2.92e+00,-5.60e-01,
400,-2.88e+00,-5.20e-01,
401,-3.00e+00,-4.40e-01,
402,-2.92e+00,-5.60e-01,
403,-3.08e+00,-4.40e-01,
404,-2.96e+00,-4.40e-01,
405,-3.12e+00,-5.20e-01,
406,-3.08e+00,-4.40e-01,
407,-3.20e+00,-5.20e-01,
408,-3.12e+00,-5.20e-01,
409,-3.24e+00,-3.60e-01,
410,-3.16e+00,-4.80e-01,
411,-3.28e+00,-4.00e-01,
412,-3.20e+00,-4.00e-01,
413,-3.32e+00,-4.80e-01,
414,-3.24e+00,-4.40e-01,
415,-3.36e+00,-3.60e-01,
416,-3.28e+00,-3.60e-01,
417,-3.40e+00,-4.40e-01,
418,-3.32e+00,-3.60e-01,
419,-3.44e+00,-4.40e-01,
420,-3.36e+00,-4.00e-01,
421,-3.48e+00,-3.20e-01,
422,-3.40e+00,-4.00e-01,
423,-3.52e+00,-3.20e-01,
424,-3.48e+00,-4.00e-01,
425,-3.60e+00,-2.80e-01,
426,-3.48e+00,-3.20e-01,
427,-3.64e+00,-2.80e-01,
428,-3.56e+00,-3.20e-01,
429,-3.68e+00,-2.40e-01,
430,-3.60e+00,-3.20e-01,
431,-3.72e+00,-2.40e-01,
432,-3.72e+00,-3.20e-01,
433,-3.60e+00,-2.40e-01,
434,-3.64e+00,-2.80e-01,
435,-3.76e+00,-2.00e-01,
436,-3.68e+00,-2.00e-01,
437,-3.80e+00,-2.80e-01,
438,-3.80e+00,-2.00e-01,
439,-3.68e+00,-2.40e-01,
440,-3.72e+00,-2.40e-01,
441,-3.84e+00,-1.60e-01,
442,-3.84e+00,-1.60e-01,
443,-3.72e+00,-2.40e-01,
444,-3.76e+00,-2.00e-01,
445,-3.88e+00,-1.20e-01,
446,-3.88e+00,-2.00e-01,
447,-3.76e+00,-1.20e-01,
448,-3.88e+00,-1.20e-01,
449,-3.80e+00,-2.00e-01,
450,-3.80e+00,-1.60e-01,
451,-3.92e+00,-8.00e-02,
452,-3.92e+00,-1.60e-01,
453,-3.80e+00,-8.00e-02,
454,-3.84e+00,-8.00e-02,
455,-3.92e+00,-1.60e-01,
456,-3.84e+00,-1.20e-01,
457,-3.96e+00,-4.00e-02,
458,-3.84e+00,-1.20e-01,
459,-3.96e+00,-4.00e-02,
460,-3.92e+00,-4.00e-02,
461,-3.84e+00,-8.00e-02,
462,-3.84e+00,-8.00e-02,
463,-3.96e+00,0.00e+00,
464,-3.84e+00,0.00e+00,
465,-3.96e+00,-8.00e-02,
466,-3.84e+00,-4.00e-02,
467,-3.96e+00,4.00e-02,
468,-3.84e+00,-4.00e-02,
469,-3.96e+00,4.00e-02,
470,-3.84e+00,4.00e-02,
471,-3.96e+00,-4.00e-02,
472,-3.84e+00,0.00e+00,
473,-3.92e+00,8.00e-02,
474,-3.92e+00,0.00e+00,
475,-3.80e+00,8.00e-02,
476,-3.88e+00,8.00e-02,
477,-3.80e+00,4.00e-02,
478,-3.88e+00,1.20e-01,
479,-3.76e+00,4.00e-02,
480,-3.88e+00,4.00e-02,
481,-3.76e+00,1.20e-01,
482,-3.76e+00,1.20e-01,
483,-3.88e+00,8.00e-02,
484,-3.84e+00,8.00e-02,
485,-3.72e+00,1.60e-01,
486,-3.80e+00,8.00e-02,
487,-3.72e+00,2.00e-01,
488,-3.68e+00,1.60e-01,
489,-3.80e+00,2.00e-01,
490,-3.76e+00,1.60e-01,
491,-3.64e+00,2.40e-01,
492,-3.64e+00,1.60e-01,
493,-3.76e+00,2.40e-01,
494,-3.72e+00,2.00e-01,
495,-3.60e+00,2.40e-01,
496,-3.68e+00,2.00e-01,
497,-3.56e+00,2.80e-01,
498,-3.64e+00,2.80e-01,
499,-3.52e+00,2.00e-01,
500,-3.60e+00,2.40e-01,
501,-3.48e+00,2.80e-01,
502,-3.44e+00,2.40e-01,
503,-3.56e+00,3.20e-01,
504,-3.52e+00,3.20e-01,
505,-3.40e+00,2.40e-01,
506,-3.48e+00,2.80e-01,
507,-3.36e+00,3.60e-01,
508,-3.44e+00,2.80e-01,
509,-3.32e+00,3.60e-01,
510,-3.36e+00,2.80e-01,
511,-3.28e+00,3.60e-01,
512,-3.32e+00,3.60e-01,
513,-3.24e+00,3.20e-01,
514,-3.28e+00,3.20e-01,
515,-3.16e+00,4.00e-01,
516,-3.24e+00,4.00e-01,
517,-3.12e+00,3.20e-01,
518,-3.20e+00,4.00e-01,
519,-3.08e+00,3.60e-01,
520,-3.12e+00,3.60e-01,
521,-3.00e+00,4.40e-01,
522,-3.08e+00,3.60e-01,
523,-2.92e+00,4.40e-01,
524,-3.00e+00,4.40e-01,
525,-2.88e+00,3.60e-01,
526,-2.96e+00,4.00e-01,
527,-2.84e+00,4.80e-01,
528,-2.88e+00,4.80e-01,
529,-2.76e+00,4.00e-01,
530,-2.84e+00,4.80e-01,
531,-2.72e+00,4.00e-01,
532,-2.80e+00,4.00e-01,
533,-2.64e+00,5.20e-01,
534,-2.72e+00,4.00e-01,
535,-2.60e+00,5.20e-01,
536,-2.64e+00,5.20e-01,
537,-2.52e+00,4.40e-01,
538,-2.56e+00,4.40e-01,
539,-2.44e+00,5.20e-01,
540,-2.48e+00,5.20e-01,
541,-2.36e+00,4.80e-01,
542,-2.44e+00,5.20e-01,
543,-2.28e+00,4.80e-01,
544,-2.36e+00,4.80e-01,
545,-2.24e+00,5.60e-01,
546,-2.28e+00,5.60e-01,
547,-2.16e+00,4.80e-01,
548,-2.24e+00,5.60e-01,
549,-2.08e+00,4.80e-01,
550,-2.16e+00,5.60e-01,
551,-2.00e+00,5.20e-01,
552,-2.08e+00,5.60e-01,
553,-1.92e+00,5.20e-01,
554,-1.96e+00,5.20e-01,
555,-1.84e+00,6.00e-01,
556,-1.88e+00,6.00e-01,
557,-1.76e+00,5.20e-01,
558,-1.84e+00,6.00e-01,
559,-1.68e+00,5.20e-01,
560,-1.76e+00,6.00e-01,
561,-1.60e+00,5.60e-01,
562,-1.68e+00,6.00e-01,
563,-1.52e+00,5.60e-01,
564,-1.60e+00,6.00e-01,
565,-1.48e+00,5.60e-01,
566,-1.52e+00,6.40e-01,
567,-1.36e+00,5.60e-01,
568,-1.40e+00,5.60e-01,
569,-1.28e+00,6.80e-01,
570,-1.32e+00,6.80e-01,
571,-1.20e+00,5.60e-01,
572,-1.24e+00,5.60e-01,
573,-1.12e+00,6.80e-01,
574,-1.16e+00,6.00e-01,
575,-1.04e+00,6.80e-01,
576,-1.08e+00,6.40e-01,
577,-9.60e-01,6.80e-01,
578,-9.60e-01,6.40e-01,
579,-8.40e-01,6.80e-01,
580,-8.80e-01,6.40e-01,
581,-7.60e-01,6.80e-01,
582,-8.00e-01,6.40e-01,
583,-6.80e-01,6.80e-01,
584,-7.20e-01,6.40e-01,
585,-6.00e-01,6.80e-01,
586,-6.40e-01,6.40e-01,
587,-5.20e-01,6.80e-01,
588,-5.60e-01,6.40e-01,
589,-4.40e-01,7.20e-01,
590,-4.40e-01,6.40e-01,
591,-3.20e-01,7.20e-01,
592,-3.60e-01,6.40e-01,
593,-2.40e-01,7.20e-01,
594,-2.80e-01,6.40e-01,
595,-1.60e-01,7.20e-01,
596,-2.00e-01,6.40e-01,
597,-8.00e-02,7.20e-01,
598,-1.20e-01,6.40e-01,
599,0.00e+00,7.20e-01,
600,-4.00e-02,6.40e-01,
601,1.20e-01,7.20e-01,
602,8.00e-02,6.40e-01,
603,2.00e-01,7.20e-01,
604,1.60e-01,6.40e-01,
605,3.20e-01,7.20e-01,
606,2.40e-01,6.40e-01,
607,4.00e-01,7.20e-01,
608,3.60e-01,6.40e-01,
609,4.80e-01,7.20e-01,
610,4.40e-01,6.40e-01,
611,5.60e-01,6.80e-01,
612,5.20e-01,6.40e-01,
613,6.80e-01,7.20e-01,
614,6.40e-01,6.40e-01,
615,7.60e-01,6.80e-01,
616,7.20e-01,6.40e-01,
617,8.40e-01,6.80e-01,
618,8.00e-01,6.80e-01,
619,9.20e-01,6.40e-01,
620,8.80e-01,6.40e-01,
621,1.00e+00,6.80e-01,
622,9.60e-01,6.40e-01,
623,1.08e+00,6.80e-01,
624,1.04e+00,6.40e-01,
625,1.16e+00,6.80e-01,
626,1.16e+00,5.60e-01,
627,1.28e+00,6.80e-01,
628,1.20e+00,5.60e-01,
629,1.36e+00,6.80e-01,
630,1.32e+00,6.80e-01,
631,1.44e+00,5.60e-01,
632,1.36e+00,6.40e-01,
633,1.48e+00,5.60e-01,
634,1.44e+00,5.60e-01,
635,1.56e+00,6.40e-01,
636,1.52e+00,6.00e-01,
637,1.68e+00,5.60e-01,
638,1.64e+00,6.00e-01,
639,1.76e+00,5.60e-01,
640,1.72e+00,6.00e-01,
641,1.84e+00,5.60e-01,
642,1.80e+00,6.00e-01,
643,1.92e+00,5.20e-01,
644,1.88e+00,6.00e-01,
645,2.00e+00,5.20e-01,
646,1.92e+00,5.20e-01,
647,2.04e+00,6.00e-01,
648,2.00e+00,6.00e-01,
649,2.12e+00,4.80e-01,
650,2.08e+00,6.00e-01,
651,2.24e+00,4.80e-01,
652,2.20e+00,5.60e-01,
653,2.28e+00,4.80e-01,
654,2.24e+00,5.60e-01,
655,2.36e+00,4.80e-01,
656,2.32e+00,6.00e-01,
657,2.44e+00,4.40e-01,
658,2.36e+00,4.40e-01,
659,2.48e+00,5.60e-01,
660,2.44e+00,5.20e-01,
661,2.56e+00,4.40e-01,
662,2.52e+00,4.40e-01,
663,2.64e+00,5.20e-01,
664,2.60e+00,5.20e-01,
665,2.72e+00,4.40e-01,
666,2.68e+00,4.80e-01,
667,2.80e+00,4.40e-01,
668,2.72e+00,4.80e-01,
669,2.84e+00,4.00e-01,
670,2.80e+00,4.80e-01,
671,2.92e+00,4.00e-01,
672,2.84e+00,4.80e-01,
673,2.96e+00,4.00e-01,
674,2.88e+00,4.00e-01,
675,3.00e+00,4.40e-01,
676,2.96e+00,4.40e-01,
677,3.08e+00,3.60e-01,
678,3.00e+00,4.40e-01,
679,3.12e+00,3.60e-01,
680,3.04e+00,3.60e-01,
681,3.16e+00,4.40e-01,
682,3.12e+00,3.60e-01,
683,3.24e+00,4.00e-01,
684,3.20e+00,4.00e-01,
685,3.28e+00,3.20e-01,
686,3.24e+00,3.20e-01,
687,3.32e+00,4.00e-01,
688,3.28e+00,3.20e-01,
689,3.36e+00,3.60e-01,
690,3.32e+00,3.60e-01,
691,3.44e+00,2.80e-01,
692,3.36e+00,2.80e-01,
693,3.48e+00,3.60e-01,
694,3.40e+00,2.80e-01,
695,3.52e+00,3.20e-01,
696,3.44e+00,3.20e-01,
697,3.56e+00,2.40e-01,
698,3.48e+00,2.40e-01,
699,3.56e+00,3.20e-01,
700,3.52e+00,2.40e-01,
701,3.60e+00,2.80e-01,
702,3.56e+00,2.80e-01,
703,3.64e+00,2.00e-01,
704,3.56e+00,2.00e-01,
705,3.68e+00,2.80e-01,
706,3.64e+00,2.00e-01,
707,3.68e+00,2.40e-01,
708,3.64e+00,2.40e-01,
709,3.76e+00,1.60e-01,
710,3.68e+00,1.60e-01,
711,3.80e+00,2.40e-01,
712,3.72e+00,1.60e-01,
713,3.80e+00,2.00e-01,
714,3.72e+00,2.00e-01,
715,3.84e+00,8.00e-02,
716,3.76e+00,8.00e-02,
717,3.84e+00,2.00e-01,
718,3.76e+00,1.20e-01,
719,3.88e+00,8.00e-02,
720,3.88e+00,1.20e-01,
721,3.80e+00,4.00e-02,
722,3.80e+00,1.20e-01,
723,3.92e+00,4.00e-02,
724,3.80e+00,8.00e-02,
725,3.92e+00,4.00e-02,
726,3.84e+00,8.00e-02,
727,3.92e+00,0.00e+00,
728,3.92e+00,8.00e-02,
729,3.84e+00,0.00e+00,
730,3.84e+00,4.00e-02,
731,3.96e+00,-4.00e-02,
732,3.84e+00,4.00e-02,
733,3.96e+00,-4.00e-02,
734,3.96e+00,-4.00e-02,
735,3.84e+00,0.00e+00,
736,3.88e+00,0.00e+00,
737,3.96e+00,-8.00e-02,
738,3.96e+00,0.00e+00,
739,3.84e+00,-8.00e-02,
740,3.92e+00,-4.00e-02,
741,3.84e+00,-8.00e-02,
742,3.84e+00,-4.00e-02,
743,3.96e+00,-1.20e-01,
744,3.92e+00,-4.00e-02,
745,3.84e+00,-1.20e-01,
746,3.84e+00,-8.00e-02,
747,3.92e+00,-1.60e-01,
748,3.84e+00,-8.00e-02,
749,3.92e+00,-1.60e-01,
750,3.88e+00,-1.60e-01,
751,3.80e+00,-8.00e-02,
752,3.88e+00,-1.20e-01,
753,3.80e+00,-2.00e-01,
754,3.80e+00,-1.20e-01,
755,3.88e+00,-2.00e-01,
756,3.84e+00,-2.00e-01,
757,3.76e+00,-1.20e-01,
758,3.76e+00,-1.60e-01,
759,3.84e+00,-2.40e-01,
760,3.80e+00,-2.40e-01,
761,3.72e+00,-1.60e-01,
762,3.72e+00,-2.40e-01,
763,3.80e+00,-2.00e-01,
764,3.76e+00,-2.00e-01,
765,3.68e+00,-2.80e-01,
766,3.76e+00,-2.80e-01,
767,3.60e+00,-2.00e-01,
768,3.60e+00,-2.40e-01,
769,3.68e+00,-3.20e-01,
770,3.64e+00,-2.40e-01,
771,3.56e+00,-3.20e-01,
772,3.64e+00,-2.40e-01,
773,3.52e+00,-3.60e-01,
774,3.60e+00,-2.80e-01,
775,3.48e+00,-3.60e-01,
776,3.56e+00,-3.20e-01,
777,3.44e+00,-4.00e-01,
778,3.52e+00,-3.20e-01,
779,3.40e+00,-4.40e-01,
780,3.52e+00,-2.80e-01,
781,3.36e+00,-4.40e-01,
782,3.44e+00,-4.40e-01,
783,3.32e+00,-3.60e-01,
784,3.40e+00,-3.60e-01,
785,3.28e+00,-4.40e-01,
786,3.36e+00,-3.60e-01,
787,3.24e+00,-4.40e-01,
788,3.32e+00,-4.00e-01,
789,3.20e+00,-4.80e-01,
790,3.28e+00,-4.00e-01,
791,3.12e+00,-4.80e-01,
792,3.16e+00,-4.80e-01,
793,3.08e+00,-4.00e-01,
794,3.12e+00,-4.40e-01,
795,3.04e+00,-5.20e-01,
796,3.08e+00,-4.40e-01,
797,2.96e+00,-5.20e-01,
798,3.04e+00,-5.20e-01,
799,2.92e+00,-4.40e-01,
800,2.96e+00,-4.80e-01,
801,2.88e+00,-5.20e-01,
802,2.92e+00,-4.80e-01,
803,2.80e+00,-5.60e-01,
804,2.88e+00,-4.80e-01,
805,2.76e+00,-5.60e-01,
806,2.80e+00,-5.60e-01,
807,2.68e+00,-4.80e-01,
808,2.76e+00,-5.60e-01,
809,2.60e+00,-5.20e-01,
810,2.64e+00,-5.20e-01,
811,2.52e+00,-6.00e-01,
812,2.60e+00,-5.20e-01,
813,2.48e+00,-6.00e-01,
814,2.52e+00,-6.00e-01,
815,2.40e+00,-5.20e-01,
816,2.44e+00,-6.00e-01,
817,2.36e+00,-5.60e-01,
818,2.40e+00,-5.60e-01,
819,2.28e+00,-6.40e-01,
820,2.32e+00,-5.60e-01,
821,2.20e+00,-6.40e-01,
822,2.24e+00,-6.40e-01,
823,2.08e+00,-5.60e-01,
824,2.16e+00,-6.40e-01,
825,2.04e+00,-5.60e-01,
826,2.08e+00,-6.40e-01,
827,1.96e+00,-5.60e-01,
828,2.00e+00,-6.00e-01,
829,1.88e+00,-6.80e-01,
830,1.92e+00,-6.00e-01,
831,1.84e+00,-6.80e-01,
832,1.84e+00,-6.80e-01,
833,1.72e+00,-6.00e-01,
834,1.80e+00,-6.80e-01,
835,1.68e+00,-6.00e-01,
836,1.72e+00,-6.80e-01,
837,1.56e+00,-6.00e-01,
838,1.60e+00,-6.40e-01,
839,1.48e+00,-7.20e-01,
