Python/scripts/Traces/NF6.csv

X,CH1,CH2,CH3,Start,Increment,
Sequence,Volt,Volt,Volt,-6.000000e-03,1.000000e-05
0,-1.02e+01,-2.80e-01,2.80e-01,
1,-5.00e+00,1.60e+00,-3.60e-01,
2,-5.40e+00,1.84e+00,-3.20e-01,
3,6.60e+00,1.52e+00,-6.40e-01,
4,6.20e+00,1.48e+00,-6.00e-01,
5,1.06e+01,-1.20e-01,-1.20e-01,
6,1.06e+01,-1.20e-01,-2.00e-01,
7,3.20e+00,-1.92e+00,4.40e-01,
8,3.20e+00,-2.08e+00,3.60e-01,
9,-9.00e+00,-1.48e+00,5.60e-01,
10,-8.80e+00,-1.48e+00,4.80e-01,
11,-1.04e+01,2.00e-01,-4.00e-02,
12,-1.02e+01,2.00e-01,0.00e+00,
13,-2.40e+00,1.80e+00,-5.20e-01,
14,-2.40e+00,1.84e+00,-6.00e-01,
15,8.80e+00,1.20e+00,-4.40e-01,
16,8.40e+00,1.24e+00,-4.80e-01,
17,1.06e+01,-6.40e-01,1.60e-01,
18,1.00e+01,-6.80e-01,0.00e+00,
19,0.00e+00,-2.04e+00,5.20e-01,
20,2.00e-01,-2.04e+00,6.00e-01,
21,-1.04e+01,-1.12e+00,3.20e-01,
22,-1.04e+01,-1.16e+00,3.20e-01,
23,-8.80e+00,6.80e-01,-2.80e-01,
24,-9.40e+00,6.80e-01,-2.80e-01,
25,8.00e-01,1.84e+00,-6.40e-01,
26,6.00e-01,1.84e+00,-6.00e-01,
27,1.04e+01,8.40e-01,-2.00e-01,
28,1.06e+01,8.80e-01,-2.40e-01,
29,8.40e+00,-1.20e+00,3.60e-01,
30,8.40e+00,-1.16e+00,3.20e-01,
31,-3.40e+00,-2.04e+00,5.60e-01,
32,-3.20e+00,-1.96e+00,5.20e-01,
33,-1.04e+01,-7.20e-01,0.00e+00,
34,-1.04e+01,-7.60e-01,4.00e-02,
35,-7.60e+00,1.20e+00,-4.80e-01,
36,-7.60e+00,1.20e+00,-4.40e-01,
37,3.60e+00,1.88e+00,-6.40e-01,
38,3.40e+00,1.76e+00,-4.80e-01,
39,1.06e+01,4.00e-01,4.00e-02,
40,1.06e+01,4.40e-01,0.00e+00,
41,6.20e+00,-1.64e+00,5.20e-01,
42,6.20e+00,-1.60e+00,6.00e-01,
43,-6.20e+00,-2.04e+00,3.60e-01,
44,-6.00e+00,-1.80e+00,3.60e-01,
45,-1.04e+01,-3.20e-01,-2.40e-01,
46,-1.04e+01,-3.20e-01,-2.00e-01,
47,-5.20e+00,1.60e+00,-6.00e-01,
48,-5.20e+00,1.84e+00,-6.00e-01,
49,6.40e+00,1.52e+00,-2.80e-01,
50,6.20e+00,1.56e+00,-3.20e-01,
51,1.06e+01,-1.20e-01,3.20e-01,
52,1.06e+01,-8.00e-02,2.80e-01,
53,3.00e+00,-1.92e+00,6.00e-01,
54,3.20e+00,-2.08e+00,5.20e-01,
55,-8.80e+00,-1.48e+00,1.20e-01,
56,-8.80e+00,-1.48e+00,1.20e-01,
57,-1.04e+01,2.00e-01,-4.80e-01,
58,-1.02e+01,2.00e-01,-4.00e-01,
59,-2.20e+00,1.80e+00,-6.40e-01,
60,-2.40e+00,1.84e+00,-5.20e-01,
61,8.80e+00,1.20e+00,4.00e-02,
62,8.40e+00,1.24e+00,-4.00e-02,
63,1.06e+01,-6.40e-01,4.80e-01,
64,9.80e+00,-6.80e-01,6.00e-01,
65,-2.00e-01,-2.04e+00,3.60e-01,
66,-2.00e-01,-2.04e+00,4.40e-01,
67,-1.04e+01,-1.16e+00,-2.00e-01,
68,-1.04e+01,-1.12e+00,-1.60e-01,
69,-8.80e+00,7.60e-01,-6.00e-01,
70,-9.40e+00,7.20e-01,-6.00e-01,
71,1.00e+00,1.88e+00,-3.20e-01,
72,8.00e-01,1.84e+00,-3.60e-01,
73,1.04e+01,8.40e-01,2.80e-01,
74,1.06e+01,8.40e-01,2.00e-01,
75,8.00e+00,-1.24e+00,6.00e-01,
76,8.20e+00,-1.24e+00,6.00e-01,
77,-3.60e+00,-2.04e+00,1.60e-01,
78,-3.20e+00,-1.96e+00,2.00e-01,
79,-1.04e+01,-7.20e-01,-4.40e-01,
80,-1.04e+01,-7.20e-01,-4.00e-01,
81,-7.20e+00,1.24e+00,-6.40e-01,
82,-7.60e+00,1.20e+00,-6.00e-01,
83,4.20e+00,1.84e+00,-4.00e-02,
84,3.80e+00,1.76e+00,-1.20e-01,
85,1.06e+01,3.20e-01,4.80e-01,
86,1.06e+01,3.60e-01,4.00e-01,
87,5.60e+00,-1.68e+00,6.00e-01,
88,5.60e+00,-1.68e+00,4.80e-01,
89,-6.60e+00,-2.08e+00,-1.20e-01,
90,-6.20e+00,-1.76e+00,-1.20e-01,
91,-1.04e+01,-2.00e-01,-6.00e-01,
92,-1.02e+01,-2.00e-01,-6.00e-01,
93,-4.40e+00,1.68e+00,-3.20e-01,
94,-5.00e+00,1.84e+00,-4.40e-01,
95,6.80e+00,1.48e+00,2.00e-01,
96,6.60e+00,1.48e+00,1.60e-01,
97,1.06e+01,-2.00e-01,6.00e-01,
98,1.06e+01,-2.40e-01,6.00e-01,
99,2.60e+00,-2.00e+00,2.00e-01,
100,2.60e+00,-2.04e+00,2.40e-01,
101,-9.80e+00,-1.40e+00,-4.00e-01,
102,-9.00e+00,-1.44e+00,-3.60e-01,
103,-1.04e+01,3.20e-01,-6.80e-01,
104,-1.02e+01,3.20e-01,-6.00e-01,
105,-1.40e+00,1.84e+00,-1.60e-01,
106,-1.80e+00,1.88e+00,-2.00e-01,
107,9.40e+00,1.12e+00,4.40e-01,
108,8.80e+00,1.16e+00,4.00e-01,
109,1.06e+01,-8.00e-01,6.00e-01,
110,9.60e+00,-8.40e-01,5.20e-01,
111,-1.20e+00,-2.04e+00,-4.00e-02,
112,-8.00e-01,-2.04e+00,0.00e+00,
113,-1.04e+01,-1.00e+00,-5.60e-01,
114,-1.04e+01,-1.04e+00,-6.00e-01,
115,-8.40e+00,9.20e-01,-4.00e-01,
116,-8.80e+00,8.80e-01,-4.80e-01,
117,1.80e+00,1.84e+00,1.60e-01,
118,1.60e+00,1.84e+00,1.20e-01,
119,1.06e+01,6.80e-01,5.60e-01,
120,1.06e+01,7.20e-01,6.00e-01,
121,7.40e+00,-1.40e+00,2.80e-01,
122,7.80e+00,-1.36e+00,3.20e-01,
123,-4.60e+00,-2.08e+00,-3.20e-01,
124,-4.40e+00,-1.88e+00,-3.20e-01,
125,-1.04e+01,-5.20e-01,-6.40e-01,
126,-1.04e+01,-5.60e-01,-6.80e-01,
127,-6.40e+00,1.40e+00,-2.00e-01,
128,-6.80e+00,1.36e+00,-2.40e-01,
129,5.00e+00,1.84e+00,4.00e-01,
130,4.80e+00,1.64e+00,3.60e-01,
131,1.06e+01,1.20e-01,6.00e-01,
132,1.06e+01,1.60e-01,5.20e-01,
133,4.60e+00,-1.84e+00,0.00e+00,
134,4.80e+00,-2.04e+00,4.00e-02,
135,-7.60e+00,-1.60e+00,-5.20e-01,
136,-7.60e+00,-1.60e+00,-5.20e-01,
137,-1.04e+01,-4.00e-02,-6.40e-01,
138,-1.02e+01,-4.00e-02,-5.60e-01,
139,-3.60e+00,1.72e+00,8.00e-02,
140,-3.60e+00,1.88e+00,4.00e-02,
141,7.80e+00,1.32e+00,5.20e-01,
142,7.40e+00,1.36e+00,6.00e-01,
143,1.06e+01,-4.40e-01,3.60e-01,
144,1.02e+01,-4.40e-01,4.00e-01,
145,1.00e+00,-2.04e+00,-2.40e-01,
146,1.00e+00,-2.04e+00,-2.40e-01,
147,-1.02e+01,-1.28e+00,-6.80e-01,
148,-1.04e+01,-1.24e+00,-6.40e-01,
149,-9.40e+00,5.60e-01,-2.80e-01,
150,-9.80e+00,6.00e-01,-3.20e-01,
151,-2.00e-01,1.84e+00,3.20e-01,
152,-6.00e-01,1.84e+00,3.20e-01,
153,1.00e+01,9.20e-01,6.00e-01,
154,1.06e+01,9.20e-01,6.00e-01,
155,8.60e+00,-1.04e+00,1.20e-01,
156,9.00e+00,-1.08e+00,1.20e-01,
157,-2.40e+00,-2.04e+00,-4.80e-01,
158,-2.60e+00,-2.00e+00,-4.40e-01,
159,-1.04e+01,-8.00e-01,-6.40e-01,
160,-1.04e+01,-8.00e-01,-6.00e-01,
161,-7.80e+00,1.16e+00,0.00e+00,
162,-8.00e+00,1.12e+00,-4.00e-02,
163,3.20e+00,1.84e+00,5.20e-01,
164,2.80e+00,1.76e+00,6.00e-01,
165,1.06e+01,4.40e-01,4.00e-01,
166,1.06e+01,4.80e-01,4.40e-01,
167,6.20e+00,-1.60e+00,-2.00e-01,
168,6.60e+00,-1.60e+00,-1.60e-01,
169,-6.00e+00,-2.04e+00,-6.40e-01,
170,-5.80e+00,-1.80e+00,-6.40e-01,
171,-1.04e+01,-2.80e-01,-3.60e-01,
172,-1.04e+01,-3.60e-01,-4.40e-01,
173,-5.40e+00,1.56e+00,2.80e-01,
174,-5.60e+00,1.84e+00,2.40e-01,
175,6.20e+00,1.52e+00,6.00e-01,
176,6.00e+00,1.52e+00,6.00e-01,
177,1.06e+01,-8.00e-02,1.60e-01,
178,1.06e+01,-8.00e-02,2.00e-01,
179,3.00e+00,-1.96e+00,-4.40e-01,
180,3.20e+00,-2.04e+00,-4.40e-01,
181,-8.80e+00,-1.48e+00,-6.80e-01,
182,-8.40e+00,-1.48e+00,-6.00e-01,
183,-1.04e+01,2.40e-01,-8.00e-02,
184,-1.00e+01,2.40e-01,-1.20e-01,
185,-2.00e+00,1.80e+00,4.80e-01,
186,-2.40e+00,1.88e+00,4.40e-01,
187,8.60e+00,1.16e+00,6.00e-01,
188,8.40e+00,1.16e+00,4.80e-01,
189,1.06e+01,-7.20e-01,-8.00e-02,
190,1.00e+01,-7.20e-01,-8.00e-02,
191,-6.00e-01,-2.04e+00,-6.00e-01,
192,-6.00e-01,-2.04e+00,-6.40e-01,
193,-1.04e+01,-1.08e+00,-4.00e-01,
194,-1.04e+01,-1.08e+00,-4.40e-01,
195,-8.60e+00,8.00e-01,2.00e-01,
196,-9.20e+00,8.40e-01,1.60e-01,
197,1.20e+00,1.84e+00,6.00e-01,
198,1.00e+00,1.84e+00,6.00e-01,
199,1.06e+01,7.20e-01,2.40e-01,
200,1.06e+01,7.60e-01,2.40e-01,
201,7.60e+00,-1.28e+00,-4.00e-01,
202,8.00e+00,-1.32e+00,-3.60e-01,
203,-4.00e+00,-2.04e+00,-6.80e-01,
204,-4.20e+00,-1.92e+00,-6.40e-01,
205,-1.04e+01,-5.60e-01,-1.60e-01,
206,-1.04e+01,-6.40e-01,-2.40e-01,
207,-7.00e+00,1.32e+00,4.40e-01,
208,-6.80e+00,1.32e+00,4.00e-01,
209,4.40e+00,1.84e+00,6.00e-01,
210,4.60e+00,1.68e+00,5.20e-01,
211,1.06e+01,2.40e-01,-4.00e-02,
212,1.06e+01,2.00e-01,0.00e+00,
213,5.00e+00,-1.76e+00,-5.60e-01,
214,5.00e+00,-2.04e+00,-6.40e-01,
215,-7.40e+00,-1.64e+00,-4.00e-01,
216,-6.80e+00,-1.64e+00,-4.80e-01,
217,-1.04e+01,-8.00e-02,1.20e-01,
218,-1.04e+01,-8.00e-02,4.00e-02,
219,-4.20e+00,1.68e+00,6.00e-01,
220,-4.40e+00,1.84e+00,6.00e-01,
221,7.20e+00,1.36e+00,3.20e-01,
222,7.00e+00,1.40e+00,3.20e-01,
223,1.06e+01,-3.60e-01,-2.80e-01,
224,1.02e+01,-3.20e-01,-2.80e-01,
225,1.80e+00,-2.00e+00,-6.80e-01,
226,2.00e+00,-2.04e+00,-6.40e-01,
227,-9.80e+00,-1.32e+00,-2.40e-01,
228,-1.04e+01,-1.36e+00,-2.80e-01,
229,-9.60e+00,4.40e-01,4.00e-01,
230,-1.00e+01,4.40e-01,3.60e-01,
231,-8.00e-01,1.84e+00,6.00e-01,
232,-8.00e-01,1.84e+00,5.20e-01,
233,9.40e+00,1.04e+00,4.00e-02,
234,1.06e+01,1.04e+00,8.00e-02,
235,9.00e+00,-9.60e-01,-5.20e-01,
236,9.40e+00,-9.20e-01,-6.40e-01,
237,-1.60e+00,-2.04e+00,-4.80e-01,
238,-1.80e+00,-2.04e+00,-5.20e-01,
239,-1.04e+01,-9.20e-01,4.00e-02,
240,-1.04e+01,-9.20e-01,0.00e+00,
241,-8.20e+00,1.00e+00,5.20e-01,
242,-8.60e+00,9.60e-01,6.00e-01,
243,2.20e+00,1.84e+00,3.60e-01,
244,2.20e+00,1.80e+00,4.00e-01,
245,1.06e+01,6.00e-01,-2.40e-01,
246,1.06e+01,6.00e-01,-2.00e-01,
247,7.20e+00,-1.44e+00,-6.80e-01,
248,7.20e+00,-1.48e+00,-6.40e-01,
249,-5.00e+00,-2.04e+00,-3.20e-01,
250,-5.00e+00,-1.84e+00,-3.60e-01,
251,-1.04e+01,-4.80e-01,3.20e-01,
252,-1.04e+01,-4.40e-01,3.20e-01,
253,-6.00e+00,1.44e+00,6.00e-01,
254,-6.40e+00,1.40e+00,6.00e-01,
255,5.40e+00,1.88e+00,1.20e-01,
256,5.00e+00,1.60e+00,1.20e-01,
257,1.06e+01,8.00e-02,-4.80e-01,
258,1.06e+01,8.00e-02,-4.00e-01,
259,4.40e+00,-1.84e+00,-6.40e-01,
260,4.40e+00,-2.04e+00,-6.40e-01,
261,-8.00e+00,-1.56e+00,-4.00e-02,
262,-7.80e+00,-1.56e+00,-8.00e-02,
263,-1.04e+01,0.00e+00,5.20e-01,
264,-1.02e+01,4.00e-02,6.00e-01,
265,-3.60e+00,1.76e+00,4.00e-01,
266,-3.60e+00,1.84e+00,4.40e-01,
267,7.80e+00,1.36e+00,-2.00e-01,
268,7.40e+00,1.36e+00,-1.20e-01,
269,1.06e+01,-4.40e-01,-6.40e-01,
270,1.04e+01,-4.80e-01,-6.40e-01,
271,1.00e+00,-2.04e+00,-3.60e-01,
272,1.40e+00,-2.04e+00,-4.00e-01,
273,-1.02e+01,-1.28e+00,2.40e-01,
274,-1.04e+01,-1.24e+00,2.00e-01,
275,-9.40e+00,5.60e-01,6.00e-01,
276,-9.80e+00,5.20e-01,6.00e-01,
277,-2.00e-01,1.84e+00,2.00e-01,
278,-6.00e-01,1.84e+00,2.40e-01,
279,1.00e+01,9.60e-01,-4.40e-01,
280,1.06e+01,1.00e+00,-3.60e-01,
281,8.60e+00,-1.00e+00,-6.40e-01,
282,9.00e+00,-1.04e+00,-6.40e-01,
283,-2.40e+00,-2.04e+00,-1.20e-01,
284,-2.00e+00,-2.04e+00,-1.60e-01,
285,-1.04e+01,-8.80e-01,4.80e-01,
286,-1.04e+01,-8.40e-01,4.00e-01,
287,-7.80e+00,1.04e+00,6.00e-01,
288,-8.20e+00,1.08e+00,4.80e-01,
289,2.80e+00,1.88e+00,-8.00e-02,
290,2.60e+00,1.76e+00,-8.00e-02,
291,1.06e+01,5.20e-01,-6.00e-01,
292,1.06e+01,5.20e-01,-6.80e-01,
293,6.80e+00,-1.48e+00,-4.00e-01,
294,7.20e+00,-1.52e+00,-4.40e-01,
295,-5.20e+00,-2.04e+00,1.60e-01,
296,-5.00e+00,-1.84e+00,1.60e-01,
297,-1.04e+01,-4.40e-01,5.60e-01,
298,-1.04e+01,-4.40e-01,5.60e-01,
299,-6.00e+00,1.48e+00,2.00e-01,
300,-6.20e+00,1.48e+00,2.80e-01,
301,5.60e+00,1.84e+00,-3.20e-01,
302,5.40e+00,1.60e+00,-3.20e-01,
303,1.06e+01,4.00e-02,-6.00e-01,
304,1.06e+01,8.00e-02,-6.00e-01,
305,4.00e+00,-1.84e+00,-1.60e-01,
306,4.00e+00,-2.04e+00,-2.00e-01,
307,-8.20e+00,-1.56e+00,4.00e-01,
308,-7.80e+00,-1.60e+00,3.60e-01,
309,-1.04e+01,0.00e+00,6.00e-01,
310,-1.04e+01,0.00e+00,5.60e-01,
311,-3.20e+00,1.76e+00,-4.00e-02,
312,-3.40e+00,1.84e+00,4.00e-02,
313,7.80e+00,1.32e+00,-5.60e-01,
314,7.80e+00,1.32e+00,-6.80e-01,
315,1.06e+01,-4.40e-01,-4.40e-01,
316,1.02e+01,-4.80e-01,-4.80e-01,
317,1.00e+00,-2.04e+00,8.00e-02,
318,1.00e+00,-2.04e+00,8.00e-02,
319,-1.02e+01,-1.20e+00,5.60e-01,
320,-1.04e+01,-1.28e+00,6.00e-01,
321,-9.40e+00,5.20e-01,3.20e-01,
322,-9.80e+00,5.60e-01,3.20e-01,
323,-6.00e-01,1.84e+00,-2.80e-01,
324,-6.00e-01,1.84e+00,-2.40e-01,
325,9.60e+00,1.00e+00,-6.40e-01,
326,1.06e+01,1.00e+00,-6.00e-01,
327,9.00e+00,-1.00e+00,-2.00e-01,
328,9.00e+00,-1.00e+00,-2.80e-01,
329,-2.20e+00,-2.04e+00,3.20e-01,
330,-2.00e+00,-2.04e+00,3.20e-01,
331,-1.04e+01,-8.80e-01,6.00e-01,
332,-1.04e+01,-8.80e-01,5.20e-01,
333,-8.20e+00,1.00e+00,4.00e-02,
334,-8.60e+00,1.04e+00,8.00e-02,
335,2.60e+00,1.84e+00,-4.80e-01,
336,2.20e+00,1.80e+00,-4.40e-01,
337,1.06e+01,6.00e-01,-6.40e-01,
338,1.06e+01,6.00e-01,-5.20e-01,
339,7.20e+00,-1.48e+00,4.00e-02,
340,7.00e+00,-1.48e+00,0.00e+00,
341,-5.00e+00,-2.04e+00,5.20e-01,
342,-4.80e+00,-1.88e+00,6.00e-01,
343,-1.04e+01,-4.80e-01,3.60e-01,
344,-1.04e+01,-4.80e-01,3.60e-01,
345,-6.00e+00,1.44e+00,-2.40e-01,
346,-6.40e+00,1.40e+00,-2.00e-01,
347,5.20e+00,1.84e+00,-6.80e-01,
348,5.20e+00,1.64e+00,-6.00e-01,
349,1.06e+01,1.20e-01,-3.20e-01,
350,1.06e+01,1.20e-01,-3.20e-01,
351,4.40e+00,-1.84e+00,2.80e-01,
352,4.60e+00,-2.08e+00,2.40e-01,
353,-7.60e+00,-1.60e+00,6.00e-01,
354,-7.80e+00,-1.64e+00,5.20e-01,
355,-1.04e+01,-4.00e-02,1.20e-01,
356,-1.02e+01,-4.00e-02,1.20e-01,
357,-3.60e+00,1.72e+00,-4.40e-01,
358,-4.00e+00,1.84e+00,-4.00e-01,
359,7.60e+00,1.36e+00,-6.00e-01,
360,7.40e+00,1.36e+00,-5.60e-01,
361,1.06e+01,-4.00e-01,0.00e+00,
362,1.02e+01,-4.00e-01,-4.00e-02,
363,1.60e+00,-2.04e+00,4.80e-01,
364,1.60e+00,-2.04e+00,5.60e-01,
365,-1.02e+01,-1.32e+00,4.00e-01,
366,-9.60e+00,-1.36e+00,4.40e-01,
367,-1.04e+01,4.40e-01,-2.00e-01,
368,-1.00e+01,4.40e-01,-1.20e-01,
369,-8.00e-01,1.84e+00,-6.00e-01,
370,-1.00e+00,1.84e+00,-6.80e-01,
371,9.60e+00,1.04e+00,-3.20e-01,
372,1.06e+01,1.04e+00,-4.00e-01,
373,9.00e+00,-9.20e-01,2.40e-01,
374,9.40e+00,-9.20e-01,2.00e-01,
375,-1.80e+00,-2.08e+00,6.00e-01,
376,-1.40e+00,-2.04e+00,5.20e-01,
377,-1.04e+01,-9.20e-01,1.60e-01,
378,-1.04e+01,-9.20e-01,2.40e-01,
379,-8.40e+00,9.60e-01,-4.00e-01,
380,-8.60e+00,9.60e-01,-3.60e-01,
381,2.20e+00,1.84e+00,-6.00e-01,
382,2.00e+00,1.80e+00,-5.60e-01,
383,1.06e+01,6.40e-01,-1.20e-01,
384,1.06e+01,6.40e-01,-1.20e-01,
385,7.20e+00,-1.40e+00,4.80e-01,
386,7.20e+00,-1.40e+00,4.00e-01,
387,-4.80e+00,-2.04e+00,5.20e-01,
388,-4.60e+00,-1.88e+00,4.80e-01,
389,-1.04e+01,-5.20e-01,-8.00e-02,
390,-1.04e+01,-5.60e-01,-8.00e-02,
391,-6.40e+00,1.40e+00,-6.00e-01,
392,-6.40e+00,1.40e+00,-6.00e-01,
393,5.00e+00,1.88e+00,-4.00e-01,
394,5.00e+00,1.64e+00,-4.40e-01,
395,1.06e+01,1.60e-01,2.00e-01,
396,1.06e+01,2.00e-01,1.60e-01,
397,4.40e+00,-1.84e+00,5.20e-01,
398,4.40e+00,-2.04e+00,6.00e-01,
399,-7.60e+00,-1.60e+00,2.00e-01,
400,-7.60e+00,-1.64e+00,2.40e-01,
401,-1.04e+01,-4.00e-02,-4.00e-01,
402,-1.04e+01,-4.00e-02,-3.20e-01,
403,-3.80e+00,1.68e+00,-6.80e-01,
404,-4.00e+00,1.84e+00,-6.00e-01,
405,7.60e+00,1.36e+00,-1.60e-01,
406,7.40e+00,1.40e+00,-2.00e-01,
407,1.06e+01,-4.00e-01,4.40e-01,
408,1.04e+01,-4.00e-01,4.00e-01,
409,1.40e+00,-2.04e+00,5.60e-01,
410,1.60e+00,-2.04e+00,4.80e-01,
411,-1.00e+01,-1.32e+00,-4.00e-02,
412,-1.04e+01,-1.32e+00,-4.00e-02,
413,-9.60e+00,4.40e-01,-5.60e-01,
414,-9.80e+00,4.80e-01,-6.00e-01,
415,-8.00e-01,1.88e+00,-4.00e-01,
416,-8.00e-01,1.84e+00,-4.80e-01,
417,9.60e+00,1.04e+00,1.20e-01,
418,1.06e+01,1.04e+00,1.20e-01,
419,9.00e+00,-9.60e-01,5.20e-01,
420,9.40e+00,-9.60e-01,6.00e-01,
421,-1.80e+00,-2.04e+00,2.80e-01,
422,-1.80e+00,-2.04e+00,3.20e-01,
423,-1.04e+01,-9.20e-01,-3.60e-01,
424,-1.04e+01,-8.80e-01,-2.80e-01,
425,-8.20e+00,1.00e+00,-6.40e-01,
426,-8.60e+00,9.60e-01,-6.80e-01,
427,2.60e+00,1.84e+00,-2.00e-01,
428,2.40e+00,1.80e+00,-2.40e-01,
429,1.06e+01,6.00e-01,4.00e-01,
430,1.06e+01,6.00e-01,3.60e-01,
431,6.80e+00,-1.48e+00,6.00e-01,
432,7.20e+00,-1.48e+00,5.20e-01,
433,-5.20e+00,-2.04e+00,0.00e+00,
434,-5.20e+00,-1.88e+00,4.00e-02,
435,-1.04e+01,-4.40e-01,-5.60e-01,
436,-1.04e+01,-4.40e-01,-4.40e-01,
437,-6.00e+00,1.48e+00,-6.00e-01,
438,-6.20e+00,1.48e+00,-4.80e-01,
439,5.40e+00,1.84e+00,8.00e-02,
440,5.20e+00,1.64e+00,0.00e+00,
441,1.06e+01,4.00e-02,5.20e-01,
442,1.06e+01,8.00e-02,6.00e-01,
443,4.20e+00,-1.88e+00,3.60e-01,
444,4.20e+00,-2.04e+00,3.60e-01,
445,-8.20e+00,-1.56e+00,-2.80e-01,
446,-7.80e+00,-1.60e+00,-2.00e-01,
447,-1.04e+01,4.00e-02,-6.00e-01,
448,-1.02e+01,4.00e-02,-6.40e-01,
449,-3.00e+00,1.76e+00,-2.40e-01,
450,-3.20e+00,1.84e+00,-2.80e-01,
451,8.00e+00,1.32e+00,3.20e-01,
452,8.20e+00,1.28e+00,3.20e-01,
453,1.06e+01,-4.80e-01,6.00e-01,
454,1.00e+01,-5.20e-01,5.20e-01,
455,6.00e-01,-2.04e+00,4.00e-02,
456,8.00e-01,-2.08e+00,1.20e-01,
457,-1.04e+01,-1.24e+00,-4.80e-01,
458,-1.04e+01,-1.20e+00,-4.40e-01,
459,-9.20e+00,6.00e-01,-6.40e-01,
460,-9.80e+00,6.40e-01,-5.60e-01,
461,0.00e+00,1.84e+00,0.00e+00,
462,-4.00e-01,1.84e+00,-4.00e-02,
463,1.00e+01,9.20e-01,5.20e-01,
464,1.06e+01,9.20e-01,6.00e-01,
465,8.40e+00,-1.16e+00,4.00e-01,
466,8.60e+00,-1.08e+00,4.40e-01,
467,-3.00e+00,-2.04e+00,-2.00e-01,
468,-3.00e+00,-2.00e+00,-1.60e-01,
469,-1.04e+01,-7.60e-01,-6.00e-01,
470,-1.04e+01,-8.00e-01,-6.40e-01,
471,-7.40e+00,1.16e+00,-3.60e-01,
472,-7.80e+00,1.16e+00,-4.00e-01,
473,3.60e+00,1.88e+00,2.80e-01,
474,3.20e+00,1.76e+00,2.40e-01,
475,1.06e+01,4.00e-01,6.00e-01,
476,1.06e+01,4.40e-01,6.00e-01,
477,6.20e+00,-1.64e+00,1.60e-01,
478,6.20e+00,-1.60e+00,2.00e-01,
479,-6.00e+00,-2.04e+00,-4.40e-01,
480,-6.00e+00,-1.80e+00,-4.00e-01,
481,-1.04e+01,-2.80e-01,-6.80e-01,
482,-1.04e+01,-3.20e-01,-6.00e-01,
483,-5.20e+00,1.60e+00,-8.00e-02,
484,-5.00e+00,1.84e+00,-1.20e-01,
485,6.40e+00,1.48e+00,4.40e-01,
486,6.20e+00,1.48e+00,4.00e-01,
487,1.06e+01,-1.60e-01,6.00e-01,
488,1.06e+01,-1.60e-01,4.80e-01,
489,2.80e+00,-1.92e+00,-1.60e-01,
490,3.00e+00,-2.04e+00,-8.00e-02,
491,-9.20e+00,-1.48e+00,-6.00e-01,
492,-8.80e+00,-1.44e+00,-6.40e-01,
493,-1.04e+01,2.40e-01,-4.00e-01,
494,-1.02e+01,2.80e-01,-4.40e-01,
495,-1.80e+00,1.80e+00,2.00e-01,
496,-2.00e+00,1.88e+00,1.60e-01,
497,9.00e+00,1.12e+00,6.00e-01,
498,8.60e+00,1.16e+00,6.00e-01,
499,1.06e+01,-7.60e-01,2.40e-01,
500,9.60e+00,-7.60e-01,2.40e-01,
501,-1.00e+00,-2.04e+00,-4.00e-01,
502,-8.00e-01,-2.04e+00,-3.60e-01,
503,-1.04e+01,-1.00e+00,-6.80e-01,
504,-1.04e+01,-1.04e+00,-6.00e-01,
505,-8.80e+00,8.80e-01,-1.60e-01,
506,-9.20e+00,8.80e-01,-2.00e-01,
507,1.60e+00,1.84e+00,4.00e-01,
508,1.60e+00,1.84e+00,4.00e-01,
509,1.06e+01,6.80e-01,6.00e-01,
510,1.06e+01,7.20e-01,5.20e-01,
511,7.40e+00,-1.36e+00,-4.00e-02,
512,7.40e+00,-1.36e+00,0.00e+00,
513,-4.20e+00,-2.04e+00,-6.00e-01,
514,-4.40e+00,-1.92e+00,-6.40e-01,
515,-1.04e+01,-6.00e-01,-4.40e-01,
516,-1.04e+01,-5.60e-01,-4.80e-01,
517,-6.80e+00,1.36e+00,1.20e-01,
518,-7.00e+00,1.36e+00,1.20e-01,
519,4.80e+00,1.84e+00,6.00e-01,
520,4.60e+00,1.64e+00,6.00e-01,
521,1.06e+01,2.00e-01,3.20e-01,
522,1.06e+01,1.60e-01,3.20e-01,
523,4.80e+00,-1.80e+00,-3.60e-01,
524,4.80e+00,-2.04e+00,-3.20e-01,
525,-7.60e+00,-1.64e+00,-6.40e-01,
526,-7.40e+00,-1.64e+00,-6.80e-01,
527,-1.04e+01,-4.00e-02,-2.40e-01,
528,-1.02e+01,-8.00e-02,-2.40e-01,
529,-3.80e+00,1.72e+00,4.00e-01,
530,-3.80e+00,1.84e+00,3.60e-01,
531,7.60e+00,1.32e+00,6.40e-01,
532,7.40e+00,1.36e+00,5.20e-01,
533,1.06e+01,-4.00e-01,0.00e+00,
534,1.02e+01,-4.40e-01,8.00e-02,
535,1.40e+00,-2.04e+00,-5.20e-01,
536,1.60e+00,-2.08e+00,-4.40e-01,
537,-1.00e+01,-1.28e+00,-6.40e-01,
538,-1.04e+01,-1.28e+00,-5.20e-01,
539,-9.40e+00,5.20e-01,4.00e-02,
540,-9.80e+00,5.20e-01,0.00e+00,
541,-4.00e-01,1.84e+00,5.20e-01,
542,-6.00e-01,1.84e+00,6.00e-01,
543,9.80e+00,9.60e-01,3.60e-01,
544,1.06e+01,9.60e-01,4.00e-01,
545,8.60e+00,-1.04e+00,-2.40e-01,
546,9.00e+00,-1.04e+00,-2.00e-01,
547,-2.40e+00,-2.04e+00,-6.40e-01,
548,-2.40e+00,-2.00e+00,-6.80e-01,
549,-1.04e+01,-8.40e-01,-3.20e-01,
550,-1.04e+01,-8.40e-01,-3.20e-01,
551,-8.00e+00,1.12e+00,3.20e-01,
552,-8.20e+00,1.08e+00,3.20e-01,
553,3.00e+00,1.88e+00,6.40e-01,
554,3.00e+00,1.76e+00,6.00e-01,
555,1.06e+01,4.80e-01,1.20e-01,
556,1.06e+01,5.20e-01,2.00e-01,
557,6.60e+00,-1.60e+00,-4.80e-01,
558,7.00e+00,-1.56e+00,-4.40e-01,
559,-5.60e+00,-2.04e+00,-6.40e-01,
560,-5.80e+00,-1.84e+00,-6.00e-01,
561,-1.04e+01,-3.20e-01,-4.00e-02,
562,-1.04e+01,-3.60e-01,-4.00e-02,
563,-5.60e+00,1.56e+00,5.20e-01,
564,-5.80e+00,1.84e+00,6.00e-01,
565,6.00e+00,1.48e+00,3.60e-01,
566,5.60e+00,1.56e+00,4.80e-01,
567,1.06e+01,-4.00e-02,-2.00e-01,
568,1.06e+01,-4.00e-02,-1.60e-01,
569,3.40e+00,-1.92e+00,-6.00e-01,
570,3.80e+00,-2.04e+00,-6.40e-01,
571,-8.60e+00,-1.48e+00,-3.60e-01,
572,-8.60e+00,-1.48e+00,-4.00e-01,
573,-1.04e+01,1.60e-01,2.40e-01,
574,-1.02e+01,2.00e-01,2.00e-01,
575,-2.60e+00,1.84e+00,6.40e-01,
576,-2.80e+00,1.84e+00,6.00e-01,
577,8.40e+00,1.24e+00,1.60e-01,
578,8.40e+00,1.24e+00,2.00e-01,
579,1.06e+01,-6.40e-01,-4.40e-01,
580,1.00e+01,-6.40e-01,-4.00e-01,
581,0.00e+00,-2.04e+00,-6.40e-01,
582,2.00e-01,-2.04e+00,-6.00e-01,
583,-1.04e+01,-1.12e+00,-1.20e-01,
584,-1.04e+01,-1.12e+00,-1.20e-01,
585,-8.80e+00,7.20e-01,4.80e-01,
586,-9.40e+00,7.20e-01,4.40e-01,
587,6.00e-01,1.84e+00,6.00e-01,
588,6.00e-01,1.84e+00,4.80e-01,
589,1.02e+01,8.40e-01,-8.00e-02,
590,1.06e+01,8.40e-01,-8.00e-02,
591,8.40e+00,-1.24e+00,-6.00e-01,
592,8.40e+00,-1.24e+00,-6.40e-01,
593,-3.40e+00,-2.04e+00,-4.00e-01,
594,-3.20e+00,-1.96e+00,-4.40e-01,
595,-1.04e+01,-6.80e-01,2.00e-01,
596,-1.04e+01,-6.80e-01,1.60e-01,
