Python/scripts/Traces/NF7.csv

X,CH1,CH2,CH3,Start,Increment,
Sequence,Volt,Volt,Volt,-6.000000e-02,1.000000e-04
0,2.00e-01,-4.00e-01,8.00e-02,
1,-4.00e-01,2.00e-01,-2.00e-01,
2,-4.00e-01,-4.00e-01,8.00e-02,
3,2.00e-01,2.00e-01,-2.00e-01,
4,2.00e-01,0.00e+00,8.00e-02,
5,-4.00e-01,-4.00e-01,-2.40e-01,
6,2.00e-01,-4.00e-01,8.00e-02,
7,-4.00e-01,2.00e-01,-2.00e-01,
8,2.00e-01,0.00e+00,-2.00e-01,
9,-4.00e-01,-4.00e-01,8.00e-02,
10,2.00e-01,-4.00e-01,8.00e-02,
11,-4.00e-01,2.00e-01,-2.40e-01,
12,2.00e-01,-4.00e-01,8.00e-02,
13,-4.00e-01,2.00e-01,-2.40e-01,
14,2.00e-01,0.00e+00,-2.40e-01,
15,-4.00e-01,-4.00e-01,4.00e-02,
16,-4.00e-01,-4.00e-01,4.00e-02,
17,2.00e-01,2.00e-01,-2.40e-01,
18,2.00e-01,-4.00e-01,4.00e-02,
19,-4.00e-01,0.00e+00,-2.40e-01,
20,2.00e-01,-4.00e-01,4.00e-02,
21,-4.00e-01,2.00e-01,-2.80e-01,
22,2.00e-01,-4.00e-01,0.00e+00,
23,-4.00e-01,2.00e-01,-2.40e-01,
24,-4.00e-01,-4.00e-01,4.00e-02,
25,2.00e-01,2.00e-01,-2.80e-01,
26,2.00e-01,-4.00e-01,0.00e+00,
27,-4.00e-01,2.00e-01,-2.80e-01,
28,-4.00e-01,-4.00e-01,0.00e+00,
29,2.00e-01,2.00e-01,-2.80e-01,
30,-4.00e-01,0.00e+00,0.00e+00,
31,2.00e-01,-6.00e-01,-2.80e-01,
32,2.00e-01,2.00e-01,-2.80e-01,
33,-4.00e-01,-6.00e-01,0.00e+00,
34,2.00e-01,0.00e+00,-2.80e-01,
35,-6.00e-01,-6.00e-01,0.00e+00,
36,-6.00e-01,0.00e+00,0.00e+00,
37,2.00e-01,-6.00e-01,-2.80e-01,
38,-6.00e-01,0.00e+00,-3.60e-01,
39,2.00e-01,-4.00e-01,-4.00e-02,
40,2.00e-01,2.00e-01,-3.20e-01,
41,-6.00e-01,-6.00e-01,0.00e+00,
42,-6.00e-01,0.00e+00,-3.20e-01,
43,2.00e-01,-6.00e-01,0.00e+00,
44,-6.00e-01,0.00e+00,0.00e+00,
45,2.00e-01,-8.00e-01,-3.20e-01,
46,2.00e-01,-6.00e-01,-4.00e-02,
47,-6.00e-01,2.00e-01,-3.60e-01,
48,2.00e-01,-4.00e-01,0.00e+00,
49,-6.00e-01,2.00e-01,-3.20e-01,
50,-4.00e-01,-6.00e-01,-2.80e-01,
51,2.00e-01,2.00e-01,0.00e+00,
52,-4.00e-01,-4.00e-01,-4.00e-02,
53,2.00e-01,0.00e+00,-3.20e-01,
54,-6.00e-01,2.00e-01,-2.80e-01,
55,2.00e-01,-6.00e-01,0.00e+00,
56,2.00e-01,0.00e+00,-4.00e-02,
57,-6.00e-01,-4.00e-01,-3.60e-01,
58,2.00e-01,2.00e-01,-3.20e-01,
59,-6.00e-01,-8.00e-01,0.00e+00,
60,2.00e-01,0.00e+00,0.00e+00,
61,-6.00e-01,-6.00e-01,-3.20e-01,
62,-6.00e-01,0.00e+00,0.00e+00,
63,2.00e-01,-6.00e-01,-2.80e-01,
64,2.00e-01,-4.00e-01,0.00e+00,
65,-6.00e-01,2.00e-01,-3.20e-01,
66,2.00e-01,-6.00e-01,0.00e+00,
67,-6.00e-01,2.00e-01,-2.80e-01,
68,2.00e-01,2.00e-01,0.00e+00,
69,-6.00e-01,-6.00e-01,-2.80e-01,
70,2.00e-01,-4.00e-01,-2.40e-01,
71,-4.00e-01,2.00e-01,0.00e+00,
72,2.00e-01,0.00e+00,-2.80e-01,
73,-4.00e-01,-4.00e-01,4.00e-02,
74,2.00e-01,-4.00e-01,4.00e-02,
75,-4.00e-01,2.00e-01,-2.80e-01,
76,2.00e-01,-4.00e-01,-2.40e-01,
77,-4.00e-01,2.00e-01,4.00e-02,
78,-4.00e-01,-6.00e-01,-2.40e-01,
79,2.00e-01,2.00e-01,8.00e-02,
80,2.00e-01,0.00e+00,-2.40e-01,
81,-4.00e-01,-6.00e-01,8.00e-02,
82,2.00e-01,-6.00e-01,-2.40e-01,
83,-4.00e-01,2.00e-01,8.00e-02,
84,2.00e-01,0.00e+00,8.00e-02,
85,-4.00e-01,-4.00e-01,-2.40e-01,
86,2.00e-01,-4.00e-01,8.00e-02,
87,-4.00e-01,2.00e-01,-2.40e-01,
88,-4.00e-01,-4.00e-01,-2.40e-01,
89,2.00e-01,2.00e-01,8.00e-02,
90,-4.00e-01,-4.00e-01,8.00e-02,
91,2.00e-01,2.00e-01,-2.00e-01,
92,2.00e-01,-4.00e-01,-2.00e-01,
93,-4.00e-01,2.00e-01,8.00e-02,
94,-4.00e-01,-4.00e-01,8.00e-02,
95,2.00e-01,0.00e+00,-1.60e-01,
96,2.00e-01,-4.00e-01,1.60e-01,
97,-4.00e-01,2.00e-01,-2.00e-01,
98,2.00e-01,-4.00e-01,-1.20e-01,
99,-4.00e-01,2.00e-01,1.20e-01,
100,2.00e-01,-4.00e-01,-1.20e-01,
101,-4.00e-01,2.00e-01,1.60e-01,
102,2.00e-01,-4.00e-01,-8.00e-02,
103,-4.00e-01,2.00e-01,2.00e-01,
104,2.00e-01,-4.00e-01,-1.20e-01,
105,-4.00e-01,2.00e-01,2.00e-01,
106,-4.00e-01,-4.00e-01,2.00e-01,
107,2.00e-01,0.00e+00,-8.00e-02,
108,-4.00e-01,2.00e-01,-8.00e-02,
109,2.00e-01,-4.00e-01,2.00e-01,
110,-4.00e-01,-4.00e-01,2.00e-01,
111,2.00e-01,2.00e-01,-8.00e-02,
112,-2.00e-01,2.00e-01,2.40e-01,
113,2.00e-01,-4.00e-01,-8.00e-02,
114,2.00e-01,-4.00e-01,-4.00e-02,
115,-4.00e-01,2.00e-01,2.40e-01,
116,2.00e-01,0.00e+00,2.40e-01,
117,-4.00e-01,-4.00e-01,-8.00e-02,
118,2.00e-01,-4.00e-01,-4.00e-02,
119,-4.00e-01,4.00e-01,2.40e-01,
120,2.00e-01,-4.00e-01,-4.00e-02,
121,-4.00e-01,2.00e-01,2.40e-01,
122,-2.00e-01,-4.00e-01,2.40e-01,
123,2.00e-01,2.00e-01,-4.00e-02,
124,2.00e-01,-4.00e-01,0.00e+00,
125,-2.00e-01,4.00e-01,2.40e-01,
126,2.00e-01,4.00e-01,-4.00e-02,
127,-4.00e-01,-4.00e-01,2.40e-01,
128,4.00e-01,4.00e-01,2.80e-01,
129,-4.00e-01,-4.00e-01,-4.00e-02,
130,2.00e-01,4.00e-01,2.80e-01,
131,-2.00e-01,-2.00e-01,-4.00e-02,
132,0.00e+00,-2.00e-01,2.80e-01,
133,2.00e-01,4.00e-01,0.00e+00,
134,0.00e+00,0.00e+00,0.00e+00,
135,4.00e-01,4.00e-01,2.80e-01,
136,0.00e+00,4.00e-01,2.80e-01,
137,4.00e-01,-2.00e-01,0.00e+00,
138,0.00e+00,0.00e+00,4.00e-02,
139,4.00e-01,4.00e-01,3.20e-01,
140,0.00e+00,4.00e-01,0.00e+00,
141,4.00e-01,-4.00e-01,2.80e-01,
142,4.00e-01,0.00e+00,0.00e+00,
143,-2.00e-01,4.00e-01,2.80e-01,
144,2.00e-01,4.00e-01,0.00e+00,
145,0.00e+00,0.00e+00,2.80e-01,
146,0.00e+00,0.00e+00,0.00e+00,
147,2.00e-01,4.00e-01,2.80e-01,
148,2.00e-01,4.00e-01,2.40e-01,
149,0.00e+00,-4.00e-01,-4.00e-02,
150,-2.00e-01,4.00e-01,2.80e-01,
151,4.00e-01,-4.00e-01,-4.00e-02,
152,2.00e-01,4.00e-01,2.80e-01,
153,-4.00e-01,-4.00e-01,-4.00e-02,
154,0.00e+00,4.00e-01,-4.00e-02,
155,2.00e-01,-4.00e-01,2.40e-01,
156,2.00e-01,-4.00e-01,2.80e-01,
157,-4.00e-01,4.00e-01,-4.00e-02,
158,2.00e-01,4.00e-01,-4.00e-02,
159,-4.00e-01,-4.00e-01,2.80e-01,
160,2.00e-01,0.00e+00,2.80e-01,
161,-4.00e-01,4.00e-01,-4.00e-02,
162,4.00e-01,4.00e-01,2.40e-01,
163,-4.00e-01,-2.00e-01,-4.00e-02,
164,2.00e-01,4.00e-01,2.40e-01,
165,-4.00e-01,-4.00e-01,-4.00e-02,
166,2.00e-01,4.00e-01,-8.00e-02,
167,-4.00e-01,-4.00e-01,2.80e-01,
168,2.00e-01,-4.00e-01,-4.00e-02,
169,-4.00e-01,4.00e-01,2.40e-01,
170,2.00e-01,0.00e+00,2.40e-01,
171,-4.00e-01,-4.00e-01,-8.00e-02,
172,-4.00e-01,-4.00e-01,2.40e-01,
173,2.00e-01,2.00e-01,-8.00e-02,
174,2.00e-01,-4.00e-01,-8.00e-02,
175,-4.00e-01,2.00e-01,2.40e-01,
176,2.00e-01,-4.00e-01,-8.00e-02,
177,-4.00e-01,4.00e-01,2.40e-01,
178,-4.00e-01,-4.00e-01,-8.00e-02,
179,2.00e-01,2.00e-01,2.00e-01,
180,-4.00e-01,-4.00e-01,-8.00e-02,
181,2.00e-01,4.00e-01,2.00e-01,
182,2.00e-01,-4.00e-01,2.00e-01,
183,-4.00e-01,4.00e-01,-1.20e-01,
184,2.00e-01,-4.00e-01,-8.00e-02,
185,-4.00e-01,0.00e+00,2.00e-01,
186,-4.00e-01,-4.00e-01,-8.00e-02,
187,2.00e-01,2.00e-01,2.00e-01,
188,2.00e-01,-4.00e-01,-8.00e-02,
189,-4.00e-01,4.00e-01,2.00e-01,
190,-4.00e-01,0.00e+00,-8.00e-02,
191,2.00e-01,-4.00e-01,2.00e-01,
192,-2.00e-01,0.00e+00,0.00e+00,
193,4.00e-01,8.00e-01,6.80e-01,
194,8.00e-01,8.00e-01,4.40e-01,
195,0.00e+00,2.00e-01,8.80e-01,
196,4.00e-01,8.00e-01,6.00e-01,
197,-2.00e-01,0.00e+00,1.04e+00,
198,0.00e+00,0.00e+00,8.00e-01,
199,4.00e-01,8.00e-01,1.20e+00,
200,0.00e+00,2.00e-01,9.60e-01,
201,8.00e-01,8.00e-01,1.36e+00,
202,4.00e-01,2.00e-01,1.28e+00,
203,1.00e+00,1.00e+00,9.60e-01,
204,6.00e-01,6.00e-01,1.24e+00,
205,1.20e+00,1.00e+00,9.20e-01,
206,8.00e-01,6.00e-01,1.16e+00,
207,-1.00e+00,-8.00e-01,8.40e-01,
208,-1.00e+00,-2.00e-01,1.16e+00,
209,-4.00e-01,-1.00e+00,8.40e-01,
210,-4.00e-01,-6.00e-01,8.40e-01,
211,-1.00e+00,-1.20e+00,1.16e+00,
212,-1.20e+00,-8.00e-01,8.40e-01,
213,-8.00e-01,-2.00e+00,1.16e+00,
214,-8.00e-01,-1.60e+00,8.40e-01,
215,-1.60e+00,-1.20e+00,1.24e+00,
216,-1.00e+00,-1.60e+00,8.40e-01,
217,-1.60e+00,-1.20e+00,1.16e+00,
218,-1.40e+00,-1.20e+00,1.16e+00,
219,-1.80e+00,-2.00e+00,8.40e-01,
220,-1.40e+00,-1.40e+00,8.40e-01,
221,-2.20e+00,-2.20e+00,1.20e+00,
222,-1.60e+00,-1.80e+00,1.20e+00,
223,-2.20e+00,-2.20e+00,8.40e-01,
224,-1.60e+00,-1.80e+00,8.80e-01,
225,-2.40e+00,-2.60e+00,1.20e+00,
226,-2.00e+00,-2.00e+00,1.16e+00,
227,-2.40e+00,-2.60e+00,8.40e-01,
228,-2.80e+00,-2.80e+00,8.80e-01,
229,-2.20e+00,-2.40e+00,1.20e+00,
230,-2.20e+00,-2.40e+00,1.24e+00,
231,-3.00e+00,-3.20e+00,8.40e-01,
232,-3.00e+00,-3.20e+00,8.80e-01,
233,-2.60e+00,-2.60e+00,1.20e+00,
234,-2.80e+00,-2.80e+00,1.16e+00,
235,-3.40e+00,-3.40e+00,8.80e-01,
236,-2.80e+00,-3.00e+00,1.20e+00,
237,-3.60e+00,-3.80e+00,8.40e-01,
238,-3.60e+00,-3.80e+00,1.16e+00,
239,-3.20e+00,-3.20e+00,8.40e-01,
240,-3.20e+00,-3.20e+00,8.80e-01,
241,-4.00e+00,-4.00e+00,1.20e+00,
242,-4.00e+00,-4.00e+00,8.80e-01,
243,-3.60e+00,-3.60e+00,1.16e+00,
244,-3.60e+00,-3.60e+00,8.80e-01,
245,-4.40e+00,-4.40e+00,1.20e+00,
246,-3.80e+00,-4.40e+00,1.16e+00,
247,-4.40e+00,-3.80e+00,8.80e-01,
248,-3.80e+00,-3.80e+00,1.20e+00,
249,-4.60e+00,-4.60e+00,8.40e-01,
250,-4.20e+00,-4.60e+00,8.80e-01,
251,-4.60e+00,-4.20e+00,1.16e+00,
252,-4.40e+00,-4.20e+00,8.40e-01,
253,-5.00e+00,-5.00e+00,1.24e+00,
254,-4.40e+00,-4.40e+00,8.80e-01,
255,-5.00e+00,-5.20e+00,1.20e+00,
256,-4.80e+00,-4.80e+00,8.80e-01,
257,-5.20e+00,-5.20e+00,1.16e+00,
258,-4.80e+00,-4.80e+00,8.80e-01,
259,-5.60e+00,-5.60e+00,1.20e+00,
260,-5.00e+00,-5.60e+00,8.80e-01,
261,-5.60e+00,-5.20e+00,1.20e+00,
262,-5.00e+00,-5.20e+00,1.16e+00,
263,-5.80e+00,-6.00e+00,8.40e-01,
264,-5.40e+00,-5.40e+00,1.16e+00,
265,-5.80e+00,-6.20e+00,8.40e-01,
266,-5.40e+00,-6.20e+00,8.80e-01,
267,-6.20e+00,-5.60e+00,1.16e+00,
268,-6.20e+00,-5.80e+00,8.40e-01,
269,-5.60e+00,-6.40e+00,1.16e+00,
270,-6.00e+00,-6.00e+00,1.16e+00,
271,-6.40e+00,-6.60e+00,8.40e-01,
272,-6.00e+00,-6.00e+00,8.40e-01,
273,-6.80e+00,-6.80e+00,1.16e+00,
274,-6.20e+00,-6.80e+00,1.16e+00,
275,-6.80e+00,-6.40e+00,8.40e-01,
276,-6.20e+00,-6.40e+00,8.40e-01,
277,-7.00e+00,-7.20e+00,1.24e+00,
278,-6.60e+00,-6.60e+00,8.40e-01,
279,-7.00e+00,-7.40e+00,1.16e+00,
280,-7.00e+00,-6.80e+00,8.40e-01,
281,-6.60e+00,-7.40e+00,1.20e+00,
282,-7.00e+00,-7.00e+00,8.40e-01,
283,-6.60e+00,-7.80e+00,1.20e+00,
284,-6.60e+00,-7.00e+00,8.40e-01,
285,-7.40e+00,-7.80e+00,1.20e+00,
286,-7.40e+00,-7.20e+00,1.24e+00,
287,-6.80e+00,-8.00e+00,8.40e-01,
288,-6.80e+00,-7.60e+00,1.24e+00,
289,-7.60e+00,-8.20e+00,8.40e-01,
290,-7.60e+00,-7.60e+00,1.16e+00,
291,-7.20e+00,-8.40e+00,8.40e-01,
292,-7.20e+00,-7.80e+00,8.80e-01,
293,-8.00e+00,-8.60e+00,1.24e+00,
294,-8.00e+00,-8.00e+00,1.20e+00,
295,-7.40e+00,-8.60e+00,8.80e-01,
296,-7.60e+00,-8.20e+00,8.80e-01,
297,-8.40e+00,-8.80e+00,1.20e+00,
298,-8.40e+00,-8.40e+00,8.80e-01,
299,-7.80e+00,-9.00e+00,1.16e+00,
300,-8.20e+00,-8.40e+00,1.20e+00,
301,-8.60e+00,-9.20e+00,8.40e-01,
302,-8.20e+00,-7.80e+00,8.80e-01,
303,-8.80e+00,-1.08e+01,1.20e+00,
304,-8.40e+00,-7.80e+00,1.20e+00,
305,-9.00e+00,-1.10e+01,8.00e-01,
306,-8.40e+00,-8.20e+00,1.20e+00,
307,-9.20e+00,-1.12e+01,8.40e-01,
308,-9.20e+00,-8.40e+00,8.40e-01,
309,-8.80e+00,-1.14e+01,1.24e+00,
310,-8.80e+00,-8.40e+00,1.20e+00,
311,-9.60e+00,-1.18e+01,8.40e-01,
312,-9.00e+00,-8.60e+00,1.16e+00,
313,-9.60e+00,-1.18e+01,8.40e-01,
314,-9.20e+00,-9.00e+00,1.16e+00,
315,-9.80e+00,-1.20e+01,8.80e-01,
316,-9.40e+00,-9.20e+00,1.20e+00,
317,-1.00e+01,-1.20e+01,8.40e-01,
318,-9.60e+00,-9.40e+00,1.16e+00,
319,-1.02e+01,-1.20e+01,8.40e-01,
320,-1.02e+01,-9.60e+00,1.16e+00,
321,-9.60e+00,-1.18e+01,8.80e-01,
322,-1.00e+01,-1.00e+01,8.80e-01,
323,-1.04e+01,-1.12e+01,1.24e+00,
324,-1.00e+01,-1.06e+01,1.16e+00,
325,-1.08e+01,-1.14e+01,8.40e-01,
326,-1.08e+01,-1.06e+01,1.16e+00,
327,-1.02e+01,-1.14e+01,8.80e-01,
328,-1.10e+01,-1.10e+01,8.40e-01,
329,-1.02e+01,-1.14e+01,1.16e+00,
330,-1.08e+01,-1.10e+01,1.12e+00,
331,-1.02e+01,-1.14e+01,8.40e-01,
332,-1.02e+01,-1.14e+01,1.16e+00,
333,-1.08e+01,-1.06e+01,9.20e-01,
334,-1.08e+01,-1.14e+01,1.16e+00,
335,-1.02e+01,-1.06e+01,9.20e-01,
336,-1.00e+01,-1.14e+01,8.40e-01,
337,-1.08e+01,-1.06e+01,1.16e+00,
338,-1.08e+01,-1.10e+01,8.80e-01,
339,-1.02e+01,-1.14e+01,1.20e+00,
340,-1.08e+01,-1.10e+01,8.80e-01,
341,-1.02e+01,-1.14e+01,1.20e+00,
342,-1.02e+01,-1.14e+01,9.20e-01,
343,-1.08e+01,-1.10e+01,1.16e+00,
344,-1.08e+01,-1.10e+01,1.24e+00,
345,-1.02e+01,-1.14e+01,8.80e-01,
346,-1.08e+01,-1.10e+01,1.16e+00,
347,-1.02e+01,-1.18e+01,8.40e-01,
348,-1.08e+01,-1.10e+01,1.16e+00,
349,-1.02e+01,-1.14e+01,8.40e-01,
350,-1.08e+01,-1.10e+01,1.20e+00,
351,-1.02e+01,-1.16e+01,8.80e-01,
352,-1.06e+01,-1.10e+01,1.16e+00,
353,-1.10e+01,-1.16e+01,8.80e-01,
354,-1.08e+01,-1.10e+01,1.16e+00,
355,-1.02e+01,-1.18e+01,8.40e-01,
356,-1.06e+01,-1.10e+01,1.16e+00,
357,-1.10e+01,-1.18e+01,8.80e-01,
358,-1.06e+01,-1.10e+01,9.20e-01,
359,-1.10e+01,-1.16e+01,1.16e+00,
360,-1.06e+01,-1.10e+01,1.16e+00,
361,-1.10e+01,-1.18e+01,8.40e-01,
362,-1.06e+01,-1.10e+01,1.16e+00,
363,-1.10e+01,-1.18e+01,8.80e-01,
364,-1.06e+01,-1.10e+01,1.16e+00,
365,-1.10e+01,-1.18e+01,8.80e-01,
366,-1.06e+01,-1.10e+01,1.16e+00,
367,-1.10e+01,-1.18e+01,8.80e-01,
368,-1.10e+01,-1.18e+01,1.16e+00,
369,-1.06e+01,-1.10e+01,8.40e-01,
370,-1.10e+01,-1.18e+01,8.80e-01,
371,-1.06e+01,-1.10e+01,1.16e+00,
372,-1.06e+01,-1.18e+01,1.16e+00,
373,-1.10e+01,-1.10e+01,8.40e-01,
374,-1.10e+01,-1.10e+01,1.16e+00,
375,-1.06e+01,-1.18e+01,8.40e-01,
376,-1.06e+01,-1.10e+01,8.80e-01,
377,-1.10e+01,-1.18e+01,1.20e+00,
378,-1.06e+01,-1.10e+01,1.16e+00,
379,-1.10e+01,-1.18e+01,8.40e-01,
380,-1.10e+01,-1.18e+01,1.16e+00,
381,-1.06e+01,-1.10e+01,8.40e-01,
382,-1.10e+01,-1.18e+01,1.16e+00,
383,-1.06e+01,-1.10e+01,8.40e-01,
384,-1.10e+01,-1.18e+01,8.40e-01,
385,-1.06e+01,-1.10e+01,1.16e+00,
386,-1.06e+01,-1.18e+01,8.40e-01,
387,-1.10e+01,-1.10e+01,1.20e+00,
388,-1.06e+01,-1.18e+01,8.40e-01,
389,-1.10e+01,-1.10e+01,1.16e+00,
390,-1.06e+01,-1.18e+01,8.40e-01,
391,-1.10e+01,-1.10e+01,1.20e+00,
392,-1.10e+01,-1.18e+01,9.20e-01,
393,-1.06e+01,-1.10e+01,1.16e+00,
394,-1.10e+01,-1.18e+01,1.20e+00,
395,-1.06e+01,-1.10e+01,8.40e-01,
396,-1.10e+01,-1.18e+01,9.20e-01,
397,-1.06e+01,-1.10e+01,1.16e+00,
398,-1.10e+01,-1.18e+01,8.80e-01,
399,-1.06e+01,-1.10e+01,1.16e+00,
400,-1.10e+01,-1.10e+01,1.16e+00,
401,-1.06e+01,-1.18e+01,8.80e-01,
402,-1.06e+01,-1.18e+01,1.16e+00,
403,-1.10e+01,-1.10e+01,8.40e-01,
404,-1.10e+01,-1.10e+01,9.20e-01,
405,-1.06e+01,-1.18e+01,1.16e+00,
406,-1.10e+01,-1.18e+01,8.80e-01,
407,-1.06e+01,-1.10e+01,1.16e+00,
408,-1.06e+01,-1.10e+01,1.16e+00,
409,-1.10e+01,-1.18e+01,8.40e-01,
410,-1.10e+01,-1.18e+01,1.20e+00,
411,-1.06e+01,-1.10e+01,8.80e-01,
412,-1.10e+01,-1.18e+01,8.40e-01,
413,-1.06e+01,-1.10e+01,1.20e+00,
414,-1.10e+01,-1.12e+01,8.80e-01,
415,-1.06e+01,-1.18e+01,1.20e+00,
416,-1.06e+01,-1.18e+01,8.40e-01,
417,-1.10e+01,-1.10e+01,1.16e+00,
418,-1.10e+01,-1.18e+01,1.24e+00,
419,-1.06e+01,-1.10e+01,9.20e-01,
420,-1.06e+01,-1.18e+01,1.16e+00,
421,-1.10e+01,-1.12e+01,8.80e-01,
422,-1.10e+01,-1.18e+01,1.16e+00,
423,-1.06e+01,-1.10e+01,8.80e-01,
424,-1.06e+01,-1.18e+01,1.16e+00,
425,-1.10e+01,-1.10e+01,8.40e-01,
426,-1.06e+01,-1.18e+01,1.16e+00,
427,-1.10e+01,-1.12e+01,8.80e-01,
428,-1.10e+01,-1.18e+01,9.20e-01,
429,-1.06e+01,-1.12e+01,1.16e+00,
430,-1.06e+01,-1.18e+01,1.16e+00,
431,-1.10e+01,-1.10e+01,8.80e-01,
432,-1.06e+01,-1.18e+01,1.16e+00,
433,-1.10e+01,-1.10e+01,8.80e-01,
434,-1.06e+01,-1.18e+01,1.20e+00,
435,-1.10e+01,-1.12e+01,8.40e-01,
436,-1.10e+01,-1.18e+01,1.16e+00,
437,-1.06e+01,-1.10e+01,8.80e-01,
438,-1.10e+01,-1.18e+01,1.20e+00,
439,-1.06e+01,-1.10e+01,8.40e-01,
440,-1.10e+01,-1.12e+01,1.16e+00,
441,-1.06e+01,-1.18e+01,8.80e-01,
442,-1.10e+01,-1.12e+01,1.16e+00,
443,-1.06e+01,-1.18e+01,8.80e-01,
444,-1.10e+01,-1.18e+01,1.16e+00,
445,-1.06e+01,-1.10e+01,8.40e-01,
446,-1.10e+01,-1.12e+01,1.12e+00,
447,-1.06e+01,-1.18e+01,8.80e-01,
448,-1.06e+01,-1.18e+01,1.12e+00,
449,-1.10e+01,-1.10e+01,8.40e-01,
450,-1.06e+01,-1.10e+01,1.16e+00,
451,-1.10e+01,-1.18e+01,8.40e-01,
452,-1.06e+01,-1.18e+01,1.16e+00,
453,-1.10e+01,-1.10e+01,8.40e-01,
454,-1.10e+01,-1.10e+01,1.20e+00,
455,-1.06e+01,-1.18e+01,8.40e-01,
456,-1.10e+01,-1.10e+01,8.80e-01,
457,-1.06e+01,-1.18e+01,1.16e+00,
458,-1.10e+01,-1.18e+01,8.40e-01,
459,-1.06e+01,-1.10e+01,1.20e+00,
460,-1.10e+01,-1.18e+01,1.16e+00,
461,-1.06e+01,-1.10e+01,8.40e-01,
462,-1.10e+01,-1.18e+01,1.16e+00,
463,-1.06e+01,-1.10e+01,8.40e-01,
464,-1.10e+01,-1.12e+01,8.80e-01,
465,-1.06e+01,-1.18e+01,1.16e+00,
466,-1.10e+01,-1.18e+01,1.16e+00,
467,-1.06e+01,-1.10e+01,8.80e-01,
468,-1.06e+01,-1.12e+01,1.16e+00,
469,-1.10e+01,-1.18e+01,8.80e-01,
470,-1.10e+01,-1.18e+01,8.80e-01,
471,-1.06e+01,-1.10e+01,1.16e+00,
472,-1.06e+01,-1.18e+01,1.16e+00,
473,-1.10e+01,-1.10e+01,8.80e-01,
474,-1.10e+01,-1.18e+01,1.16e+00,
475,-1.06e+01,-1.10e+01,8.40e-01,
476,-1.10e+01,-1.18e+01,1.20e+00,
477,-1.06e+01,-1.10e+01,8.40e-01,
478,-1.10e+01,-1.12e+01,1.24e+00,
479,-1.06e+01,-1.18e+01,8.40e-01,
480,-1.10e+01,-1.18e+01,1.16e+00,
481,-1.06e+01,-1.10e+01,8.80e-01,
482,-1.06e+01,-1.18e+01,1.20e+00,
483,-1.10e+01,-1.10e+01,8.40e-01,
484,-1.06e+01,-1.18e+01,1.16e+00,
485,-1.10e+01,-1.10e+01,8.40e-01,
486,-1.10e+01,-1.18e+01,1.16e+00,
487,-1.06e+01,-1.10e+01,8.40e-01,
488,-1.10e+01,-1.18e+01,8.40e-01,
489,-1.06e+01,-1.10e+01,1.24e+00,
490,-1.10e+01,-1.18e+01,1.16e+00,
491,-1.06e+01,-1.10e+01,8.80e-01,
492,-1.10e+01,-1.18e+01,1.16e+00,
493,-1.06e+01,-1.10e+01,8.40e-01,
494,-1.06e+01,-1.18e+01,1.16e+00,
495,-1.10e+01,-1.10e+01,8.40e-01,
496,-1.10e+01,-1.18e+01,8.40e-01,
497,-1.06e+01,-1.10e+01,1.20e+00,
498,-1.06e+01,-1.18e+01,8.40e-01,
499,-1.10e+01,-1.10e+01,1.16e+00,
500,-1.06e+01,-1.18e+01,9.20e-01,
501,-1.10e+01,-1.10e+01,1.16e+00,
502,-1.06e+01,-1.18e+01,1.16e+00,
503,-1.10e+01,-1.10e+01,8.80e-01,
504,-1.10e+01,-1.18e+01,1.16e+00,
505,-1.06e+01,-1.10e+01,8.80e-01,
506,-1.10e+01,-1.18e+01,8.40e-01,
507,-1.06e+01,-1.10e+01,1.24e+00,
508,-1.10e+01,-1.18e+01,1.16e+00,
509,-1.06e+01,-1.10e+01,8.80e-01,
510,-1.10e+01,-1.18e+01,1.16e+00,
511,-1.06e+01,-1.10e+01,8.80e-01,
512,-1.06e+01,-1.12e+01,8.40e-01,
513,-1.10e+01,-1.18e+01,1.16e+00,
514,-1.10e+01,-1.10e+01,1.16e+00,
515,-1.06e+01,-1.18e+01,8.40e-01,
516,-1.06e+01,-1.18e+01,8.80e-01,
517,-1.10e+01,-1.10e+01,1.16e+00,
518,-1.10e+01,-1.18e+01,1.16e+00,
519,-1.06e+01,-1.10e+01,9.20e-01,
520,-1.10e+01,-1.18e+01,1.16e+00,
521,-1.06e+01,-1.10e+01,8.80e-01,
522,-1.10e+01,-1.10e+01,8.80e-01,
523,-1.06e+01,-1.18e+01,1.24e+00,
524,-1.10e+01,-1.10e+01,8.40e-01,
525,-1.06e+01,-1.18e+01,1.20e+00,
526,-1.10e+01,-1.18e+01,8.80e-01,
527,-1.06e+01,-1.10e+01,1.20e+00,
528,-1.10e+01,-1.18e+01,1.24e+00,
529,-1.06e+01,-1.10e+01,8.80e-01,
530,-1.10e+01,-1.18e+01,1.20e+00,
531,-1.06e+01,-1.10e+01,8.80e-01,
532,-1.10e+01,-1.18e+01,8.80e-01,
533,-1.06e+01,-1.10e+01,1.20e+00,
534,-1.10e+01,-1.18e+01,1.16e+00,
535,-1.06e+01,-1.10e+01,8.80e-01,
536,-1.10e+01,-1.18e+01,1.16e+00,
537,-1.06e+01,-1.10e+01,8.80e-01,
538,-1.10e+01,-1.18e+01,1.16e+00,
539,-1.06e+01,-1.10e+01,8.80e-01,
540,-1.06e+01,-1.18e+01,1.16e+00,
541,-1.10e+01,-1.10e+01,8.40e-01,
542,-1.10e+01,-1.18e+01,1.16e+00,
543,-1.06e+01,-1.10e+01,8.80e-01,
544,-1.10e+01,-1.18e+01,1.16e+00,
545,-1.06e+01,-1.10e+01,8.80e-01,
546,-1.10e+01,-1.10e+01,1.16e+00,
547,-1.06e+01,-1.18e+01,8.80e-01,
548,-1.10e+01,-1.10e+01,9.20e-01,
549,-1.06e+01,-1.18e+01,1.16e+00,
550,-1.10e+01,-1.18e+01,1.16e+00,
551,-1.06e+01,-1.10e+01,8.80e-01,
552,-1.10e+01,-1.18e+01,8.80e-01,
553,-1.06e+01,-1.10e+01,1.20e+00,
554,-1.06e+01,-1.10e+01,8.40e-01,
555,-1.10e+01,-1.18e+01,1.20e+00,
556,-1.10e+01,-1.18e+01,1.16e+00,
557,-1.06e+01,-1.10e+01,8.80e-01,
558,-1.10e+01,-1.18e+01,1.16e+00,
559,-1.06e+01,-1.10e+01,8.40e-01,
560,-1.06e+01,-1.18e+01,8.80e-01,
561,-1.10e+01,-1.10e+01,1.16e+00,
562,-1.06e+01,-1.18e+01,8.80e-01,
563,-1.10e+01,-1.10e+01,1.12e+00,
564,-1.10e+01,-1.18e+01,9.20e-01,
565,-1.06e+01,-1.10e+01,1.16e+00,
566,-1.06e+01,-1.18e+01,1.16e+00,
567,-1.10e+01,-1.10e+01,8.40e-01,
568,-1.10e+01,-1.10e+01,1.16e+00,
569,-1.06e+01,-1.18e+01,8.80e-01,
570,-1.10e+01,-1.10e+01,1.16e+00,
571,-1.06e+01,-1.18e+01,8.80e-01,
572,-1.06e+01,-1.18e+01,1.12e+00,
573,-1.10e+01,-1.10e+01,8.80e-01,
574,-1.06e+01,-1.18e+01,1.16e+00,
575,-1.10e+01,-1.10e+01,8.40e-01,
576,-1.10e+01,-1.18e+01,1.16e+00,
577,-1.06e+01,-1.10e+01,8.40e-01,
578,-1.10e+01,-1.10e+01,8.40e-01,
579,-1.06e+01,-1.18e+01,1.16e+00,
580,-1.10e+01,-1.18e+01,1.16e+00,
581,-1.06e+01,-1.10e+01,8.40e-01,
582,-1.10e+01,-1.18e+01,1.16e+00,
583,-1.06e+01,-1.10e+01,8.40e-01,
584,-1.06e+01,-1.18e+01,1.16e+00,
585,-1.10e+01,-1.10e+01,8.40e-01,
586,-1.10e+01,-1.18e+01,1.16e+00,
587,-1.06e+01,-1.10e+01,8.40e-01,
588,-1.10e+01,-1.10e+01,1.24e+00,
589,-1.06e+01,-1.18e+01,8.40e-01,
590,-1.10e+01,-1.10e+01,1.16e+00,
591,-1.06e+01,-1.18e+01,8.40e-01,
592,-1.10e+01,-1.10e+01,1.16e+00,
